81----------------------11
34----------------------3
311----------------------9
317----------------------9
33----------------------3
58----------------------5
63----------------------7
321----------------------10
30----------------------3
69----------------------6
22----------------------2
335----------------------15
32----------------------3
62----------------------5
43----------------------3
304----------------------9
40----------------------4
100----------------------16
99----------------------16
105----------------------16
109----------------------17
110----------------------17
108----------------------18
352----------------------22
354----------------------22
370----------------------22
371----------------------22
375----------------------22
376----------------------22
383----------------------22
357----------------------23
386----------------------25
148----------------------25
385----------------------25
435----------------------26
436----------------------26
158----------------------28
464----------------------28
165----------------------30
274----------------------30
273----------------------30
241----------------------32
26----------------------32
314----------------------32
24----------------------32
308----------------------32
365----------------------32
75----------------------32
348----------------------32
61----------------------32
21----------------------32
73----------------------32
82----------------------32
27----------------------32
185----------------------35
182----------------------36
446----------------------37
28----------------------38
427----------------------39
196----------------------39
198----------------------39
197----------------------39
23----------------------39
414----------------------39
7----------------------40
413----------------------40
207----------------------41
246----------------------41
249----------------------41
474----------------------41
466----------------------42
402----------------------42
288----------------------42
262----------------------42
410----------------------42
444----------------------42
363----------------------42
412----------------------42
334----------------------43
240----------------------43
217----------------------43
460----------------------43
355----------------------43
287----------------------43
353----------------------43
92----------------------43
252----------------------44
46----------------------44
394----------------------44
222----------------------45
53----------------------45
293----------------------45
462----------------------45
344----------------------45
391----------------------46
31----------------------46
373----------------------46
447----------------------46
41----------------------46
421----------------------46
227----------------------47
459----------------------47
230----------------------48
374----------------------48
395----------------------49
300----------------------49
358----------------------49
9----------------------50
11----------------------50
309----------------------50
387----------------------50
456----------------------50
5----------------------50
440----------------------50
47----------------------50
13----------------------51
313----------------------51
467----------------------51
68----------------------51
302----------------------52
267----------------------52
465----------------------52
392----------------------52
96----------------------52
326----------------------53
3----------------------53
347----------------------53
16----------------------53
56----------------------53
390----------------------53
95----------------------53
369----------------------54
471----------------------54
337----------------------54
283----------------------54
469----------------------55
50----------------------55
71----------------------55
291----------------------55
88----------------------55
468----------------------55
122----------------------55
124----------------------55
301----------------------56
307----------------------56
298----------------------56
400----------------------56
453----------------------56
340----------------------56
411----------------------56
346----------------------57
10----------------------57
255----------------------57
473----------------------57
389----------------------57
250----------------------57
438----------------------57
269----------------------57
472----------------------57
242----------------------58
364----------------------58
254----------------------58
442----------------------58
382----------------------58
398----------------------58
451----------------------58
368----------------------58
260----------------------58
52----------------------59
15----------------------59
85----------------------59
265----------------------59
54----------------------59
452----------------------59
285----------------------59
74----------------------59
418----------------------59
163----------------------59
2----------------------60
324----------------------60
320----------------------60
437----------------------60
36----------------------60
57----------------------60
454----------------------60
296----------------------60
379----------------------60
333----------------------61
14----------------------61
20----------------------61
299----------------------61
449----------------------61
66----------------------61
156----------------------61
330----------------------62
318----------------------62
18----------------------62
67----------------------62
93----------------------62
146----------------------62
423----------------------63
0----------------------63
397----------------------63
83----------------------63
78----------------------63
286----------------------63
470----------------------64
51----------------------64
338----------------------64
362----------------------64
445----------------------64
42----------------------64
251----------------------64
441----------------------64
113----------------------64
187----------------------64
103----------------------64
306----------------------65
367----------------------65
44----------------------65
86----------------------65
419----------------------65
94----------------------65
281----------------------66
29----------------------66
372----------------------66
458----------------------66
360----------------------67
323----------------------67
406----------------------67
116----------------------67
253----------------------68
315----------------------68
271----------------------68
450----------------------68
477----------------------68
351----------------------68
119----------------------68
102----------------------68
297----------------------69
279----------------------69
45----------------------69
264----------------------70
434----------------------70
38----------------------70
349----------------------70
263----------------------70
270----------------------71
329----------------------71
422----------------------71
117----------------------71
79----------------------71
257----------------------72
426----------------------72
366----------------------72
439----------------------72
35----------------------73
1----------------------73
399----------------------73
259----------------------74
17----------------------74
341----------------------74
125----------------------74
188----------------------74
401----------------------75
405----------------------75
328----------------------75
429----------------------75
343----------------------75
416----------------------75
268----------------------75
409----------------------75
172----------------------75
303----------------------76
327----------------------76
433----------------------76
292----------------------76
350----------------------76
176----------------------76
408----------------------77
431----------------------77
378----------------------77
48----------------------77
134----------------------77
455----------------------78
463----------------------78
290----------------------78
432----------------------78
64----------------------78
126----------------------78
180----------------------78
247----------------------79
190----------------------79
140----------------------79
407----------------------80
428----------------------80
183----------------------80
457----------------------81
295----------------------81
396----------------------82
282----------------------82
91----------------------82
256----------------------83
80----------------------83
381----------------------83
8----------------------83
19----------------------83
104----------------------83
181----------------------83
319----------------------84
77----------------------84
39----------------------84
149----------------------85
479----------------------86
404----------------------86
106----------------------86
127----------------------86
278----------------------87
336----------------------87
316----------------------87
258----------------------87
461----------------------87
173----------------------87
305----------------------88
310----------------------88
112----------------------88
345----------------------89
280----------------------89
284----------------------90
417----------------------90
331----------------------91
478----------------------91
84----------------------92
332----------------------92
384----------------------92
425----------------------93
276----------------------93
322----------------------94
325----------------------94
245----------------------94
294----------------------95
261----------------------95
359----------------------95
244----------------------96
131----------------------96
380----------------------97
266----------------------97
220----------------------97
377----------------------98
6----------------------98
59----------------------98
211----------------------98
356----------------------99
339----------------------99
65----------------------100
60----------------------100
76----------------------100
430----------------------101
415----------------------101
137----------------------102
277----------------------103
388----------------------103
12----------------------104
101----------------------104
145----------------------104
393----------------------105
114----------------------105
159----------------------105
476----------------------107
312----------------------107
208----------------------107
272----------------------108
155----------------------108
403----------------------110
184----------------------110
4----------------------110
289----------------------112
275----------------------112
55----------------------112
141----------------------112
111----------------------112
136----------------------113
49----------------------113
228----------------------114
361----------------------115
25----------------------115
215----------------------116
248----------------------117
225----------------------117
420----------------------119
424----------------------120
186----------------------120
123----------------------121
90----------------------121
243----------------------122
475----------------------122
448----------------------125
138----------------------126
169----------------------127
139----------------------127
37----------------------127
152----------------------128
443----------------------129
342----------------------129
151----------------------130
153----------------------132
168----------------------133
235----------------------133
193----------------------134
115----------------------135
144----------------------135
216----------------------138
121----------------------138
191----------------------138
209----------------------139
174----------------------140
178----------------------142
195----------------------144
72----------------------145
142----------------------146
170----------------------147
89----------------------147
194----------------------148
203----------------------153
87----------------------153
143----------------------155
107----------------------155
237----------------------156
70----------------------157
175----------------------158
154----------------------159
232----------------------161
234----------------------166
206----------------------167
192----------------------168
161----------------------169
135----------------------170
120----------------------174
128----------------------176
160----------------------179
132----------------------183
118----------------------183
204----------------------183
200----------------------184
98----------------------184
133----------------------186
147----------------------189
224----------------------189
214----------------------189
177----------------------190
201----------------------197
202----------------------208
189----------------------208
205----------------------208
213----------------------216
212----------------------217
229----------------------218
171----------------------222
164----------------------226
130----------------------227
97----------------------233
199----------------------233
166----------------------236
150----------------------238
179----------------------241
157----------------------243
231----------------------246
167----------------------252
129----------------------256
210----------------------259
223----------------------271
226----------------------272
162----------------------272
238----------------------284
239----------------------300
219----------------------302
236----------------------330
233----------------------339
221----------------------358
218----------------------377
