22----------------------2
273----------------------4
274----------------------4
370----------------------5
371----------------------5
375----------------------5
376----------------------5
383----------------------5
386----------------------5
30----------------------6
32----------------------6
33----------------------6
34----------------------6
43----------------------6
158----------------------7
165----------------------8
321----------------------8
185----------------------11
196----------------------12
198----------------------13
207----------------------14
464----------------------15
105----------------------16
217----------------------17
222----------------------18
227----------------------20
230----------------------21
148----------------------29
311----------------------29
99----------------------31
100----------------------31
81----------------------32
58----------------------33
62----------------------33
69----------------------33
317----------------------34
352----------------------34
354----------------------34
435----------------------34
436----------------------34
444----------------------34
446----------------------34
460----------------------34
462----------------------34
304----------------------35
344----------------------35
348----------------------35
353----------------------35
355----------------------35
357----------------------35
358----------------------35
427----------------------35
287----------------------35
288----------------------35
314----------------------36
365----------------------36
385----------------------36
394----------------------36
402----------------------36
410----------------------36
412----------------------36
413----------------------36
414----------------------36
241----------------------37
246----------------------37
249----------------------37
262----------------------37
421----------------------37
466----------------------38
308----------------------38
474----------------------38
252----------------------38
456----------------------39
465----------------------39
447----------------------39
335----------------------39
293----------------------39
334----------------------39
267----------------------39
281----------------------40
467----------------------40
470----------------------40
471----------------------40
346----------------------40
369----------------------40
374----------------------40
387----------------------40
391----------------------40
392----------------------40
395----------------------40
399----------------------40
363----------------------41
364----------------------41
440----------------------41
449----------------------41
459----------------------41
21----------------------42
24----------------------42
26----------------------42
27----------------------42
283----------------------43
337----------------------43
438----------------------43
453----------------------43
469----------------------44
442----------------------44
347----------------------44
300----------------------44
301----------------------44
302----------------------44
313----------------------44
373----------------------44
389----------------------44
390----------------------44
398----------------------44
400----------------------44
307----------------------45
473----------------------45
269----------------------45
240----------------------45
250----------------------45
251----------------------45
253----------------------45
254----------------------45
255----------------------45
53----------------------46
40----------------------46
265----------------------47
270----------------------47
271----------------------47
242----------------------47
454----------------------47
468----------------------47
472----------------------47
309----------------------47
368----------------------47
382----------------------47
397----------------------48
411----------------------48
326----------------------48
340----------------------48
437----------------------48
418----------------------48
61----------------------49
63----------------------49
296----------------------49
73----------------------50
75----------------------50
423----------------------50
92----------------------51
82----------------------51
109----------------------52
110----------------------52
23----------------------52
28----------------------52
291----------------------53
285----------------------53
260----------------------53
450----------------------53
451----------------------53
7----------------------53
445----------------------54
452----------------------54
362----------------------54
360----------------------54
406----------------------54
264----------------------55
458----------------------55
298----------------------55
379----------------------56
323----------------------56
324----------------------56
434----------------------56
257----------------------56
278----------------------56
279----------------------56
256----------------------56
294----------------------56
479----------------------56
441----------------------56
477----------------------56
306----------------------56
315----------------------57
367----------------------57
13----------------------57
333----------------------57
286----------------------57
455----------------------57
407----------------------57
408----------------------57
318----------------------57
320----------------------57
330----------------------57
338----------------------57
9----------------------58
52----------------------59
41----------------------59
46----------------------59
351----------------------59
372----------------------59
425----------------------59
426----------------------59
396----------------------60
401----------------------60
329----------------------60
405----------------------60
419----------------------60
422----------------------60
428----------------------60
268----------------------60
299----------------------60
259----------------------61
297----------------------61
416----------------------61
349----------------------61
429----------------------61
430----------------------61
431----------------------61
433----------------------61
263----------------------61
247----------------------61
439----------------------62
404----------------------62
290----------------------62
366----------------------62
463----------------------62
292----------------------62
5----------------------62
11----------------------62
15----------------------62
31----------------------63
108----------------------63
88----------------------64
95----------------------64
96----------------------65
83----------------------65
85----------------------65
68----------------------66
156----------------------66
282----------------------66
146----------------------68
140----------------------69
476----------------------71
341----------------------72
197----------------------73
187----------------------73
188----------------------73
182----------------------74
163----------------------76
122----------------------78
124----------------------78
50----------------------78
56----------------------78
409----------------------79
343----------------------79
356----------------------79
261----------------------79
457----------------------79
295----------------------79
378----------------------79
380----------------------79
381----------------------79
345----------------------79
280----------------------80
432----------------------80
258----------------------80
284----------------------80
303----------------------80
2----------------------80
3----------------------80
10----------------------80
16----------------------81
461----------------------81
327----------------------81
328----------------------81
350----------------------81
478----------------------81
18----------------------81
305----------------------82
310----------------------82
417----------------------82
36----------------------82
47----------------------83
51----------------------83
276----------------------83
86----------------------84
66----------------------84
119----------------------85
117----------------------85
116----------------------85
113----------------------85
71----------------------85
266----------------------85
319----------------------86
275----------------------86
359----------------------86
277----------------------86
415----------------------86
14----------------------86
377----------------------87
384----------------------87
322----------------------87
289----------------------87
0----------------------87
20----------------------87
336----------------------88
57----------------------88
54----------------------88
420----------------------89
325----------------------89
244----------------------89
332----------------------89
403----------------------89
316----------------------89
103----------------------89
80----------------------90
93----------------------90
94----------------------90
74----------------------91
84----------------------91
67----------------------91
78----------------------91
245----------------------91
388----------------------91
393----------------------91
125----------------------92
159----------------------92
339----------------------93
172----------------------94
176----------------------94
331----------------------94
180----------------------95
181----------------------95
183----------------------95
190----------------------96
272----------------------97
35----------------------99
42----------------------103
38----------------------103
29----------------------104
1----------------------104
220----------------------105
248----------------------106
361----------------------106
211----------------------108
102----------------------108
79----------------------109
312----------------------111
424----------------------111
44----------------------111
17----------------------111
91----------------------111
448----------------------112
45----------------------112
8----------------------112
131----------------------113
186----------------------114
179----------------------115
184----------------------115
173----------------------116
475----------------------116
243----------------------116
443----------------------117
126----------------------118
104----------------------118
39----------------------119
77----------------------119
149----------------------119
134----------------------123
106----------------------124
112----------------------124
19----------------------125
342----------------------125
64----------------------125
127----------------------129
132----------------------130
138----------------------131
123----------------------131
168----------------------131
208----------------------134
215----------------------137
216----------------------137
48----------------------138
225----------------------139
228----------------------139
237----------------------144
6----------------------144
101----------------------146
235----------------------146
169----------------------149
155----------------------151
12----------------------152
137----------------------153
4----------------------154
114----------------------155
59----------------------156
145----------------------157
136----------------------157
178----------------------163
153----------------------163
234----------------------165
76----------------------166
90----------------------169
118----------------------169
111----------------------170
65----------------------170
25----------------------171
193----------------------171
209----------------------171
191----------------------173
141----------------------175
142----------------------176
139----------------------176
37----------------------177
55----------------------177
60----------------------177
144----------------------178
203----------------------180
195----------------------180
233----------------------185
151----------------------188
152----------------------189
170----------------------189
174----------------------189
49----------------------191
204----------------------191
121----------------------194
194----------------------194
115----------------------196
89----------------------198
175----------------------198
147----------------------200
232----------------------201
166----------------------201
224----------------------203
201----------------------207
206----------------------207
143----------------------208
200----------------------209
72----------------------209
202----------------------210
87----------------------211
160----------------------211
192----------------------212
214----------------------213
107----------------------215
154----------------------219
161----------------------220
133----------------------222
120----------------------223
199----------------------224
229----------------------225
231----------------------225
70----------------------226
135----------------------229
98----------------------229
226----------------------234
177----------------------234
205----------------------239
189----------------------239
128----------------------240
212----------------------245
213----------------------247
171----------------------253
164----------------------254
167----------------------254
97----------------------258
130----------------------263
238----------------------267
150----------------------269
210----------------------269
157----------------------271
239----------------------274
129----------------------275
162----------------------278
223----------------------280
219----------------------293
236----------------------301
221----------------------312
218----------------------315
