1507
3
312
305
586
1943
917
2681
663
751
675
2034
950
2831
816
2566
402
434
3511
1307
2168
845
670
1734
3625
61
1815
1514
1742
1024
1798
2500
501
852
936
2317
2098
1469
2809
1426
530
3028
2900
1023
653
1258
649
817
1691
1354
4243
378
867
360
1409
429
1354
1602
3103
1124
358
2596
1945
1633
2435
1065
835
1061
1668
765
2384
2070
3515
880
1149
833
251
373
929
2286
970
762
1263
2012
1901
1132
809
644
594
1260
218
1984
724
875
955
907
1075
726
666
1432
2211
546
463
1677
1200
496
1225
1427
1565
308
416
2073
1019
1796
1971
484
1413
1868
1297
1461
2141
1399
1294
2006
1035
1182
297
1140
3137
552
2194
1254
677
402
132
1190
138
2003
267
809
468
912
804
1201
113
1659
34
1236
1585
137
1354
366
1870
2023
1252
2502
1348
336
1549
17
2468
2516
280
1046
2725
846
1039
951
944
804
1569
180
1197
890
271
2308
975
857
2930
778
476
1173
145
2071
1800
2701
683
1416
1079
892
897
1231
1224
2743
1305
1173
1626
1007
523
1576
1290
1591
816
2386
742
254
1679
809
645
1173
602
975
3244
133
515
1762
1873
1415
1875
2051
879
711
200
2896
78
960
515
413
145
2534
2064
388
1006
1363
2033
2144
2222
1682
1184
48
1397
2652
35
756
3462
591
831
996
1862
111
1116
736
125
1229
620
2574
1869
934
380
1609
1349
1195
1802
1568
1497
3577
2905
1721
2775
1863
625
2263
1413
2530
2352
826
1990
1530
1107
2459
587
893
2141
412
1877
1488
793
89
1395
2277
2899
1574
749
1353
171
930
121
818
1197
2231
1599
2999
2085
1625
580
1393
1775
1195
1207
1757
745
1278
1877
845
1009
1046
1557
793
644
336
916
2481
1209
2183
1526
1324
666
653
1012
497
979
16
1262
1418
1565
2427
636
2055
413
2076
2281
2458
386
705
653
1689
1763
1441
2736
860
2472
1016
1482
2222
951
2689
341
1000
2907
259
1793
1850
1927
842
61
153
80
984
388
2017
1833
2441
1138
1837
341
1374
1157
546
2926
1811
249
1482
1118
1224
1044
1076
1397
1348
1344
1294
466
4290
1512
2615
1174
2714
1675
248
2058
2589
1280
1211
931
815
1621
1052
1731
2181
1012
1101
1904
2703
2386
1746
1047
3416
421
1155
1094
2627
701
625
1902
1534
2577
451
1850
925
393
506
1296
885
3259
2271
822
1528
1408
1202
1159
2061
1697
1914
904
295
1654
2599
758
1442
1437
1136
2045
2677
377
3054
1470
2352
422
960
1902
1164
578
132
501
1963
1184
281
1109
2076
2847
155
287
309
929
1174
2341
2059
898
1476
666
1721
