396_ep_expo.txtStart time  5 #Finish Time: 63 GPU: 1 _ep: 1003

460_ep_expo.txtStart time  15 #Finish Time: 63 GPU: 1 _ep: 980

439_ep_expo.txtStart time  14 #Finish Time: 63 GPU: 1 _ep: 994

437_ep_expo.txtStart time  14 #Finish Time: 63 GPU: 1 _ep: 958

438_ep_expo.txtStart time  14 #Finish Time: 63 GPU: 1 _ep: 974

420_ep_expo.txtStart time  12 #Finish Time: 63 GPU: 1 _ep: 1005

350_ep_expo.txtStart time  11 #Finish Time: 63 GPU: 1 _ep: 985

338_ep_expo.txtStart time  10 #Finish Time: 63 GPU: 1 _ep: 1005

335_ep_expo.txtStart time  9 #Finish Time: 63 GPU: 1 _ep: 994

320_ep_expo.txtStart time  8 #Finish Time: 63 GPU: 1 _ep: 1016

292_ep_expo.txtStart time  7 #Finish Time: 63 GPU: 1 _ep: 965

291_ep_expo.txtStart time  7 #Finish Time: 63 GPU: 1 _ep: 1000

285_ep_expo.txtStart time  6 #Finish Time: 63 GPU: 1 _ep: 1007

423_ep_expo.txtStart time  23 #Finish Time: 63 GPU: 1 _ep: 1008

344_ep_expo.txtStart time  23 #Finish Time: 63 GPU: 1 _ep: 1006

345_ep_expo.txtStart time  23 #Finish Time: 63 GPU: 1 _ep: 998

241_ep_expo.txtStart time  4 #Finish Time: 63 GPU: 1 _ep: 975

243_ep_expo.txtStart time  4 #Finish Time: 63 GPU: 1 _ep: 999

259_ep_expo.txtStart time  4 #Finish Time: 63 GPU: 1 _ep: 978

246_ep_expo.txtStart time  4 #Finish Time: 63 GPU: 1 _ep: 953

247_ep_expo.txtStart time  4 #Finish Time: 63 GPU: 1 _ep: 951

249_ep_expo.txtStart time  4 #Finish Time: 63 GPU: 1 _ep: 1017

250_ep_expo.txtStart time  4 #Finish Time: 63 GPU: 1 _ep: 1005

251_ep_expo.txtStart time  4 #Finish Time: 63 GPU: 1 _ep: 1032

253_ep_expo.txtStart time  4 #Finish Time: 63 GPU: 1 _ep: 996

255_ep_expo.txtStart time  4 #Finish Time: 63 GPU: 1 _ep: 939

257_ep_expo.txtStart time  4 #Finish Time: 63 GPU: 1 _ep: 958

258_ep_expo.txtStart time  4 #Finish Time: 63 GPU: 1 _ep: 956

361_ep_expo.txtStart time  5 #Finish Time: 63 GPU: 1 _ep: 1003

362_ep_expo.txtStart time  5 #Finish Time: 63 GPU: 1 _ep: 979

363_ep_expo.txtStart time  5 #Finish Time: 63 GPU: 1 _ep: 995

366_ep_expo.txtStart time  5 #Finish Time: 63 GPU: 1 _ep: 979

367_ep_expo.txtStart time  5 #Finish Time: 63 GPU: 1 _ep: 983

369_ep_expo.txtStart time  5 #Finish Time: 63 GPU: 1 _ep: 977

370_ep_expo.txtStart time  5 #Finish Time: 63 GPU: 1 _ep: 1022

371_ep_expo.txtStart time  5 #Finish Time: 63 GPU: 1 _ep: 1023

275_ep_expo.txtStart time  4 #Finish Time: 63 GPU: 1 _ep: 974

277_ep_expo.txtStart time  4 #Finish Time: 64 GPU: 1 _ep: 994

375_ep_expo.txtStart time  5 #Finish Time: 64 GPU: 1 _ep: 948

376_ep_expo.txtStart time  5 #Finish Time: 64 GPU: 1 _ep: 937

379_ep_expo.txtStart time  5 #Finish Time: 64 GPU: 1 _ep: 983

261_ep_expo.txtStart time  4 #Finish Time: 64 GPU: 1 _ep: 987

262_ep_expo.txtStart time  4 #Finish Time: 64 GPU: 1 _ep: 966

263_ep_expo.txtStart time  4 #Finish Time: 64 GPU: 1 _ep: 943

264_ep_expo.txtStart time  4 #Finish Time: 64 GPU: 1 _ep: 1020

265_ep_expo.txtStart time  4 #Finish Time: 64 GPU: 1 _ep: 979

301_ep_expo.txtStart time  25 #Finish Time: 64 GPU: 1 _ep: 1007

303_ep_expo.txtStart time  25 #Finish Time: 64 GPU: 1 _ep: 996

304_ep_expo.txtStart time  25 #Finish Time: 64 GPU: 1 _ep: 997

457_ep_expo.txtStart time  24 #Finish Time: 64 GPU: 1 _ep: 946

449_ep_expo.txtStart time  24 #Finish Time: 64 GPU: 1 _ep: 1002

450_ep_expo.txtStart time  24 #Finish Time: 64 GPU: 1 _ep: 1015

451_ep_expo.txtStart time  24 #Finish Time: 64 GPU: 1 _ep: 995

452_ep_expo.txtStart time  24 #Finish Time: 64 GPU: 1 _ep: 941

453_ep_expo.txtStart time  24 #Finish Time: 64 GPU: 1 _ep: 1009

316_ep_expo.txtStart time  29 #Finish Time: 64 GPU: 1 _ep: 969

317_ep_expo.txtStart time  29 #Finish Time: 64 GPU: 1 _ep: 985

318_ep_expo.txtStart time  29 #Finish Time: 64 GPU: 1 _ep: 962

465_ep_expo.txtStart time  28 #Finish Time: 64 GPU: 1 _ep: 972

466_ep_expo.txtStart time  28 #Finish Time: 64 GPU: 1 _ep: 999

467_ep_expo.txtStart time  28 #Finish Time: 64 GPU: 1 _ep: 1000

468_ep_expo.txtStart time  28 #Finish Time: 64 GPU: 1 _ep: 977

469_ep_expo.txtStart time  28 #Finish Time: 64 GPU: 1 _ep: 956

470_ep_expo.txtStart time  28 #Finish Time: 64 GPU: 1 _ep: 981

391_ep_expo.txtStart time  5 #Finish Time: 64 GPU: 1 _ep: 988

393_ep_expo.txtStart time  5 #Finish Time: 64 GPU: 1 _ep: 977

400_ep_expo.txtStart time  5 #Finish Time: 65 GPU: 1 _ep: 1013

401_ep_expo.txtStart time  5 #Finish Time: 65 GPU: 1 _ep: 986

406_ep_expo.txtStart time  5 #Finish Time: 65 GPU: 1 _ep: 928

407_ep_expo.txtStart time  5 #Finish Time: 65 GPU: 1 _ep: 957

408_ep_expo.txtStart time  5 #Finish Time: 65 GPU: 1 _ep: 985

409_ep_expo.txtStart time  5 #Finish Time: 65 GPU: 1 _ep: 921

410_ep_expo.txtStart time  5 #Finish Time: 65 GPU: 1 _ep: 979

411_ep_expo.txtStart time  5 #Finish Time: 65 GPU: 1 _ep: 1014

412_ep_expo.txtStart time  5 #Finish Time: 65 GPU: 1 _ep: 998

414_ep_expo.txtStart time  5 #Finish Time: 65 GPU: 1 _ep: 1024

415_ep_expo.txtStart time  5 #Finish Time: 65 GPU: 1 _ep: 941

283_ep_expo.txtStart time  4 #Finish Time: 65 GPU: 1 _ep: 978

341_ep_expo.txtStart time  17 #Finish Time: 65 GPU: 1 _ep: 951

342_ep_expo.txtStart time  17 #Finish Time: 65 GPU: 1 _ep: 1012

300_ep_expo.txtStart time  16 #Finish Time: 65 GPU: 1 _ep: 938

299_ep_expo.txtStart time  16 #Finish Time: 65 GPU: 1 _ep: 1023

463_ep_expo.txtStart time  31 #Finish Time: 65 GPU: 1 _ep: 970

322_ep_expo.txtStart time  31 #Finish Time: 65 GPU: 1 _ep: 968

323_ep_expo.txtStart time  31 #Finish Time: 65 GPU: 1 _ep: 948

324_ep_expo.txtStart time  31 #Finish Time: 65 GPU: 1 _ep: 1027

325_ep_expo.txtStart time  31 #Finish Time: 65 GPU: 1 _ep: 982

328_ep_expo.txtStart time  30 #Finish Time: 65 GPU: 1 _ep: 972

329_ep_expo.txtStart time  30 #Finish Time: 65 GPU: 1 _ep: 947

330_ep_expo.txtStart time  30 #Finish Time: 65 GPU: 1 _ep: 956

433_ep_expo.txtStart time  30 #Finish Time: 65 GPU: 1 _ep: 952

435_ep_expo.txtStart time  30 #Finish Time: 65 GPU: 1 _ep: 1002

479_ep_expo.txtStart time  29 #Finish Time: 65 GPU: 1 _ep: 951

286_ep_expo.txtStart time  29 #Finish Time: 65 GPU: 1 _ep: 980

313_ep_expo.txtStart time  29 #Finish Time: 65 GPU: 1 _ep: 953

314_ep_expo.txtStart time  29 #Finish Time: 65 GPU: 1 _ep: 971

315_ep_expo.txtStart time  29 #Finish Time: 65 GPU: 1 _ep: 1022

444_ep_expo.txtStart time  30 #Finish Time: 65 GPU: 1 _ep: 1022

346_ep_expo.txtStart time  23 #Finish Time: 65 GPU: 1 _ep: 998

347_ep_expo.txtStart time  23 #Finish Time: 65 GPU: 1 _ep: 973

372_ep_expo.txtStart time  5 #Finish Time: 65 GPU: 1 _ep: 972

373_ep_expo.txtStart time  5 #Finish Time: 65 GPU: 1 _ep: 970

474_ep_expo.txtStart time  28 #Finish Time: 65 GPU: 1 _ep: 980

419_ep_expo.txtStart time  23 #Finish Time: 66 GPU: 1 _ep: 997

441_ep_expo.txtStart time  22 #Finish Time: 66 GPU: 1 _ep: 989

440_ep_expo.txtStart time  22 #Finish Time: 66 GPU: 1 _ep: 982

426_ep_expo.txtStart time  21 #Finish Time: 66 GPU: 1 _ep: 988

425_ep_expo.txtStart time  21 #Finish Time: 66 GPU: 1 _ep: 1004

418_ep_expo.txtStart time  20 #Finish Time: 66 GPU: 1 _ep: 1020

476_ep_expo.txtStart time  19 #Finish Time: 66 GPU: 1 _ep: 1015

357_ep_expo.txtStart time  18 #Finish Time: 66 GPU: 1 _ep: 976

334_ep_expo.txtStart time  26 #Finish Time: 66 GPU: 1 _ep: 1034

339_ep_expo.txtStart time  26 #Finish Time: 66 GPU: 1 _ep: 990

340_ep_expo.txtStart time  26 #Finish Time: 66 GPU: 1 _ep: 947

428_ep_expo.txtStart time  26 #Finish Time: 66 GPU: 1 _ep: 997

429_ep_expo.txtStart time  26 #Finish Time: 66 GPU: 1 _ep: 973

305_ep_expo.txtStart time  25 #Finish Time: 66 GPU: 1 _ep: 1007

290_ep_expo.txtStart time  25 #Finish Time: 66 GPU: 1 _ep: 1014

287_ep_expo.txtStart time  27 #Finish Time: 66 GPU: 1 _ep: 967

288_ep_expo.txtStart time  27 #Finish Time: 66 GPU: 1 _ep: 951

308_ep_expo.txtStart time  27 #Finish Time: 66 GPU: 1 _ep: 973

311_ep_expo.txtStart time  27 #Finish Time: 66 GPU: 1 _ep: 922

431_ep_expo.txtStart time  26 #Finish Time: 66 GPU: 1 _ep: 966

332_ep_expo.txtStart time  26 #Finish Time: 66 GPU: 1 _ep: 977

445_ep_expo.txtStart time  31 #Finish Time: 66 GPU: 1 _ep: 1004

360_ep_expo.txtStart time  5 #Finish Time: 66 GPU: 1 _ep: 952

417_ep_expo.txtStart time  5 #Finish Time: 66 GPU: 1 _ep: 991

472_ep_expo.txtStart time  28 #Finish Time: 66 GPU: 1 _ep: 1007

473_ep_expo.txtStart time  28 #Finish Time: 66 GPU: 1 _ep: 994

383_ep_expo.txtStart time  5 #Finish Time: 66 GPU: 1 _ep: 975

385_ep_expo.txtStart time  5 #Finish Time: 66 GPU: 1 _ep: 991

386_ep_expo.txtStart time  5 #Finish Time: 66 GPU: 1 _ep: 983

387_ep_expo.txtStart time  5 #Finish Time: 66 GPU: 1 _ep: 989

389_ep_expo.txtStart time  5 #Finish Time: 66 GPU: 1 _ep: 950

421_ep_expo.txtStart time  12 #Finish Time: 68 GPU: 1 _ep: 994

390_ep_expo.txtStart time  5 #Finish Time: 69 GPU: 1 _ep: 1041

471_ep_expo.txtStart time  28 #Finish Time: 69 GPU: 1 _ep: 1009

354_ep_expo.txtStart time  23 #Finish Time: 69 GPU: 1 _ep: 998

436_ep_expo.txtStart time  22 #Finish Time: 69 GPU: 1 _ep: 1058

424_ep_expo.txtStart time  21 #Finish Time: 69 GPU: 1 _ep: 1064

355_ep_expo.txtStart time  20 #Finish Time: 69 GPU: 1 _ep: 1006

356_ep_expo.txtStart time  20 #Finish Time: 69 GPU: 1 _ep: 1003

477_ep_expo.txtStart time  19 #Finish Time: 69 GPU: 1 _ep: 1017

475_ep_expo.txtStart time  19 #Finish Time: 69 GPU: 1 _ep: 1042

359_ep_expo.txtStart time  18 #Finish Time: 69 GPU: 1 _ep: 1053

333_ep_expo.txtStart time  26 #Finish Time: 69 GPU: 1 _ep: 1058

427_ep_expo.txtStart time  26 #Finish Time: 69 GPU: 1 _ep: 1017

293_ep_expo.txtStart time  25 #Finish Time: 69 GPU: 1 _ep: 1017

294_ep_expo.txtStart time  25 #Finish Time: 69 GPU: 1 _ep: 1010

295_ep_expo.txtStart time  25 #Finish Time: 69 GPU: 1 _ep: 1019

296_ep_expo.txtStart time  25 #Finish Time: 69 GPU: 1 _ep: 1009

289_ep_expo.txtStart time  27 #Finish Time: 69 GPU: 1 _ep: 1000

306_ep_expo.txtStart time  27 #Finish Time: 69 GPU: 1 _ep: 967

307_ep_expo.txtStart time  27 #Finish Time: 69 GPU: 1 _ep: 1016

309_ep_expo.txtStart time  27 #Finish Time: 69 GPU: 1 _ep: 1017

310_ep_expo.txtStart time  27 #Finish Time: 69 GPU: 1 _ep: 1050

430_ep_expo.txtStart time  26 #Finish Time: 69 GPU: 1 _ep: 995

331_ep_expo.txtStart time  26 #Finish Time: 69 GPU: 1 _ep: 1047

446_ep_expo.txtStart time  31 #Finish Time: 69 GPU: 1 _ep: 1020

458_ep_expo.txtStart time  31 #Finish Time: 69 GPU: 1 _ep: 1019

260_ep_expo.txtStart time  4 #Finish Time: 69 GPU: 1 _ep: 1027

312_ep_expo.txtStart time  27 #Finish Time: 69 GPU: 1 _ep: 1022

384_ep_expo.txtStart time  5 #Finish Time: 69 GPU: 1 _ep: 1055

388_ep_expo.txtStart time  5 #Finish Time: 69 GPU: 1 _ep: 1005

399_ep_expo.txtStart time  5 #Finish Time: 69 GPU: 1 _ep: 1006

402_ep_expo.txtStart time  5 #Finish Time: 69 GPU: 1 _ep: 987

403_ep_expo.txtStart time  5 #Finish Time: 69 GPU: 1 _ep: 1016

404_ep_expo.txtStart time  5 #Finish Time: 69 GPU: 1 _ep: 1055

405_ep_expo.txtStart time  5 #Finish Time: 70 GPU: 1 _ep: 1028

413_ep_expo.txtStart time  5 #Finish Time: 70 GPU: 1 _ep: 967

416_ep_expo.txtStart time  5 #Finish Time: 70 GPU: 1 _ep: 1019

358_ep_expo.txtStart time  18 #Finish Time: 70 GPU: 1 _ep: 1026

343_ep_expo.txtStart time  17 #Finish Time: 70 GPU: 1 _ep: 1032

298_ep_expo.txtStart time  16 #Finish Time: 70 GPU: 1 _ep: 998

462_ep_expo.txtStart time  15 #Finish Time: 70 GPU: 1 _ep: 1026

326_ep_expo.txtStart time  31 #Finish Time: 70 GPU: 1 _ep: 1008

327_ep_expo.txtStart time  30 #Finish Time: 70 GPU: 1 _ep: 996

432_ep_expo.txtStart time  30 #Finish Time: 70 GPU: 1 _ep: 1050

434_ep_expo.txtStart time  30 #Finish Time: 70 GPU: 1 _ep: 1014

442_ep_expo.txtStart time  30 #Finish Time: 70 GPU: 1 _ep: 1040

443_ep_expo.txtStart time  30 #Finish Time: 70 GPU: 1 _ep: 1055

319_ep_expo.txtStart time  29 #Finish Time: 70 GPU: 1 _ep: 1050

478_ep_expo.txtStart time  29 #Finish Time: 70 GPU: 1 _ep: 1006

348_ep_expo.txtStart time  23 #Finish Time: 70 GPU: 1 _ep: 1018

349_ep_expo.txtStart time  23 #Finish Time: 70 GPU: 1 _ep: 1013

374_ep_expo.txtStart time  5 #Finish Time: 70 GPU: 1 _ep: 1029

278_ep_expo.txtStart time  4 #Finish Time: 70 GPU: 1 _ep: 1030

279_ep_expo.txtStart time  4 #Finish Time: 70 GPU: 1 _ep: 1003

280_ep_expo.txtStart time  4 #Finish Time: 70 GPU: 1 _ep: 998

281_ep_expo.txtStart time  4 #Finish Time: 70 GPU: 1 _ep: 1038

282_ep_expo.txtStart time  4 #Finish Time: 70 GPU: 1 _ep: 1018

377_ep_expo.txtStart time  5 #Finish Time: 70 GPU: 1 _ep: 1013

378_ep_expo.txtStart time  5 #Finish Time: 70 GPU: 1 _ep: 1013

380_ep_expo.txtStart time  5 #Finish Time: 70 GPU: 1 _ep: 1001

381_ep_expo.txtStart time  5 #Finish Time: 70 GPU: 1 _ep: 1005

266_ep_expo.txtStart time  4 #Finish Time: 70 GPU: 1 _ep: 1032

267_ep_expo.txtStart time  4 #Finish Time: 70 GPU: 1 _ep: 1040

268_ep_expo.txtStart time  4 #Finish Time: 70 GPU: 1 _ep: 1006

269_ep_expo.txtStart time  4 #Finish Time: 70 GPU: 1 _ep: 1035

270_ep_expo.txtStart time  4 #Finish Time: 70 GPU: 1 _ep: 996

271_ep_expo.txtStart time  4 #Finish Time: 70 GPU: 1 _ep: 1016

272_ep_expo.txtStart time  4 #Finish Time: 70 GPU: 1 _ep: 1020

273_ep_expo.txtStart time  4 #Finish Time: 70 GPU: 1 _ep: 1041

274_ep_expo.txtStart time  4 #Finish Time: 70 GPU: 1 _ep: 1011

297_ep_expo.txtStart time  25 #Finish Time: 70 GPU: 1 _ep: 1026

302_ep_expo.txtStart time  25 #Finish Time: 70 GPU: 1 _ep: 1012

447_ep_expo.txtStart time  24 #Finish Time: 70 GPU: 1 _ep: 1025

448_ep_expo.txtStart time  24 #Finish Time: 70 GPU: 1 _ep: 1016

454_ep_expo.txtStart time  24 #Finish Time: 70 GPU: 1 _ep: 1014

464_ep_expo.txtStart time  28 #Finish Time: 70 GPU: 1 _ep: 1068

392_ep_expo.txtStart time  5 #Finish Time: 70 GPU: 1 _ep: 1040

394_ep_expo.txtStart time  5 #Finish Time: 70 GPU: 1 _ep: 1017

459_ep_expo.txtStart time  31 #Finish Time: 70 GPU: 1 _ep: 1020

382_ep_expo.txtStart time  5 #Finish Time: 70 GPU: 1 _ep: 1031

397_ep_expo.txtStart time  5 #Finish Time: 70 GPU: 1 _ep: 1095

398_ep_expo.txtStart time  5 #Finish Time: 70 GPU: 1 _ep: 1045

395_ep_expo.txtStart time  5 #Finish Time: 70 GPU: 1 _ep: 986

461_ep_expo.txtStart time  15 #Finish Time: 70 GPU: 1 _ep: 1109

422_ep_expo.txtStart time  13 #Finish Time: 70 GPU: 1 _ep: 1016

351_ep_expo.txtStart time  11 #Finish Time: 70 GPU: 1 _ep: 1033

337_ep_expo.txtStart time  10 #Finish Time: 70 GPU: 1 _ep: 997

336_ep_expo.txtStart time  9 #Finish Time: 70 GPU: 1 _ep: 1015

321_ep_expo.txtStart time  8 #Finish Time: 70 GPU: 1 _ep: 1004

284_ep_expo.txtStart time  6 #Finish Time: 70 GPU: 1 _ep: 1053

455_ep_expo.txtStart time  24 #Finish Time: 70 GPU: 1 _ep: 1053

456_ep_expo.txtStart time  24 #Finish Time: 70 GPU: 1 _ep: 1021

240_ep_expo.txtStart time  4 #Finish Time: 70 GPU: 1 _ep: 1047

242_ep_expo.txtStart time  4 #Finish Time: 71 GPU: 1 _ep: 1016

244_ep_expo.txtStart time  4 #Finish Time: 71 GPU: 1 _ep: 1023

245_ep_expo.txtStart time  4 #Finish Time: 71 GPU: 1 _ep: 1026

248_ep_expo.txtStart time  4 #Finish Time: 71 GPU: 1 _ep: 1032

252_ep_expo.txtStart time  4 #Finish Time: 71 GPU: 1 _ep: 1037

254_ep_expo.txtStart time  4 #Finish Time: 71 GPU: 1 _ep: 1010

256_ep_expo.txtStart time  4 #Finish Time: 71 GPU: 1 _ep: 1038

364_ep_expo.txtStart time  5 #Finish Time: 71 GPU: 1 _ep: 1039

365_ep_expo.txtStart time  5 #Finish Time: 71 GPU: 1 _ep: 1036

368_ep_expo.txtStart time  5 #Finish Time: 71 GPU: 1 _ep: 1015

276_ep_expo.txtStart time  4 #Finish Time: 71 GPU: 1 _ep: 1002

352_ep_expo.txtStart time  23 #Finish Time: 71 GPU: 1 _ep: 1017

353_ep_expo.txtStart time  23 #Finish Time: 71 GPU: 1 _ep: 1022

0_ep_expo.txtStart time  2 #Finish Time: 91 GPU: 2 _ep: 993

18_ep_expo.txtStart time  2 #Finish Time: 91 GPU: 2 _ep: 971

19_ep_expo.txtStart time  2 #Finish Time: 91 GPU: 2 _ep: 942

22_ep_expo.txtStart time  2 #Finish Time: 91 GPU: 2 _ep: 982

24_ep_expo.txtStart time  2 #Finish Time: 91 GPU: 2 _ep: 982

26_ep_expo.txtStart time  2 #Finish Time: 91 GPU: 2 _ep: 995

36_ep_expo.txtStart time  6 #Finish Time: 92 GPU: 2 _ep: 951

37_ep_expo.txtStart time  6 #Finish Time: 92 GPU: 2 _ep: 939

38_ep_expo.txtStart time  6 #Finish Time: 92 GPU: 2 _ep: 1009

39_ep_expo.txtStart time  6 #Finish Time: 92 GPU: 2 _ep: 945

8_ep_expo.txtStart time  2 #Finish Time: 92 GPU: 2 _ep: 980

15_ep_expo.txtStart time  2 #Finish Time: 93 GPU: 2 _ep: 954

6_ep_expo.txtStart time  2 #Finish Time: 93 GPU: 2 _ep: 986

5_ep_expo.txtStart time  2 #Finish Time: 93 GPU: 2 _ep: 975

11_ep_expo.txtStart time  2 #Finish Time: 93 GPU: 2 _ep: 980

4_ep_expo.txtStart time  2 #Finish Time: 93 GPU: 2 _ep: 964

3_ep_expo.txtStart time  2 #Finish Time: 93 GPU: 2 _ep: 1024

2_ep_expo.txtStart time  2 #Finish Time: 93 GPU: 2 _ep: 963

1_ep_expo.txtStart time  2 #Finish Time: 93 GPU: 2 _ep: 978

33_ep_expo.txtStart time  6 #Finish Time: 93 GPU: 2 _ep: 924

32_ep_expo.txtStart time  6 #Finish Time: 94 GPU: 2 _ep: 983

31_ep_expo.txtStart time  6 #Finish Time: 94 GPU: 2 _ep: 1003

35_ep_expo.txtStart time  6 #Finish Time: 96 GPU: 2 _ep: 1029

12_ep_expo.txtStart time  2 #Finish Time: 98 GPU: 2 _ep: 1001

30_ep_expo.txtStart time  6 #Finish Time: 98 GPU: 2 _ep: 989

9_ep_expo.txtStart time  2 #Finish Time: 98 GPU: 2 _ep: 997

16_ep_expo.txtStart time  2 #Finish Time: 98 GPU: 2 _ep: 1035

34_ep_expo.txtStart time  6 #Finish Time: 98 GPU: 2 _ep: 1035

29_ep_expo.txtStart time  2 #Finish Time: 98 GPU: 2 _ep: 1072

27_ep_expo.txtStart time  2 #Finish Time: 98 GPU: 2 _ep: 1033

28_ep_expo.txtStart time  2 #Finish Time: 98 GPU: 2 _ep: 1029

7_ep_expo.txtStart time  2 #Finish Time: 98 GPU: 2 _ep: 1034

10_ep_expo.txtStart time  2 #Finish Time: 98 GPU: 2 _ep: 1069

13_ep_expo.txtStart time  2 #Finish Time: 98 GPU: 2 _ep: 1039

14_ep_expo.txtStart time  2 #Finish Time: 98 GPU: 2 _ep: 998

17_ep_expo.txtStart time  2 #Finish Time: 98 GPU: 2 _ep: 1029

20_ep_expo.txtStart time  2 #Finish Time: 98 GPU: 2 _ep: 1002

21_ep_expo.txtStart time  2 #Finish Time: 98 GPU: 2 _ep: 1004

23_ep_expo.txtStart time  2 #Finish Time: 98 GPU: 2 _ep: 1042

25_ep_expo.txtStart time  2 #Finish Time: 98 GPU: 2 _ep: 994

59_ep_expo.txtStart time  7 #Finish Time: 99 GPU: 3 _ep: 955

52_ep_expo.txtStart time  7 #Finish Time: 121 GPU: 3 _ep: 962

53_ep_expo.txtStart time  7 #Finish Time: 121 GPU: 3 _ep: 988

54_ep_expo.txtStart time  7 #Finish Time: 121 GPU: 3 _ep: 1016

42_ep_expo.txtStart time  6 #Finish Time: 121 GPU: 3 _ep: 1012

45_ep_expo.txtStart time  6 #Finish Time: 125 GPU: 3 _ep: 1000

46_ep_expo.txtStart time  6 #Finish Time: 125 GPU: 3 _ep: 993

48_ep_expo.txtStart time  6 #Finish Time: 125 GPU: 3 _ep: 988

49_ep_expo.txtStart time  6 #Finish Time: 125 GPU: 3 _ep: 1000

56_ep_expo.txtStart time  7 #Finish Time: 125 GPU: 3 _ep: 1002

55_ep_expo.txtStart time  7 #Finish Time: 125 GPU: 3 _ep: 1007

50_ep_expo.txtStart time  6 #Finish Time: 127 GPU: 3 _ep: 989

40_ep_expo.txtStart time  6 #Finish Time: 129 GPU: 3 _ep: 1045

41_ep_expo.txtStart time  6 #Finish Time: 129 GPU: 3 _ep: 983

51_ep_expo.txtStart time  6 #Finish Time: 129 GPU: 3 _ep: 1004

47_ep_expo.txtStart time  6 #Finish Time: 129 GPU: 3 _ep: 994

57_ep_expo.txtStart time  7 #Finish Time: 129 GPU: 3 _ep: 1051

58_ep_expo.txtStart time  7 #Finish Time: 130 GPU: 3 _ep: 1017

44_ep_expo.txtStart time  6 #Finish Time: 130 GPU: 3 _ep: 992

43_ep_expo.txtStart time  6 #Finish Time: 130 GPU: 3 _ep: 1030

94_ep_expo.txtStart time  9 #Finish Time: 130 GPU: 4 _ep: 954

95_ep_expo.txtStart time  9 #Finish Time: 130 GPU: 4 _ep: 958

62_ep_expo.txtStart time  7 #Finish Time: 130 GPU: 4 _ep: 973

63_ep_expo.txtStart time  7 #Finish Time: 130 GPU: 4 _ep: 1020

99_ep_expo.txtStart time  10 #Finish Time: 130 GPU: 4 _ep: 975

77_ep_expo.txtStart time  8 #Finish Time: 130 GPU: 4 _ep: 990

81_ep_expo.txtStart time  8 #Finish Time: 131 GPU: 4 _ep: 969

61_ep_expo.txtStart time  7 #Finish Time: 131 GPU: 4 _ep: 976

68_ep_expo.txtStart time  8 #Finish Time: 131 GPU: 4 _ep: 988

70_ep_expo.txtStart time  8 #Finish Time: 131 GPU: 4 _ep: 954

79_ep_expo.txtStart time  8 #Finish Time: 131 GPU: 4 _ep: 982

66_ep_expo.txtStart time  7 #Finish Time: 131 GPU: 4 _ep: 999

91_ep_expo.txtStart time  9 #Finish Time: 131 GPU: 4 _ep: 978

106_ep_expo.txtStart time  10 #Finish Time: 131 GPU: 4 _ep: 1012

107_ep_expo.txtStart time  10 #Finish Time: 131 GPU: 4 _ep: 982

84_ep_expo.txtStart time  9 #Finish Time: 132 GPU: 4 _ep: 998

85_ep_expo.txtStart time  9 #Finish Time: 132 GPU: 4 _ep: 966

86_ep_expo.txtStart time  9 #Finish Time: 132 GPU: 4 _ep: 953

97_ep_expo.txtStart time  10 #Finish Time: 132 GPU: 4 _ep: 979

104_ep_expo.txtStart time  10 #Finish Time: 132 GPU: 4 _ep: 981

90_ep_expo.txtStart time  9 #Finish Time: 132 GPU: 4 _ep: 1015

89_ep_expo.txtStart time  9 #Finish Time: 132 GPU: 4 _ep: 961

73_ep_expo.txtStart time  8 #Finish Time: 138 GPU: 4 _ep: 960

105_ep_expo.txtStart time  10 #Finish Time: 138 GPU: 4 _ep: 977

69_ep_expo.txtStart time  8 #Finish Time: 140 GPU: 4 _ep: 1050

71_ep_expo.txtStart time  8 #Finish Time: 140 GPU: 4 _ep: 1039

78_ep_expo.txtStart time  8 #Finish Time: 140 GPU: 4 _ep: 1024

92_ep_expo.txtStart time  9 #Finish Time: 140 GPU: 4 _ep: 1034

93_ep_expo.txtStart time  9 #Finish Time: 140 GPU: 4 _ep: 992

76_ep_expo.txtStart time  8 #Finish Time: 140 GPU: 4 _ep: 1004

118_ep_expo.txtStart time  11 #Finish Time: 140 GPU: 4 _ep: 1018

96_ep_expo.txtStart time  10 #Finish Time: 140 GPU: 4 _ep: 1033

64_ep_expo.txtStart time  7 #Finish Time: 140 GPU: 4 _ep: 1025

65_ep_expo.txtStart time  7 #Finish Time: 140 GPU: 4 _ep: 1022

80_ep_expo.txtStart time  8 #Finish Time: 140 GPU: 4 _ep: 987

82_ep_expo.txtStart time  9 #Finish Time: 142 GPU: 4 _ep: 971

83_ep_expo.txtStart time  9 #Finish Time: 142 GPU: 4 _ep: 995

100_ep_expo.txtStart time  10 #Finish Time: 142 GPU: 4 _ep: 1009

101_ep_expo.txtStart time  10 #Finish Time: 142 GPU: 4 _ep: 996

88_ep_expo.txtStart time  9 #Finish Time: 144 GPU: 4 _ep: 996

102_ep_expo.txtStart time  10 #Finish Time: 147 GPU: 4 _ep: 1013

111_ep_expo.txtStart time  11 #Finish Time: 148 GPU: 4 _ep: 965

112_ep_expo.txtStart time  11 #Finish Time: 148 GPU: 4 _ep: 1032

113_ep_expo.txtStart time  11 #Finish Time: 148 GPU: 4 _ep: 1022

103_ep_expo.txtStart time  10 #Finish Time: 148 GPU: 4 _ep: 1021

109_ep_expo.txtStart time  10 #Finish Time: 148 GPU: 4 _ep: 1010

117_ep_expo.txtStart time  11 #Finish Time: 149 GPU: 4 _ep: 1032

72_ep_expo.txtStart time  8 #Finish Time: 149 GPU: 4 _ep: 1001

67_ep_expo.txtStart time  7 #Finish Time: 149 GPU: 4 _ep: 996

108_ep_expo.txtStart time  10 #Finish Time: 149 GPU: 4 _ep: 1016

119_ep_expo.txtStart time  11 #Finish Time: 149 GPU: 4 _ep: 997

74_ep_expo.txtStart time  8 #Finish Time: 149 GPU: 4 _ep: 1054

75_ep_expo.txtStart time  8 #Finish Time: 149 GPU: 4 _ep: 1012

87_ep_expo.txtStart time  9 #Finish Time: 149 GPU: 4 _ep: 1083

114_ep_expo.txtStart time  11 #Finish Time: 149 GPU: 4 _ep: 1051

116_ep_expo.txtStart time  11 #Finish Time: 149 GPU: 4 _ep: 1035

98_ep_expo.txtStart time  10 #Finish Time: 149 GPU: 4 _ep: 987

115_ep_expo.txtStart time  11 #Finish Time: 149 GPU: 4 _ep: 1049

60_ep_expo.txtStart time  7 #Finish Time: 149 GPU: 4 _ep: 1023

110_ep_expo.txtStart time  11 #Finish Time: 149 GPU: 4 _ep: 1012

185_ep_expo.txtStart time  20 #Finish Time: 188 GPU: 8 _ep: 1000

186_ep_expo.txtStart time  20 #Finish Time: 188 GPU: 8 _ep: 972

187_ep_expo.txtStart time  20 #Finish Time: 188 GPU: 8 _ep: 956

121_ep_expo.txtStart time  3 #Finish Time: 188 GPU: 8 _ep: 1017

205_ep_expo.txtStart time  22 #Finish Time: 189 GPU: 8 _ep: 990

146_ep_expo.txtStart time  14 #Finish Time: 189 GPU: 8 _ep: 975

142_ep_expo.txtStart time  13 #Finish Time: 189 GPU: 8 _ep: 1029

170_ep_expo.txtStart time  17 #Finish Time: 189 GPU: 8 _ep: 999

157_ep_expo.txtStart time  16 #Finish Time: 189 GPU: 8 _ep: 977

188_ep_expo.txtStart time  20 #Finish Time: 189 GPU: 8 _ep: 979

203_ep_expo.txtStart time  22 #Finish Time: 190 GPU: 8 _ep: 955

164_ep_expo.txtStart time  17 #Finish Time: 190 GPU: 8 _ep: 986

165_ep_expo.txtStart time  17 #Finish Time: 190 GPU: 8 _ep: 976

158_ep_expo.txtStart time  16 #Finish Time: 190 GPU: 8 _ep: 972

135_ep_expo.txtStart time  12 #Finish Time: 190 GPU: 8 _ep: 982

127_ep_expo.txtStart time  11 #Finish Time: 191 GPU: 8 _ep: 925

179_ep_expo.txtStart time  19 #Finish Time: 191 GPU: 8 _ep: 996

180_ep_expo.txtStart time  19 #Finish Time: 191 GPU: 8 _ep: 993

171_ep_expo.txtStart time  18 #Finish Time: 191 GPU: 8 _ep: 943

177_ep_expo.txtStart time  18 #Finish Time: 192 GPU: 8 _ep: 986

182_ep_expo.txtStart time  19 #Finish Time: 192 GPU: 8 _ep: 978

148_ep_expo.txtStart time  14 #Finish Time: 192 GPU: 8 _ep: 1001

190_ep_expo.txtStart time  20 #Finish Time: 193 GPU: 8 _ep: 1012

137_ep_expo.txtStart time  13 #Finish Time: 193 GPU: 8 _ep: 980

122_ep_expo.txtStart time  3 #Finish Time: 193 GPU: 8 _ep: 982

196_ep_expo.txtStart time  21 #Finish Time: 193 GPU: 8 _ep: 981

197_ep_expo.txtStart time  21 #Finish Time: 193 GPU: 8 _ep: 945

149_ep_expo.txtStart time  14 #Finish Time: 194 GPU: 8 _ep: 978

167_ep_expo.txtStart time  17 #Finish Time: 194 GPU: 8 _ep: 972

124_ep_expo.txtStart time  3 #Finish Time: 195 GPU: 8 _ep: 964

125_ep_expo.txtStart time  3 #Finish Time: 195 GPU: 8 _ep: 991

172_ep_expo.txtStart time  18 #Finish Time: 195 GPU: 8 _ep: 1007

138_ep_expo.txtStart time  13 #Finish Time: 195 GPU: 8 _ep: 985

123_ep_expo.txtStart time  3 #Finish Time: 196 GPU: 8 _ep: 1015

130_ep_expo.txtStart time  12 #Finish Time: 196 GPU: 8 _ep: 1012

133_ep_expo.txtStart time  12 #Finish Time: 196 GPU: 8 _ep: 935

194_ep_expo.txtStart time  21 #Finish Time: 197 GPU: 8 _ep: 970

150_ep_expo.txtStart time  15 #Finish Time: 197 GPU: 8 _ep: 984

209_ep_expo.txtStart time  23 #Finish Time: 197 GPU: 8 _ep: 959

199_ep_expo.txtStart time  22 #Finish Time: 197 GPU: 8 _ep: 974

147_ep_expo.txtStart time  14 #Finish Time: 197 GPU: 8 _ep: 949

175_ep_expo.txtStart time  18 #Finish Time: 197 GPU: 8 _ep: 952

156_ep_expo.txtStart time  15 #Finish Time: 198 GPU: 8 _ep: 1026

143_ep_expo.txtStart time  14 #Finish Time: 198 GPU: 8 _ep: 956

161_ep_expo.txtStart time  16 #Finish Time: 199 GPU: 8 _ep: 991

155_ep_expo.txtStart time  15 #Finish Time: 199 GPU: 8 _ep: 966

128_ep_expo.txtStart time  11 #Finish Time: 200 GPU: 8 _ep: 989

126_ep_expo.txtStart time  3 #Finish Time: 200 GPU: 8 _ep: 1022

173_ep_expo.txtStart time  18 #Finish Time: 200 GPU: 8 _ep: 990

140_ep_expo.txtStart time  13 #Finish Time: 201 GPU: 8 _ep: 1011

163_ep_expo.txtStart time  16 #Finish Time: 206 GPU: 8 _ep: 1031

154_ep_expo.txtStart time  15 #Finish Time: 207 GPU: 8 _ep: 1031

120_ep_expo.txtStart time  3 #Finish Time: 209 GPU: 8 _ep: 1020

134_ep_expo.txtStart time  12 #Finish Time: 209 GPU: 8 _ep: 1010

206_ep_expo.txtStart time  23 #Finish Time: 210 GPU: 8 _ep: 1040

174_ep_expo.txtStart time  18 #Finish Time: 210 GPU: 8 _ep: 1025

144_ep_expo.txtStart time  14 #Finish Time: 210 GPU: 8 _ep: 1004

136_ep_expo.txtStart time  13 #Finish Time: 210 GPU: 8 _ep: 1007

162_ep_expo.txtStart time  16 #Finish Time: 210 GPU: 8 _ep: 1041

153_ep_expo.txtStart time  15 #Finish Time: 210 GPU: 8 _ep: 1038

168_ep_expo.txtStart time  17 #Finish Time: 210 GPU: 8 _ep: 1032

192_ep_expo.txtStart time  21 #Finish Time: 211 GPU: 8 _ep: 1000

193_ep_expo.txtStart time  21 #Finish Time: 211 GPU: 8 _ep: 1034

145_ep_expo.txtStart time  14 #Finish Time: 211 GPU: 8 _ep: 1052

207_ep_expo.txtStart time  23 #Finish Time: 211 GPU: 8 _ep: 1024

141_ep_expo.txtStart time  13 #Finish Time: 211 GPU: 8 _ep: 1009

204_ep_expo.txtStart time  22 #Finish Time: 211 GPU: 8 _ep: 1006

131_ep_expo.txtStart time  12 #Finish Time: 211 GPU: 8 _ep: 992

200_ep_expo.txtStart time  22 #Finish Time: 212 GPU: 8 _ep: 1000

159_ep_expo.txtStart time  16 #Finish Time: 212 GPU: 8 _ep: 1011

166_ep_expo.txtStart time  17 #Finish Time: 212 GPU: 8 _ep: 1014

139_ep_expo.txtStart time  13 #Finish Time: 212 GPU: 8 _ep: 1042

151_ep_expo.txtStart time  15 #Finish Time: 212 GPU: 8 _ep: 1001

152_ep_expo.txtStart time  15 #Finish Time: 212 GPU: 8 _ep: 1034

181_ep_expo.txtStart time  19 #Finish Time: 212 GPU: 8 _ep: 984

201_ep_expo.txtStart time  22 #Finish Time: 213 GPU: 8 _ep: 1021

202_ep_expo.txtStart time  22 #Finish Time: 213 GPU: 8 _ep: 999

191_ep_expo.txtStart time  20 #Finish Time: 213 GPU: 8 _ep: 1022

198_ep_expo.txtStart time  21 #Finish Time: 213 GPU: 8 _ep: 1030

176_ep_expo.txtStart time  18 #Finish Time: 213 GPU: 8 _ep: 1036

189_ep_expo.txtStart time  20 #Finish Time: 213 GPU: 8 _ep: 1009

208_ep_expo.txtStart time  23 #Finish Time: 213 GPU: 8 _ep: 1036

195_ep_expo.txtStart time  21 #Finish Time: 214 GPU: 8 _ep: 1007

169_ep_expo.txtStart time  17 #Finish Time: 214 GPU: 8 _ep: 1001

178_ep_expo.txtStart time  19 #Finish Time: 214 GPU: 8 _ep: 1001

183_ep_expo.txtStart time  19 #Finish Time: 214 GPU: 8 _ep: 1043

129_ep_expo.txtStart time  12 #Finish Time: 214 GPU: 8 _ep: 1043

184_ep_expo.txtStart time  19 #Finish Time: 214 GPU: 8 _ep: 992

132_ep_expo.txtStart time  12 #Finish Time: 214 GPU: 8 _ep: 1015

160_ep_expo.txtStart time  16 #Finish Time: 215 GPU: 8 _ep: 1029

230_ep_expo.txtStart time  30 #Finish Time: 247 GPU: 16 _ep: 949

212_ep_expo.txtStart time  24 #Finish Time: 247 GPU: 16 _ep: 954

217_ep_expo.txtStart time  26 #Finish Time: 248 GPU: 16 _ep: 968

224_ep_expo.txtStart time  28 #Finish Time: 248 GPU: 16 _ep: 949

219_ep_expo.txtStart time  26 #Finish Time: 249 GPU: 16 _ep: 984

223_ep_expo.txtStart time  28 #Finish Time: 249 GPU: 16 _ep: 1004

221_ep_expo.txtStart time  27 #Finish Time: 249 GPU: 16 _ep: 976

227_ep_expo.txtStart time  29 #Finish Time: 250 GPU: 16 _ep: 1012

229_ep_expo.txtStart time  30 #Finish Time: 252 GPU: 16 _ep: 1013

214_ep_expo.txtStart time  25 #Finish Time: 252 GPU: 16 _ep: 991

215_ep_expo.txtStart time  25 #Finish Time: 255 GPU: 16 _ep: 992

213_ep_expo.txtStart time  24 #Finish Time: 257 GPU: 16 _ep: 1001

211_ep_expo.txtStart time  24 #Finish Time: 261 GPU: 16 _ep: 981

220_ep_expo.txtStart time  27 #Finish Time: 261 GPU: 16 _ep: 1006

225_ep_expo.txtStart time  28 #Finish Time: 262 GPU: 16 _ep: 969

226_ep_expo.txtStart time  29 #Finish Time: 262 GPU: 16 _ep: 964

222_ep_expo.txtStart time  27 #Finish Time: 263 GPU: 16 _ep: 1015

218_ep_expo.txtStart time  26 #Finish Time: 264 GPU: 16 _ep: 1022

231_ep_expo.txtStart time  30 #Finish Time: 264 GPU: 16 _ep: 1041

233_ep_expo.txtStart time  31 #Finish Time: 265 GPU: 16 _ep: 1019

216_ep_expo.txtStart time  25 #Finish Time: 265 GPU: 16 _ep: 990

234_ep_expo.txtStart time  31 #Finish Time: 266 GPU: 16 _ep: 1005

232_ep_expo.txtStart time  31 #Finish Time: 266 GPU: 16 _ep: 1003

210_ep_expo.txtStart time  23 #Finish Time: 267 GPU: 16 _ep: 1016

228_ep_expo.txtStart time  29 #Finish Time: 268 GPU: 16 _ep: 1056

235_ep_expo.txtStart time  32 #Finish Time: 278 GPU: 32 _ep: 1028

236_ep_expo.txtStart time  33 #Finish Time: 279 GPU: 32 _ep: 914

237_ep_expo.txtStart time  34 #Finish Time: 280 GPU: 32 _ep: 1025

238_ep_expo.txtStart time  35 #Finish Time: 281 GPU: 32 _ep: 977

239_ep_expo.txtStart time  36 #Finish Time: 282 GPU: 32 _ep: 980

