0_ep_expo.txtStart time  2 #Finish Time: 10 GPU: 2 _ep: 993

0_ep_expo.txtStart time  2 #Finish Time: 10 GPU: 2 _ep: 993

1_ep_expo.txtStart time  2 #Finish Time: 16 GPU: 2 _ep: 978

1_ep_expo.txtStart time  2 #Finish Time: 23 GPU: 2 _ep: 978

2_ep_expo.txtStart time  2 #Finish Time: 23 GPU: 2 _ep: 963

2_ep_expo.txtStart time  2 #Finish Time: 23 GPU: 2 _ep: 963

3_ep_expo.txtStart time  10 #Finish Time: 30 GPU: 2 _ep: 1024

3_ep_expo.txtStart time  10 #Finish Time: 30 GPU: 2 _ep: 1024

4_ep_expo.txtStart time  23 #Finish Time: 37 GPU: 2 _ep: 964

4_ep_expo.txtStart time  23 #Finish Time: 37 GPU: 2 _ep: 964

5_ep_expo.txtStart time  30 #Finish Time: 44 GPU: 2 _ep: 975

5_ep_expo.txtStart time  30 #Finish Time: 44 GPU: 2 _ep: 975

6_ep_expo.txtStart time  30 #Finish Time: 51 GPU: 2 _ep: 986

6_ep_expo.txtStart time  30 #Finish Time: 51 GPU: 2 _ep: 986

7_ep_expo.txtStart time  44 #Finish Time: 59 GPU: 2 _ep: 1034

7_ep_expo.txtStart time  44 #Finish Time: 59 GPU: 2 _ep: 1034

8_ep_expo.txtStart time  51 #Finish Time: 66 GPU: 2 _ep: 980

8_ep_expo.txtStart time  51 #Finish Time: 66 GPU: 2 _ep: 980

9_ep_expo.txtStart time  59 #Finish Time: 74 GPU: 2 _ep: 997

9_ep_expo.txtStart time  59 #Finish Time: 74 GPU: 2 _ep: 997

10_ep_expo.txtStart time  66 #Finish Time: 82 GPU: 2 _ep: 1069

10_ep_expo.txtStart time  66 #Finish Time: 82 GPU: 2 _ep: 1069

11_ep_expo.txtStart time  74 #Finish Time: 89 GPU: 2 _ep: 980

11_ep_expo.txtStart time  74 #Finish Time: 89 GPU: 2 _ep: 980

12_ep_expo.txtStart time  82 #Finish Time: 97 GPU: 2 _ep: 1001

12_ep_expo.txtStart time  82 #Finish Time: 97 GPU: 2 _ep: 1001

13_ep_expo.txtStart time  89 #Finish Time: 105 GPU: 2 _ep: 1039

13_ep_expo.txtStart time  89 #Finish Time: 105 GPU: 2 _ep: 1039

14_ep_expo.txtStart time  97 #Finish Time: 113 GPU: 2 _ep: 998

14_ep_expo.txtStart time  97 #Finish Time: 113 GPU: 2 _ep: 998

15_ep_expo.txtStart time  105 #Finish Time: 120 GPU: 2 _ep: 954

15_ep_expo.txtStart time  105 #Finish Time: 120 GPU: 2 _ep: 954

16_ep_expo.txtStart time  113 #Finish Time: 128 GPU: 2 _ep: 1035

16_ep_expo.txtStart time  113 #Finish Time: 128 GPU: 2 _ep: 1035

17_ep_expo.txtStart time  120 #Finish Time: 136 GPU: 2 _ep: 1029

17_ep_expo.txtStart time  120 #Finish Time: 137 GPU: 2 _ep: 1029

18_ep_expo.txtStart time  128 #Finish Time: 143 GPU: 2 _ep: 971

18_ep_expo.txtStart time  128 #Finish Time: 143 GPU: 2 _ep: 971

19_ep_expo.txtStart time  136 #Finish Time: 150 GPU: 2 _ep: 942

19_ep_expo.txtStart time  136 #Finish Time: 150 GPU: 2 _ep: 942

20_ep_expo.txtStart time  143 #Finish Time: 158 GPU: 2 _ep: 1002

20_ep_expo.txtStart time  143 #Finish Time: 158 GPU: 2 _ep: 1002

21_ep_expo.txtStart time  150 #Finish Time: 166 GPU: 2 _ep: 1004

21_ep_expo.txtStart time  150 #Finish Time: 166 GPU: 2 _ep: 1004

22_ep_expo.txtStart time  158 #Finish Time: 173 GPU: 2 _ep: 982

22_ep_expo.txtStart time  158 #Finish Time: 173 GPU: 2 _ep: 982

23_ep_expo.txtStart time  166 #Finish Time: 181 GPU: 2 _ep: 1042

23_ep_expo.txtStart time  166 #Finish Time: 181 GPU: 2 _ep: 1042

24_ep_expo.txtStart time  173 #Finish Time: 188 GPU: 2 _ep: 982

24_ep_expo.txtStart time  173 #Finish Time: 188 GPU: 2 _ep: 982

25_ep_expo.txtStart time  181 #Finish Time: 196 GPU: 2 _ep: 994

25_ep_expo.txtStart time  181 #Finish Time: 196 GPU: 2 _ep: 994

26_ep_expo.txtStart time  188 #Finish Time: 203 GPU: 2 _ep: 995

26_ep_expo.txtStart time  188 #Finish Time: 203 GPU: 2 _ep: 995

27_ep_expo.txtStart time  196 #Finish Time: 211 GPU: 2 _ep: 1033

27_ep_expo.txtStart time  196 #Finish Time: 211 GPU: 2 _ep: 1033

28_ep_expo.txtStart time  197 #Finish Time: 219 GPU: 2 _ep: 1029

28_ep_expo.txtStart time  197 #Finish Time: 219 GPU: 2 _ep: 1029

29_ep_expo.txtStart time  211 #Finish Time: 227 GPU: 2 _ep: 1072

29_ep_expo.txtStart time  211 #Finish Time: 227 GPU: 2 _ep: 1072

30_ep_expo.txtStart time  227 #Finish Time: 235 GPU: 2 _ep: 989

30_ep_expo.txtStart time  227 #Finish Time: 235 GPU: 2 _ep: 989

31_ep_expo.txtStart time  227 #Finish Time: 242 GPU: 2 _ep: 1003

31_ep_expo.txtStart time  227 #Finish Time: 242 GPU: 2 _ep: 1003

32_ep_expo.txtStart time  231 #Finish Time: 249 GPU: 2 _ep: 983

32_ep_expo.txtStart time  231 #Finish Time: 249 GPU: 2 _ep: 983

33_ep_expo.txtStart time  242 #Finish Time: 256 GPU: 2 _ep: 924

33_ep_expo.txtStart time  242 #Finish Time: 256 GPU: 2 _ep: 924

34_ep_expo.txtStart time  246 #Finish Time: 264 GPU: 2 _ep: 1035

34_ep_expo.txtStart time  246 #Finish Time: 264 GPU: 2 _ep: 1035

35_ep_expo.txtStart time  256 #Finish Time: 271 GPU: 2 _ep: 1029

35_ep_expo.txtStart time  256 #Finish Time: 271 GPU: 2 _ep: 1029

36_ep_expo.txtStart time  261 #Finish Time: 278 GPU: 2 _ep: 951

36_ep_expo.txtStart time  261 #Finish Time: 278 GPU: 2 _ep: 951

37_ep_expo.txtStart time  271 #Finish Time: 285 GPU: 2 _ep: 939

37_ep_expo.txtStart time  271 #Finish Time: 285 GPU: 2 _ep: 939

38_ep_expo.txtStart time  278 #Finish Time: 292 GPU: 2 _ep: 1009

38_ep_expo.txtStart time  278 #Finish Time: 292 GPU: 2 _ep: 1009

39_ep_expo.txtStart time  285 #Finish Time: 299 GPU: 2 _ep: 945

39_ep_expo.txtStart time  285 #Finish Time: 299 GPU: 2 _ep: 945

40_ep_expo.txtStart time  292 #Finish Time: 307 GPU: 3 _ep: 1045

40_ep_expo.txtStart time  292 #Finish Time: 307 GPU: 3 _ep: 1045

41_ep_expo.txtStart time  299 #Finish Time: 315 GPU: 3 _ep: 983

41_ep_expo.txtStart time  299 #Finish Time: 315 GPU: 3 _ep: 983

42_ep_expo.txtStart time  307 #Finish Time: 322 GPU: 3 _ep: 1012

42_ep_expo.txtStart time  307 #Finish Time: 322 GPU: 3 _ep: 1012

43_ep_expo.txtStart time  315 #Finish Time: 330 GPU: 3 _ep: 1030

43_ep_expo.txtStart time  315 #Finish Time: 330 GPU: 3 _ep: 1030

44_ep_expo.txtStart time  322 #Finish Time: 338 GPU: 3 _ep: 992

44_ep_expo.txtStart time  322 #Finish Time: 338 GPU: 3 _ep: 992

45_ep_expo.txtStart time  330 #Finish Time: 345 GPU: 3 _ep: 1000

45_ep_expo.txtStart time  330 #Finish Time: 345 GPU: 3 _ep: 1000

46_ep_expo.txtStart time  338 #Finish Time: 352 GPU: 3 _ep: 993

46_ep_expo.txtStart time  338 #Finish Time: 352 GPU: 3 _ep: 993

47_ep_expo.txtStart time  345 #Finish Time: 360 GPU: 3 _ep: 994

47_ep_expo.txtStart time  345 #Finish Time: 360 GPU: 3 _ep: 994

48_ep_expo.txtStart time  352 #Finish Time: 367 GPU: 3 _ep: 988

48_ep_expo.txtStart time  352 #Finish Time: 367 GPU: 3 _ep: 988

49_ep_expo.txtStart time  360 #Finish Time: 374 GPU: 3 _ep: 1000

49_ep_expo.txtStart time  360 #Finish Time: 374 GPU: 3 _ep: 1000

50_ep_expo.txtStart time  367 #Finish Time: 381 GPU: 3 _ep: 989

50_ep_expo.txtStart time  367 #Finish Time: 381 GPU: 3 _ep: 989

51_ep_expo.txtStart time  374 #Finish Time: 389 GPU: 3 _ep: 1004

51_ep_expo.txtStart time  374 #Finish Time: 389 GPU: 3 _ep: 1004

240_ep_expo.txtStart time  381 #Finish Time: 397 GPU: 1 _ep: 1047

240_ep_expo.txtStart time  381 #Finish Time: 397 GPU: 1 _ep: 1047

241_ep_expo.txtStart time  389 #Finish Time: 404 GPU: 1 _ep: 975

241_ep_expo.txtStart time  389 #Finish Time: 404 GPU: 1 _ep: 975

52_ep_expo.txtStart time  404 #Finish Time: 411 GPU: 3 _ep: 962

52_ep_expo.txtStart time  404 #Finish Time: 411 GPU: 3 _ep: 962

53_ep_expo.txtStart time  404 #Finish Time: 418 GPU: 3 _ep: 988

53_ep_expo.txtStart time  404 #Finish Time: 418 GPU: 3 _ep: 988

54_ep_expo.txtStart time  411 #Finish Time: 425 GPU: 3 _ep: 1016

54_ep_expo.txtStart time  411 #Finish Time: 425 GPU: 3 _ep: 1016

55_ep_expo.txtStart time  418 #Finish Time: 432 GPU: 3 _ep: 1007

55_ep_expo.txtStart time  418 #Finish Time: 432 GPU: 3 _ep: 1007

56_ep_expo.txtStart time  425 #Finish Time: 439 GPU: 3 _ep: 1002

56_ep_expo.txtStart time  425 #Finish Time: 439 GPU: 3 _ep: 1002

57_ep_expo.txtStart time  432 #Finish Time: 447 GPU: 3 _ep: 1051

57_ep_expo.txtStart time  432 #Finish Time: 447 GPU: 3 _ep: 1051

58_ep_expo.txtStart time  439 #Finish Time: 455 GPU: 3 _ep: 1017

58_ep_expo.txtStart time  439 #Finish Time: 455 GPU: 3 _ep: 1017

59_ep_expo.txtStart time  447 #Finish Time: 462 GPU: 3 _ep: 955

59_ep_expo.txtStart time  447 #Finish Time: 462 GPU: 3 _ep: 955

60_ep_expo.txtStart time  455 #Finish Time: 470 GPU: 4 _ep: 1023

60_ep_expo.txtStart time  455 #Finish Time: 470 GPU: 4 _ep: 1023

61_ep_expo.txtStart time  459 #Finish Time: 477 GPU: 4 _ep: 976

61_ep_expo.txtStart time  459 #Finish Time: 477 GPU: 4 _ep: 976

62_ep_expo.txtStart time  470 #Finish Time: 484 GPU: 4 _ep: 973

62_ep_expo.txtStart time  470 #Finish Time: 484 GPU: 4 _ep: 973

63_ep_expo.txtStart time  477 #Finish Time: 491 GPU: 4 _ep: 1020

63_ep_expo.txtStart time  477 #Finish Time: 492 GPU: 4 _ep: 1020

64_ep_expo.txtStart time  483 #Finish Time: 499 GPU: 4 _ep: 1025

64_ep_expo.txtStart time  483 #Finish Time: 499 GPU: 4 _ep: 1025

65_ep_expo.txtStart time  485 #Finish Time: 507 GPU: 4 _ep: 1022

65_ep_expo.txtStart time  485 #Finish Time: 507 GPU: 4 _ep: 1022

66_ep_expo.txtStart time  499 #Finish Time: 514 GPU: 4 _ep: 999

66_ep_expo.txtStart time  499 #Finish Time: 514 GPU: 4 _ep: 999

67_ep_expo.txtStart time  507 #Finish Time: 522 GPU: 4 _ep: 996

67_ep_expo.txtStart time  507 #Finish Time: 522 GPU: 4 _ep: 996

242_ep_expo.txtStart time  522 #Finish Time: 530 GPU: 1 _ep: 1016

242_ep_expo.txtStart time  522 #Finish Time: 530 GPU: 1 _ep: 1016

243_ep_expo.txtStart time  522 #Finish Time: 538 GPU: 1 _ep: 999

243_ep_expo.txtStart time  522 #Finish Time: 543 GPU: 1 _ep: 999

244_ep_expo.txtStart time  523 #Finish Time: 545 GPU: 1 _ep: 1023

244_ep_expo.txtStart time  523 #Finish Time: 545 GPU: 1 _ep: 1023

68_ep_expo.txtStart time  545 #Finish Time: 552 GPU: 4 _ep: 988

68_ep_expo.txtStart time  545 #Finish Time: 552 GPU: 4 _ep: 988

69_ep_expo.txtStart time  545 #Finish Time: 560 GPU: 4 _ep: 1050

69_ep_expo.txtStart time  545 #Finish Time: 560 GPU: 4 _ep: 1050

70_ep_expo.txtStart time  552 #Finish Time: 567 GPU: 4 _ep: 954

70_ep_expo.txtStart time  552 #Finish Time: 567 GPU: 4 _ep: 954

71_ep_expo.txtStart time  560 #Finish Time: 575 GPU: 4 _ep: 1039

71_ep_expo.txtStart time  560 #Finish Time: 575 GPU: 4 _ep: 1039

72_ep_expo.txtStart time  567 #Finish Time: 583 GPU: 4 _ep: 1001

72_ep_expo.txtStart time  567 #Finish Time: 583 GPU: 4 _ep: 1001

73_ep_expo.txtStart time  575 #Finish Time: 590 GPU: 4 _ep: 960

73_ep_expo.txtStart time  575 #Finish Time: 590 GPU: 4 _ep: 960

74_ep_expo.txtStart time  583 #Finish Time: 598 GPU: 4 _ep: 1054

74_ep_expo.txtStart time  583 #Finish Time: 598 GPU: 4 _ep: 1054

75_ep_expo.txtStart time  590 #Finish Time: 606 GPU: 4 _ep: 1012

75_ep_expo.txtStart time  590 #Finish Time: 606 GPU: 4 _ep: 1012

76_ep_expo.txtStart time  598 #Finish Time: 614 GPU: 4 _ep: 1004

76_ep_expo.txtStart time  598 #Finish Time: 614 GPU: 4 _ep: 1004

77_ep_expo.txtStart time  598 #Finish Time: 621 GPU: 4 _ep: 990

77_ep_expo.txtStart time  598 #Finish Time: 621 GPU: 4 _ep: 990

78_ep_expo.txtStart time  614 #Finish Time: 629 GPU: 4 _ep: 1024

78_ep_expo.txtStart time  614 #Finish Time: 629 GPU: 4 _ep: 1024

79_ep_expo.txtStart time  621 #Finish Time: 636 GPU: 4 _ep: 982

79_ep_expo.txtStart time  621 #Finish Time: 636 GPU: 4 _ep: 982

80_ep_expo.txtStart time  629 #Finish Time: 644 GPU: 4 _ep: 987

80_ep_expo.txtStart time  629 #Finish Time: 644 GPU: 4 _ep: 987

81_ep_expo.txtStart time  636 #Finish Time: 651 GPU: 4 _ep: 969

81_ep_expo.txtStart time  636 #Finish Time: 651 GPU: 4 _ep: 969

245_ep_expo.txtStart time  645 #Finish Time: 659 GPU: 1 _ep: 1026

245_ep_expo.txtStart time  645 #Finish Time: 659 GPU: 1 _ep: 1026

246_ep_expo.txtStart time  651 #Finish Time: 666 GPU: 1 _ep: 953

246_ep_expo.txtStart time  651 #Finish Time: 666 GPU: 1 _ep: 953

82_ep_expo.txtStart time  666 #Finish Time: 673 GPU: 4 _ep: 971

82_ep_expo.txtStart time  666 #Finish Time: 673 GPU: 4 _ep: 971

83_ep_expo.txtStart time  666 #Finish Time: 680 GPU: 4 _ep: 995

83_ep_expo.txtStart time  666 #Finish Time: 680 GPU: 4 _ep: 995

84_ep_expo.txtStart time  667 #Finish Time: 687 GPU: 4 _ep: 998

84_ep_expo.txtStart time  667 #Finish Time: 687 GPU: 4 _ep: 998

85_ep_expo.txtStart time  674 #Finish Time: 694 GPU: 4 _ep: 966

85_ep_expo.txtStart time  674 #Finish Time: 694 GPU: 4 _ep: 966

86_ep_expo.txtStart time  687 #Finish Time: 701 GPU: 4 _ep: 953

86_ep_expo.txtStart time  687 #Finish Time: 701 GPU: 4 _ep: 953

87_ep_expo.txtStart time  694 #Finish Time: 709 GPU: 4 _ep: 1083

87_ep_expo.txtStart time  694 #Finish Time: 709 GPU: 4 _ep: 1083

88_ep_expo.txtStart time  701 #Finish Time: 717 GPU: 4 _ep: 996

88_ep_expo.txtStart time  701 #Finish Time: 717 GPU: 4 _ep: 996

89_ep_expo.txtStart time  706 #Finish Time: 724 GPU: 4 _ep: 961

89_ep_expo.txtStart time  706 #Finish Time: 724 GPU: 4 _ep: 961

90_ep_expo.txtStart time  717 #Finish Time: 731 GPU: 4 _ep: 1015

90_ep_expo.txtStart time  717 #Finish Time: 731 GPU: 4 _ep: 1015

91_ep_expo.txtStart time  724 #Finish Time: 738 GPU: 4 _ep: 978

91_ep_expo.txtStart time  724 #Finish Time: 738 GPU: 4 _ep: 978

92_ep_expo.txtStart time  731 #Finish Time: 746 GPU: 4 _ep: 1034

92_ep_expo.txtStart time  731 #Finish Time: 746 GPU: 4 _ep: 1034

93_ep_expo.txtStart time  738 #Finish Time: 754 GPU: 4 _ep: 992

93_ep_expo.txtStart time  738 #Finish Time: 754 GPU: 4 _ep: 992

94_ep_expo.txtStart time  746 #Finish Time: 761 GPU: 4 _ep: 954

94_ep_expo.txtStart time  746 #Finish Time: 761 GPU: 4 _ep: 954

95_ep_expo.txtStart time  754 #Finish Time: 768 GPU: 4 _ep: 958

95_ep_expo.txtStart time  754 #Finish Time: 768 GPU: 4 _ep: 958

247_ep_expo.txtStart time  764 #Finish Time: 775 GPU: 1 _ep: 951

247_ep_expo.txtStart time  764 #Finish Time: 775 GPU: 1 _ep: 951

248_ep_expo.txtStart time  768 #Finish Time: 783 GPU: 1 _ep: 1032

248_ep_expo.txtStart time  768 #Finish Time: 783 GPU: 1 _ep: 1032

96_ep_expo.txtStart time  777 #Finish Time: 791 GPU: 4 _ep: 1033

96_ep_expo.txtStart time  777 #Finish Time: 791 GPU: 4 _ep: 1033

97_ep_expo.txtStart time  783 #Finish Time: 798 GPU: 4 _ep: 979

97_ep_expo.txtStart time  783 #Finish Time: 798 GPU: 4 _ep: 979

98_ep_expo.txtStart time  783 #Finish Time: 806 GPU: 4 _ep: 987

98_ep_expo.txtStart time  783 #Finish Time: 806 GPU: 4 _ep: 987

99_ep_expo.txtStart time  792 #Finish Time: 813 GPU: 4 _ep: 975

99_ep_expo.txtStart time  792 #Finish Time: 813 GPU: 4 _ep: 975

100_ep_expo.txtStart time  806 #Finish Time: 820 GPU: 4 _ep: 1009

100_ep_expo.txtStart time  806 #Finish Time: 820 GPU: 4 _ep: 1009

101_ep_expo.txtStart time  813 #Finish Time: 827 GPU: 4 _ep: 996

101_ep_expo.txtStart time  813 #Finish Time: 827 GPU: 4 _ep: 996

102_ep_expo.txtStart time  819 #Finish Time: 835 GPU: 4 _ep: 1013

102_ep_expo.txtStart time  819 #Finish Time: 835 GPU: 4 _ep: 1013

103_ep_expo.txtStart time  827 #Finish Time: 843 GPU: 4 _ep: 1021

103_ep_expo.txtStart time  827 #Finish Time: 843 GPU: 4 _ep: 1021

104_ep_expo.txtStart time  835 #Finish Time: 850 GPU: 4 _ep: 981

104_ep_expo.txtStart time  835 #Finish Time: 850 GPU: 4 _ep: 981

105_ep_expo.txtStart time  843 #Finish Time: 857 GPU: 4 _ep: 977

105_ep_expo.txtStart time  843 #Finish Time: 857 GPU: 4 _ep: 977

106_ep_expo.txtStart time  850 #Finish Time: 864 GPU: 4 _ep: 1012

106_ep_expo.txtStart time  850 #Finish Time: 864 GPU: 4 _ep: 1012

107_ep_expo.txtStart time  857 #Finish Time: 871 GPU: 4 _ep: 982

107_ep_expo.txtStart time  857 #Finish Time: 871 GPU: 4 _ep: 982

108_ep_expo.txtStart time  864 #Finish Time: 879 GPU: 4 _ep: 1016

108_ep_expo.txtStart time  864 #Finish Time: 879 GPU: 4 _ep: 1016

109_ep_expo.txtStart time  871 #Finish Time: 887 GPU: 4 _ep: 1010

109_ep_expo.txtStart time  871 #Finish Time: 887 GPU: 4 _ep: 1010

249_ep_expo.txtStart time  883 #Finish Time: 894 GPU: 1 _ep: 1017

249_ep_expo.txtStart time  883 #Finish Time: 894 GPU: 1 _ep: 1017

250_ep_expo.txtStart time  887 #Finish Time: 901 GPU: 1 _ep: 1005

250_ep_expo.txtStart time  887 #Finish Time: 901 GPU: 1 _ep: 1005

110_ep_expo.txtStart time  901 #Finish Time: 909 GPU: 4 _ep: 1012

110_ep_expo.txtStart time  901 #Finish Time: 909 GPU: 4 _ep: 1012

111_ep_expo.txtStart time  901 #Finish Time: 916 GPU: 4 _ep: 965

111_ep_expo.txtStart time  901 #Finish Time: 916 GPU: 4 _ep: 965

112_ep_expo.txtStart time  905 #Finish Time: 923 GPU: 4 _ep: 1032

112_ep_expo.txtStart time  905 #Finish Time: 923 GPU: 4 _ep: 1032

113_ep_expo.txtStart time  916 #Finish Time: 930 GPU: 4 _ep: 1022

113_ep_expo.txtStart time  916 #Finish Time: 930 GPU: 4 _ep: 1022

114_ep_expo.txtStart time  917 #Finish Time: 938 GPU: 4 _ep: 1051

114_ep_expo.txtStart time  917 #Finish Time: 938 GPU: 4 _ep: 1051

115_ep_expo.txtStart time  930 #Finish Time: 946 GPU: 4 _ep: 1049

115_ep_expo.txtStart time  930 #Finish Time: 946 GPU: 4 _ep: 1049

116_ep_expo.txtStart time  938 #Finish Time: 954 GPU: 4 _ep: 1035

116_ep_expo.txtStart time  938 #Finish Time: 954 GPU: 4 _ep: 1035

117_ep_expo.txtStart time  946 #Finish Time: 962 GPU: 4 _ep: 1032

117_ep_expo.txtStart time  946 #Finish Time: 962 GPU: 4 _ep: 1032

118_ep_expo.txtStart time  954 #Finish Time: 970 GPU: 4 _ep: 1018

118_ep_expo.txtStart time  954 #Finish Time: 970 GPU: 4 _ep: 1018

119_ep_expo.txtStart time  962 #Finish Time: 978 GPU: 4 _ep: 997

119_ep_expo.txtStart time  962 #Finish Time: 978 GPU: 4 _ep: 997

120_ep_expo.txtStart time  970 #Finish Time: 986 GPU: 8 _ep: 1020

120_ep_expo.txtStart time  970 #Finish Time: 986 GPU: 8 _ep: 1020

121_ep_expo.txtStart time  978 #Finish Time: 993 GPU: 8 _ep: 1017

121_ep_expo.txtStart time  978 #Finish Time: 993 GPU: 8 _ep: 1017

251_ep_expo.txtStart time  992 #Finish Time: 1000 GPU: 1 _ep: 1032

251_ep_expo.txtStart time  992 #Finish Time: 1000 GPU: 1 _ep: 1032

252_ep_expo.txtStart time  993 #Finish Time: 1008 GPU: 1 _ep: 1037

252_ep_expo.txtStart time  993 #Finish Time: 1008 GPU: 1 _ep: 1037

122_ep_expo.txtStart time  1008 #Finish Time: 1015 GPU: 8 _ep: 982

122_ep_expo.txtStart time  1008 #Finish Time: 1015 GPU: 8 _ep: 982

123_ep_expo.txtStart time  1008 #Finish Time: 1022 GPU: 8 _ep: 1015

123_ep_expo.txtStart time  1008 #Finish Time: 1022 GPU: 8 _ep: 1015

124_ep_expo.txtStart time  1015 #Finish Time: 1029 GPU: 8 _ep: 964

124_ep_expo.txtStart time  1015 #Finish Time: 1029 GPU: 8 _ep: 964

125_ep_expo.txtStart time  1022 #Finish Time: 1036 GPU: 8 _ep: 991

125_ep_expo.txtStart time  1022 #Finish Time: 1036 GPU: 8 _ep: 991

126_ep_expo.txtStart time  1029 #Finish Time: 1043 GPU: 8 _ep: 1022

126_ep_expo.txtStart time  1029 #Finish Time: 1043 GPU: 8 _ep: 1022

127_ep_expo.txtStart time  1036 #Finish Time: 1050 GPU: 8 _ep: 925

127_ep_expo.txtStart time  1036 #Finish Time: 1050 GPU: 8 _ep: 925

128_ep_expo.txtStart time  1037 #Finish Time: 1057 GPU: 8 _ep: 989

128_ep_expo.txtStart time  1037 #Finish Time: 1057 GPU: 8 _ep: 989

253_ep_expo.txtStart time  1050 #Finish Time: 1064 GPU: 1 _ep: 996

253_ep_expo.txtStart time  1050 #Finish Time: 1064 GPU: 1 _ep: 996

254_ep_expo.txtStart time  1057 #Finish Time: 1072 GPU: 1 _ep: 1010

254_ep_expo.txtStart time  1057 #Finish Time: 1072 GPU: 1 _ep: 1010

129_ep_expo.txtStart time  1072 #Finish Time: 1080 GPU: 8 _ep: 1043

129_ep_expo.txtStart time  1072 #Finish Time: 1080 GPU: 8 _ep: 1043

130_ep_expo.txtStart time  1072 #Finish Time: 1087 GPU: 8 _ep: 1012

130_ep_expo.txtStart time  1072 #Finish Time: 1087 GPU: 8 _ep: 1012

131_ep_expo.txtStart time  1080 #Finish Time: 1095 GPU: 8 _ep: 992

131_ep_expo.txtStart time  1080 #Finish Time: 1095 GPU: 8 _ep: 992

132_ep_expo.txtStart time  1087 #Finish Time: 1103 GPU: 8 _ep: 1015

132_ep_expo.txtStart time  1087 #Finish Time: 1103 GPU: 8 _ep: 1015

133_ep_expo.txtStart time  1095 #Finish Time: 1110 GPU: 8 _ep: 935

133_ep_expo.txtStart time  1095 #Finish Time: 1110 GPU: 8 _ep: 935

134_ep_expo.txtStart time  1103 #Finish Time: 1118 GPU: 8 _ep: 1010

134_ep_expo.txtStart time  1103 #Finish Time: 1118 GPU: 8 _ep: 1010

135_ep_expo.txtStart time  1110 #Finish Time: 1125 GPU: 8 _ep: 982

135_ep_expo.txtStart time  1110 #Finish Time: 1125 GPU: 8 _ep: 982

255_ep_expo.txtStart time  1124 #Finish Time: 1132 GPU: 1 _ep: 939

255_ep_expo.txtStart time  1124 #Finish Time: 1132 GPU: 1 _ep: 939

256_ep_expo.txtStart time  1125 #Finish Time: 1140 GPU: 1 _ep: 1038

256_ep_expo.txtStart time  1125 #Finish Time: 1140 GPU: 1 _ep: 1038

136_ep_expo.txtStart time  1140 #Finish Time: 1148 GPU: 8 _ep: 1007

136_ep_expo.txtStart time  1140 #Finish Time: 1148 GPU: 8 _ep: 1007

137_ep_expo.txtStart time  1140 #Finish Time: 1155 GPU: 8 _ep: 980

137_ep_expo.txtStart time  1140 #Finish Time: 1155 GPU: 8 _ep: 980

138_ep_expo.txtStart time  1146 #Finish Time: 1162 GPU: 8 _ep: 985

138_ep_expo.txtStart time  1146 #Finish Time: 1162 GPU: 8 _ep: 985

139_ep_expo.txtStart time  1155 #Finish Time: 1170 GPU: 8 _ep: 1042

139_ep_expo.txtStart time  1155 #Finish Time: 1170 GPU: 8 _ep: 1042

140_ep_expo.txtStart time  1162 #Finish Time: 1177 GPU: 8 _ep: 1011

140_ep_expo.txtStart time  1162 #Finish Time: 1177 GPU: 8 _ep: 1011

141_ep_expo.txtStart time  1170 #Finish Time: 1185 GPU: 8 _ep: 1009

141_ep_expo.txtStart time  1170 #Finish Time: 1185 GPU: 8 _ep: 1009

142_ep_expo.txtStart time  1177 #Finish Time: 1192 GPU: 8 _ep: 1029

142_ep_expo.txtStart time  1177 #Finish Time: 1192 GPU: 8 _ep: 1029

257_ep_expo.txtStart time  1185 #Finish Time: 1199 GPU: 1 _ep: 958

257_ep_expo.txtStart time  1185 #Finish Time: 1199 GPU: 1 _ep: 958

258_ep_expo.txtStart time  1192 #Finish Time: 1206 GPU: 1 _ep: 956

258_ep_expo.txtStart time  1192 #Finish Time: 1206 GPU: 1 _ep: 956

143_ep_expo.txtStart time  1206 #Finish Time: 1213 GPU: 8 _ep: 956

143_ep_expo.txtStart time  1206 #Finish Time: 1213 GPU: 8 _ep: 956

144_ep_expo.txtStart time  1206 #Finish Time: 1221 GPU: 8 _ep: 1004

144_ep_expo.txtStart time  1206 #Finish Time: 1221 GPU: 8 _ep: 1004

145_ep_expo.txtStart time  1208 #Finish Time: 1229 GPU: 8 _ep: 1052

145_ep_expo.txtStart time  1208 #Finish Time: 1229 GPU: 8 _ep: 1052

146_ep_expo.txtStart time  1221 #Finish Time: 1236 GPU: 8 _ep: 975

146_ep_expo.txtStart time  1221 #Finish Time: 1236 GPU: 8 _ep: 975

147_ep_expo.txtStart time  1229 #Finish Time: 1243 GPU: 8 _ep: 949

147_ep_expo.txtStart time  1229 #Finish Time: 1243 GPU: 8 _ep: 949

148_ep_expo.txtStart time  1230 #Finish Time: 1250 GPU: 8 _ep: 1001

148_ep_expo.txtStart time  1230 #Finish Time: 1250 GPU: 8 _ep: 1001

259_ep_expo.txtStart time  1243 #Finish Time: 1257 GPU: 1 _ep: 978

259_ep_expo.txtStart time  1243 #Finish Time: 1257 GPU: 1 _ep: 978

260_ep_expo.txtStart time  1250 #Finish Time: 1265 GPU: 1 _ep: 1027

260_ep_expo.txtStart time  1250 #Finish Time: 1265 GPU: 1 _ep: 1027

149_ep_expo.txtStart time  1258 #Finish Time: 1272 GPU: 8 _ep: 978

149_ep_expo.txtStart time  1258 #Finish Time: 1272 GPU: 8 _ep: 978

150_ep_expo.txtStart time  1265 #Finish Time: 1279 GPU: 8 _ep: 984

150_ep_expo.txtStart time  1265 #Finish Time: 1279 GPU: 8 _ep: 984

151_ep_expo.txtStart time  1266 #Finish Time: 1287 GPU: 8 _ep: 1001

151_ep_expo.txtStart time  1266 #Finish Time: 1287 GPU: 8 _ep: 1001

152_ep_expo.txtStart time  1273 #Finish Time: 1295 GPU: 8 _ep: 1034

152_ep_expo.txtStart time  1273 #Finish Time: 1295 GPU: 8 _ep: 1034

153_ep_expo.txtStart time  1287 #Finish Time: 1303 GPU: 8 _ep: 1038

153_ep_expo.txtStart time  1287 #Finish Time: 1303 GPU: 8 _ep: 1038

154_ep_expo.txtStart time  1295 #Finish Time: 1311 GPU: 8 _ep: 1031

154_ep_expo.txtStart time  1295 #Finish Time: 1311 GPU: 8 _ep: 1031

155_ep_expo.txtStart time  1296 #Finish Time: 1318 GPU: 8 _ep: 966

155_ep_expo.txtStart time  1296 #Finish Time: 1318 GPU: 8 _ep: 966

261_ep_expo.txtStart time  1312 #Finish Time: 1325 GPU: 1 _ep: 987

261_ep_expo.txtStart time  1312 #Finish Time: 1325 GPU: 1 _ep: 987

262_ep_expo.txtStart time  1318 #Finish Time: 1332 GPU: 1 _ep: 966

262_ep_expo.txtStart time  1318 #Finish Time: 1332 GPU: 1 _ep: 966

156_ep_expo.txtStart time  1325 #Finish Time: 1339 GPU: 8 _ep: 1026

156_ep_expo.txtStart time  1325 #Finish Time: 1339 GPU: 8 _ep: 1026

157_ep_expo.txtStart time  1332 #Finish Time: 1346 GPU: 8 _ep: 977

157_ep_expo.txtStart time  1332 #Finish Time: 1346 GPU: 8 _ep: 977

158_ep_expo.txtStart time  1333 #Finish Time: 1353 GPU: 8 _ep: 972

158_ep_expo.txtStart time  1333 #Finish Time: 1353 GPU: 8 _ep: 972

159_ep_expo.txtStart time  1340 #Finish Time: 1361 GPU: 8 _ep: 1011

159_ep_expo.txtStart time  1340 #Finish Time: 1361 GPU: 8 _ep: 1011

160_ep_expo.txtStart time  1353 #Finish Time: 1369 GPU: 8 _ep: 1029

160_ep_expo.txtStart time  1353 #Finish Time: 1369 GPU: 8 _ep: 1029

161_ep_expo.txtStart time  1354 #Finish Time: 1376 GPU: 8 _ep: 991

161_ep_expo.txtStart time  1354 #Finish Time: 1376 GPU: 8 _ep: 991

162_ep_expo.txtStart time  1369 #Finish Time: 1384 GPU: 8 _ep: 1041

162_ep_expo.txtStart time  1369 #Finish Time: 1384 GPU: 8 _ep: 1041

263_ep_expo.txtStart time  1377 #Finish Time: 1391 GPU: 1 _ep: 943

263_ep_expo.txtStart time  1377 #Finish Time: 1391 GPU: 1 _ep: 943

264_ep_expo.txtStart time  1384 #Finish Time: 1398 GPU: 1 _ep: 1020

264_ep_expo.txtStart time  1384 #Finish Time: 1398 GPU: 1 _ep: 1020

163_ep_expo.txtStart time  1391 #Finish Time: 1406 GPU: 8 _ep: 1031

163_ep_expo.txtStart time  1391 #Finish Time: 1406 GPU: 8 _ep: 1031

164_ep_expo.txtStart time  1398 #Finish Time: 1413 GPU: 8 _ep: 986

164_ep_expo.txtStart time  1398 #Finish Time: 1413 GPU: 8 _ep: 986

165_ep_expo.txtStart time  1399 #Finish Time: 1420 GPU: 8 _ep: 976

165_ep_expo.txtStart time  1399 #Finish Time: 1420 GPU: 8 _ep: 976

166_ep_expo.txtStart time  1413 #Finish Time: 1428 GPU: 8 _ep: 1014

166_ep_expo.txtStart time  1413 #Finish Time: 1428 GPU: 8 _ep: 1014

167_ep_expo.txtStart time  1420 #Finish Time: 1435 GPU: 8 _ep: 972

167_ep_expo.txtStart time  1420 #Finish Time: 1435 GPU: 8 _ep: 972

168_ep_expo.txtStart time  1428 #Finish Time: 1443 GPU: 8 _ep: 1032

168_ep_expo.txtStart time  1428 #Finish Time: 1443 GPU: 8 _ep: 1032

169_ep_expo.txtStart time  1435 #Finish Time: 1451 GPU: 8 _ep: 1001

169_ep_expo.txtStart time  1435 #Finish Time: 1451 GPU: 8 _ep: 1001

265_ep_expo.txtStart time  1443 #Finish Time: 1458 GPU: 1 _ep: 979

265_ep_expo.txtStart time  1443 #Finish Time: 1458 GPU: 1 _ep: 979

266_ep_expo.txtStart time  1451 #Finish Time: 1466 GPU: 1 _ep: 1032

266_ep_expo.txtStart time  1451 #Finish Time: 1466 GPU: 1 _ep: 1032

170_ep_expo.txtStart time  1459 #Finish Time: 1473 GPU: 8 _ep: 999

170_ep_expo.txtStart time  1459 #Finish Time: 1473 GPU: 8 _ep: 999

171_ep_expo.txtStart time  1466 #Finish Time: 1480 GPU: 8 _ep: 943

171_ep_expo.txtStart time  1466 #Finish Time: 1480 GPU: 8 _ep: 943

172_ep_expo.txtStart time  1467 #Finish Time: 1487 GPU: 8 _ep: 1007

172_ep_expo.txtStart time  1467 #Finish Time: 1487 GPU: 8 _ep: 1007

173_ep_expo.txtStart time  1480 #Finish Time: 1494 GPU: 8 _ep: 990

173_ep_expo.txtStart time  1480 #Finish Time: 1494 GPU: 8 _ep: 990

174_ep_expo.txtStart time  1487 #Finish Time: 1502 GPU: 8 _ep: 1025

174_ep_expo.txtStart time  1487 #Finish Time: 1502 GPU: 8 _ep: 1025

175_ep_expo.txtStart time  1488 #Finish Time: 1509 GPU: 8 _ep: 952

175_ep_expo.txtStart time  1488 #Finish Time: 1509 GPU: 8 _ep: 952

176_ep_expo.txtStart time  1499 #Finish Time: 1517 GPU: 8 _ep: 1036

176_ep_expo.txtStart time  1499 #Finish Time: 1517 GPU: 8 _ep: 1036

267_ep_expo.txtStart time  1510 #Finish Time: 1525 GPU: 1 _ep: 1040

267_ep_expo.txtStart time  1510 #Finish Time: 1525 GPU: 1 _ep: 1040

268_ep_expo.txtStart time  1517 #Finish Time: 1533 GPU: 1 _ep: 1006

268_ep_expo.txtStart time  1517 #Finish Time: 1533 GPU: 1 _ep: 1006

177_ep_expo.txtStart time  1525 #Finish Time: 1540 GPU: 8 _ep: 986

177_ep_expo.txtStart time  1525 #Finish Time: 1540 GPU: 8 _ep: 986

178_ep_expo.txtStart time  1533 #Finish Time: 1548 GPU: 8 _ep: 1001

178_ep_expo.txtStart time  1533 #Finish Time: 1548 GPU: 8 _ep: 1001

179_ep_expo.txtStart time  1534 #Finish Time: 1555 GPU: 8 _ep: 996

179_ep_expo.txtStart time  1534 #Finish Time: 1555 GPU: 8 _ep: 996

180_ep_expo.txtStart time  1547 #Finish Time: 1562 GPU: 8 _ep: 993

180_ep_expo.txtStart time  1547 #Finish Time: 1562 GPU: 8 _ep: 993

181_ep_expo.txtStart time  1555 #Finish Time: 1570 GPU: 8 _ep: 984

181_ep_expo.txtStart time  1555 #Finish Time: 1570 GPU: 8 _ep: 984

182_ep_expo.txtStart time  1562 #Finish Time: 1577 GPU: 8 _ep: 978

182_ep_expo.txtStart time  1562 #Finish Time: 1577 GPU: 8 _ep: 978

183_ep_expo.txtStart time  1563 #Finish Time: 1585 GPU: 8 _ep: 1043

183_ep_expo.txtStart time  1563 #Finish Time: 1585 GPU: 8 _ep: 1043

269_ep_expo.txtStart time  1575 #Finish Time: 1593 GPU: 1 _ep: 1035

269_ep_expo.txtStart time  1575 #Finish Time: 1593 GPU: 1 _ep: 1035

270_ep_expo.txtStart time  1585 #Finish Time: 1601 GPU: 1 _ep: 996

270_ep_expo.txtStart time  1585 #Finish Time: 1601 GPU: 1 _ep: 996

184_ep_expo.txtStart time  1594 #Finish Time: 1609 GPU: 8 _ep: 992

184_ep_expo.txtStart time  1594 #Finish Time: 1609 GPU: 8 _ep: 992

185_ep_expo.txtStart time  1601 #Finish Time: 1616 GPU: 8 _ep: 1000

185_ep_expo.txtStart time  1601 #Finish Time: 1616 GPU: 8 _ep: 1000

186_ep_expo.txtStart time  1609 #Finish Time: 1623 GPU: 8 _ep: 972

186_ep_expo.txtStart time  1609 #Finish Time: 1623 GPU: 8 _ep: 972

187_ep_expo.txtStart time  1616 #Finish Time: 1630 GPU: 8 _ep: 956

187_ep_expo.txtStart time  1616 #Finish Time: 1630 GPU: 8 _ep: 956

188_ep_expo.txtStart time  1623 #Finish Time: 1637 GPU: 8 _ep: 979

188_ep_expo.txtStart time  1623 #Finish Time: 1637 GPU: 8 _ep: 979

189_ep_expo.txtStart time  1624 #Finish Time: 1645 GPU: 8 _ep: 1009

189_ep_expo.txtStart time  1624 #Finish Time: 1645 GPU: 8 _ep: 1009

190_ep_expo.txtStart time  1632 #Finish Time: 1652 GPU: 8 _ep: 1012

190_ep_expo.txtStart time  1632 #Finish Time: 1652 GPU: 8 _ep: 1012

271_ep_expo.txtStart time  1650 #Finish Time: 1660 GPU: 1 _ep: 1016

271_ep_expo.txtStart time  1650 #Finish Time: 1660 GPU: 1 _ep: 1016

272_ep_expo.txtStart time  1652 #Finish Time: 1668 GPU: 1 _ep: 1020

272_ep_expo.txtStart time  1652 #Finish Time: 1668 GPU: 1 _ep: 1020

273_ep_expo.txtStart time  1653 #Finish Time: 1676 GPU: 1 _ep: 1041

273_ep_expo.txtStart time  1653 #Finish Time: 1676 GPU: 1 _ep: 1041

191_ep_expo.txtStart time  1673 #Finish Time: 1684 GPU: 8 _ep: 1022

191_ep_expo.txtStart time  1673 #Finish Time: 1684 GPU: 8 _ep: 1022

192_ep_expo.txtStart time  1676 #Finish Time: 1692 GPU: 8 _ep: 1000

192_ep_expo.txtStart time  1676 #Finish Time: 1692 GPU: 8 _ep: 1000

193_ep_expo.txtStart time  1677 #Finish Time: 1700 GPU: 8 _ep: 1034

193_ep_expo.txtStart time  1677 #Finish Time: 1700 GPU: 8 _ep: 1034

194_ep_expo.txtStart time  1685 #Finish Time: 1707 GPU: 8 _ep: 970

194_ep_expo.txtStart time  1685 #Finish Time: 1707 GPU: 8 _ep: 970

195_ep_expo.txtStart time  1700 #Finish Time: 1715 GPU: 8 _ep: 1007

195_ep_expo.txtStart time  1700 #Finish Time: 1715 GPU: 8 _ep: 1007

196_ep_expo.txtStart time  1707 #Finish Time: 1722 GPU: 8 _ep: 981

196_ep_expo.txtStart time  1707 #Finish Time: 1722 GPU: 8 _ep: 981

197_ep_expo.txtStart time  1708 #Finish Time: 1729 GPU: 8 _ep: 945

197_ep_expo.txtStart time  1708 #Finish Time: 1729 GPU: 8 _ep: 945

274_ep_expo.txtStart time  1723 #Finish Time: 1737 GPU: 1 _ep: 1011

274_ep_expo.txtStart time  1723 #Finish Time: 1737 GPU: 1 _ep: 1011

275_ep_expo.txtStart time  1729 #Finish Time: 1744 GPU: 1 _ep: 974

275_ep_expo.txtStart time  1729 #Finish Time: 1744 GPU: 1 _ep: 974

198_ep_expo.txtStart time  1737 #Finish Time: 1752 GPU: 8 _ep: 1030

198_ep_expo.txtStart time  1737 #Finish Time: 1752 GPU: 8 _ep: 1030

199_ep_expo.txtStart time  1744 #Finish Time: 1759 GPU: 8 _ep: 974

199_ep_expo.txtStart time  1744 #Finish Time: 1759 GPU: 8 _ep: 974

200_ep_expo.txtStart time  1745 #Finish Time: 1767 GPU: 8 _ep: 1000

200_ep_expo.txtStart time  1745 #Finish Time: 1767 GPU: 8 _ep: 1000

201_ep_expo.txtStart time  1759 #Finish Time: 1775 GPU: 8 _ep: 1021

201_ep_expo.txtStart time  1759 #Finish Time: 1775 GPU: 8 _ep: 1021

202_ep_expo.txtStart time  1767 #Finish Time: 1783 GPU: 8 _ep: 999

202_ep_expo.txtStart time  1767 #Finish Time: 1783 GPU: 8 _ep: 999

203_ep_expo.txtStart time  1775 #Finish Time: 1790 GPU: 8 _ep: 955

203_ep_expo.txtStart time  1775 #Finish Time: 1790 GPU: 8 _ep: 955

204_ep_expo.txtStart time  1776 #Finish Time: 1798 GPU: 8 _ep: 1006

204_ep_expo.txtStart time  1776 #Finish Time: 1798 GPU: 8 _ep: 1006

276_ep_expo.txtStart time  1790 #Finish Time: 1806 GPU: 1 _ep: 1002

276_ep_expo.txtStart time  1790 #Finish Time: 1806 GPU: 1 _ep: 1002

277_ep_expo.txtStart time  1798 #Finish Time: 1813 GPU: 1 _ep: 994

277_ep_expo.txtStart time  1798 #Finish Time: 1813 GPU: 1 _ep: 994

205_ep_expo.txtStart time  1806 #Finish Time: 1820 GPU: 8 _ep: 990

205_ep_expo.txtStart time  1806 #Finish Time: 1820 GPU: 8 _ep: 990

206_ep_expo.txtStart time  1813 #Finish Time: 1828 GPU: 8 _ep: 1040

206_ep_expo.txtStart time  1813 #Finish Time: 1828 GPU: 8 _ep: 1040

207_ep_expo.txtStart time  1814 #Finish Time: 1836 GPU: 8 _ep: 1024

207_ep_expo.txtStart time  1814 #Finish Time: 1836 GPU: 8 _ep: 1024

208_ep_expo.txtStart time  1824 #Finish Time: 1844 GPU: 8 _ep: 1036

208_ep_expo.txtStart time  1824 #Finish Time: 1844 GPU: 8 _ep: 1036

209_ep_expo.txtStart time  1836 #Finish Time: 1851 GPU: 8 _ep: 959

209_ep_expo.txtStart time  1836 #Finish Time: 1851 GPU: 8 _ep: 959

210_ep_expo.txtStart time  1844 #Finish Time: 1859 GPU: 16 _ep: 1016

210_ep_expo.txtStart time  1844 #Finish Time: 1859 GPU: 16 _ep: 1016

278_ep_expo.txtStart time  1851 #Finish Time: 1867 GPU: 1 _ep: 1030

278_ep_expo.txtStart time  1851 #Finish Time: 1867 GPU: 1 _ep: 1030

279_ep_expo.txtStart time  1859 #Finish Time: 1876 GPU: 1 _ep: 1003

279_ep_expo.txtStart time  1859 #Finish Time: 1876 GPU: 1 _ep: 1003

211_ep_expo.txtStart time  1868 #Finish Time: 1883 GPU: 16 _ep: 981

211_ep_expo.txtStart time  1868 #Finish Time: 1883 GPU: 16 _ep: 981

212_ep_expo.txtStart time  1876 #Finish Time: 1890 GPU: 16 _ep: 954

213_ep_expo.txtStart time  1877 #Finish Time: 1897 GPU: 16 _ep: 1001

212_ep_expo.txtStart time  1876 #Finish Time: 1897 GPU: 16 _ep: 954

213_ep_expo.txtStart time  1877 #Finish Time: 1897 GPU: 16 _ep: 1001

280_ep_expo.txtStart time  1891 #Finish Time: 1905 GPU: 1 _ep: 998

280_ep_expo.txtStart time  1891 #Finish Time: 1905 GPU: 1 _ep: 998

281_ep_expo.txtStart time  1897 #Finish Time: 1913 GPU: 1 _ep: 1038

281_ep_expo.txtStart time  1897 #Finish Time: 1913 GPU: 1 _ep: 1038

282_ep_expo.txtStart time  1905 #Finish Time: 1921 GPU: 1 _ep: 1018

282_ep_expo.txtStart time  1905 #Finish Time: 1921 GPU: 1 _ep: 1018

283_ep_expo.txtStart time  1913 #Finish Time: 1928 GPU: 1 _ep: 978

283_ep_expo.txtStart time  1913 #Finish Time: 1928 GPU: 1 _ep: 978

284_ep_expo.txtStart time  1921 #Finish Time: 1936 GPU: 1 _ep: 1053

284_ep_expo.txtStart time  1921 #Finish Time: 1936 GPU: 1 _ep: 1053

285_ep_expo.txtStart time  1928 #Finish Time: 1943 GPU: 1 _ep: 1007

285_ep_expo.txtStart time  1928 #Finish Time: 1943 GPU: 1 _ep: 1007

286_ep_expo.txtStart time  1936 #Finish Time: 1950 GPU: 1 _ep: 980

286_ep_expo.txtStart time  1936 #Finish Time: 1950 GPU: 1 _ep: 980

287_ep_expo.txtStart time  1936 #Finish Time: 1957 GPU: 1 _ep: 967

287_ep_expo.txtStart time  1936 #Finish Time: 1957 GPU: 1 _ep: 967

288_ep_expo.txtStart time  1950 #Finish Time: 1964 GPU: 1 _ep: 951

288_ep_expo.txtStart time  1950 #Finish Time: 1964 GPU: 1 _ep: 951

289_ep_expo.txtStart time  1957 #Finish Time: 1972 GPU: 1 _ep: 1000

289_ep_expo.txtStart time  1957 #Finish Time: 1972 GPU: 1 _ep: 1000

214_ep_expo.txtStart time  1965 #Finish Time: 1979 GPU: 16 _ep: 991

214_ep_expo.txtStart time  1965 #Finish Time: 1979 GPU: 16 _ep: 991

215_ep_expo.txtStart time  1972 #Finish Time: 1986 GPU: 16 _ep: 992

215_ep_expo.txtStart time  1972 #Finish Time: 1986 GPU: 16 _ep: 992

216_ep_expo.txtStart time  1979 #Finish Time: 1994 GPU: 16 _ep: 990

216_ep_expo.txtStart time  1979 #Finish Time: 1994 GPU: 16 _ep: 990

290_ep_expo.txtStart time  1986 #Finish Time: 2001 GPU: 1 _ep: 1014

290_ep_expo.txtStart time  1986 #Finish Time: 2001 GPU: 1 _ep: 1014

291_ep_expo.txtStart time  1994 #Finish Time: 2008 GPU: 1 _ep: 1000

291_ep_expo.txtStart time  1994 #Finish Time: 2008 GPU: 1 _ep: 1000

292_ep_expo.txtStart time  2001 #Finish Time: 2015 GPU: 1 _ep: 965

292_ep_expo.txtStart time  2001 #Finish Time: 2015 GPU: 1 _ep: 965

293_ep_expo.txtStart time  2008 #Finish Time: 2023 GPU: 1 _ep: 1017

293_ep_expo.txtStart time  2008 #Finish Time: 2023 GPU: 1 _ep: 1017

294_ep_expo.txtStart time  2009 #Finish Time: 2031 GPU: 1 _ep: 1010

294_ep_expo.txtStart time  2009 #Finish Time: 2031 GPU: 1 _ep: 1010

295_ep_expo.txtStart time  2021 #Finish Time: 2039 GPU: 1 _ep: 1019

295_ep_expo.txtStart time  2021 #Finish Time: 2039 GPU: 1 _ep: 1019

296_ep_expo.txtStart time  2024 #Finish Time: 2047 GPU: 1 _ep: 1009

296_ep_expo.txtStart time  2024 #Finish Time: 2047 GPU: 1 _ep: 1009

297_ep_expo.txtStart time  2039 #Finish Time: 2055 GPU: 1 _ep: 1026

297_ep_expo.txtStart time  2039 #Finish Time: 2055 GPU: 1 _ep: 1026

298_ep_expo.txtStart time  2047 #Finish Time: 2063 GPU: 1 _ep: 998

298_ep_expo.txtStart time  2047 #Finish Time: 2063 GPU: 1 _ep: 998

299_ep_expo.txtStart time  2049 #Finish Time: 2070 GPU: 1 _ep: 1023

299_ep_expo.txtStart time  2049 #Finish Time: 2070 GPU: 1 _ep: 1023

217_ep_expo.txtStart time  2064 #Finish Time: 2077 GPU: 16 _ep: 968

217_ep_expo.txtStart time  2064 #Finish Time: 2077 GPU: 16 _ep: 968

218_ep_expo.txtStart time  2064 #Finish Time: 2085 GPU: 16 _ep: 1022

218_ep_expo.txtStart time  2064 #Finish Time: 2085 GPU: 16 _ep: 1022

219_ep_expo.txtStart time  2077 #Finish Time: 2092 GPU: 16 _ep: 984

219_ep_expo.txtStart time  2077 #Finish Time: 2092 GPU: 16 _ep: 984

300_ep_expo.txtStart time  2092 #Finish Time: 2099 GPU: 1 _ep: 938

300_ep_expo.txtStart time  2092 #Finish Time: 2099 GPU: 1 _ep: 938

301_ep_expo.txtStart time  2092 #Finish Time: 2106 GPU: 1 _ep: 1007

301_ep_expo.txtStart time  2092 #Finish Time: 2106 GPU: 1 _ep: 1007

302_ep_expo.txtStart time  2098 #Finish Time: 2114 GPU: 1 _ep: 1012

302_ep_expo.txtStart time  2098 #Finish Time: 2114 GPU: 1 _ep: 1012

303_ep_expo.txtStart time  2100 #Finish Time: 2121 GPU: 1 _ep: 996

303_ep_expo.txtStart time  2100 #Finish Time: 2121 GPU: 1 _ep: 996

304_ep_expo.txtStart time  2114 #Finish Time: 2128 GPU: 1 _ep: 997

304_ep_expo.txtStart time  2114 #Finish Time: 2128 GPU: 1 _ep: 997

305_ep_expo.txtStart time  2115 #Finish Time: 2135 GPU: 1 _ep: 1007

305_ep_expo.txtStart time  2115 #Finish Time: 2135 GPU: 1 _ep: 1007

306_ep_expo.txtStart time  2127 #Finish Time: 2143 GPU: 1 _ep: 967

306_ep_expo.txtStart time  2127 #Finish Time: 2143 GPU: 1 _ep: 967

307_ep_expo.txtStart time  2129 #Finish Time: 2151 GPU: 1 _ep: 1016

307_ep_expo.txtStart time  2129 #Finish Time: 2151 GPU: 1 _ep: 1016

308_ep_expo.txtStart time  2136 #Finish Time: 2158 GPU: 1 _ep: 973

308_ep_expo.txtStart time  2136 #Finish Time: 2158 GPU: 1 _ep: 973

309_ep_expo.txtStart time  2144 #Finish Time: 2166 GPU: 1 _ep: 1017

309_ep_expo.txtStart time  2144 #Finish Time: 2166 GPU: 1 _ep: 1017

310_ep_expo.txtStart time  2152 #Finish Time: 2174 GPU: 1 _ep: 1050

310_ep_expo.txtStart time  2152 #Finish Time: 2174 GPU: 1 _ep: 1050

220_ep_expo.txtStart time  2167 #Finish Time: 2181 GPU: 16 _ep: 1006

220_ep_expo.txtStart time  2167 #Finish Time: 2181 GPU: 16 _ep: 1006

221_ep_expo.txtStart time  2174 #Finish Time: 2188 GPU: 16 _ep: 976

221_ep_expo.txtStart time  2174 #Finish Time: 2188 GPU: 16 _ep: 976

222_ep_expo.txtStart time  2175 #Finish Time: 2196 GPU: 16 _ep: 1015

222_ep_expo.txtStart time  2175 #Finish Time: 2196 GPU: 16 _ep: 1015

311_ep_expo.txtStart time  2196 #Finish Time: 2203 GPU: 1 _ep: 922

311_ep_expo.txtStart time  2196 #Finish Time: 2203 GPU: 1 _ep: 922

312_ep_expo.txtStart time  2196 #Finish Time: 2211 GPU: 1 _ep: 1022

312_ep_expo.txtStart time  2196 #Finish Time: 2211 GPU: 1 _ep: 1022

313_ep_expo.txtStart time  2197 #Finish Time: 2218 GPU: 1 _ep: 953

313_ep_expo.txtStart time  2197 #Finish Time: 2218 GPU: 1 _ep: 953

314_ep_expo.txtStart time  2204 #Finish Time: 2225 GPU: 1 _ep: 971

314_ep_expo.txtStart time  2204 #Finish Time: 2225 GPU: 1 _ep: 971

315_ep_expo.txtStart time  2212 #Finish Time: 2232 GPU: 1 _ep: 1022

315_ep_expo.txtStart time  2212 #Finish Time: 2232 GPU: 1 _ep: 1022

316_ep_expo.txtStart time  2225 #Finish Time: 2239 GPU: 1 _ep: 969

316_ep_expo.txtStart time  2225 #Finish Time: 2239 GPU: 1 _ep: 969

317_ep_expo.txtStart time  2232 #Finish Time: 2246 GPU: 1 _ep: 985

317_ep_expo.txtStart time  2232 #Finish Time: 2246 GPU: 1 _ep: 985

318_ep_expo.txtStart time  2239 #Finish Time: 2253 GPU: 1 _ep: 962

318_ep_expo.txtStart time  2239 #Finish Time: 2253 GPU: 1 _ep: 962

319_ep_expo.txtStart time  2245 #Finish Time: 2261 GPU: 1 _ep: 1050

319_ep_expo.txtStart time  2245 #Finish Time: 2261 GPU: 1 _ep: 1050

320_ep_expo.txtStart time  2247 #Finish Time: 2268 GPU: 1 _ep: 1016

320_ep_expo.txtStart time  2247 #Finish Time: 2268 GPU: 1 _ep: 1016

321_ep_expo.txtStart time  2261 #Finish Time: 2277 GPU: 1 _ep: 1004

321_ep_expo.txtStart time  2261 #Finish Time: 2277 GPU: 1 _ep: 1004

223_ep_expo.txtStart time  2270 #Finish Time: 2284 GPU: 16 _ep: 1004

223_ep_expo.txtStart time  2270 #Finish Time: 2284 GPU: 16 _ep: 1004

224_ep_expo.txtStart time  2277 #Finish Time: 2291 GPU: 16 _ep: 949

224_ep_expo.txtStart time  2277 #Finish Time: 2291 GPU: 16 _ep: 949

225_ep_expo.txtStart time  2278 #Finish Time: 2298 GPU: 16 _ep: 969

225_ep_expo.txtStart time  2278 #Finish Time: 2298 GPU: 16 _ep: 969

322_ep_expo.txtStart time  2298 #Finish Time: 2305 GPU: 1 _ep: 968

322_ep_expo.txtStart time  2298 #Finish Time: 2305 GPU: 1 _ep: 968

323_ep_expo.txtStart time  2298 #Finish Time: 2312 GPU: 1 _ep: 948

323_ep_expo.txtStart time  2298 #Finish Time: 2312 GPU: 1 _ep: 948

324_ep_expo.txtStart time  2299 #Finish Time: 2319 GPU: 1 _ep: 1027

324_ep_expo.txtStart time  2299 #Finish Time: 2319 GPU: 1 _ep: 1027

325_ep_expo.txtStart time  2306 #Finish Time: 2326 GPU: 1 _ep: 982

325_ep_expo.txtStart time  2306 #Finish Time: 2326 GPU: 1 _ep: 982

326_ep_expo.txtStart time  2319 #Finish Time: 2334 GPU: 1 _ep: 1008

326_ep_expo.txtStart time  2319 #Finish Time: 2334 GPU: 1 _ep: 1008

327_ep_expo.txtStart time  2326 #Finish Time: 2342 GPU: 1 _ep: 996

327_ep_expo.txtStart time  2326 #Finish Time: 2342 GPU: 1 _ep: 996

328_ep_expo.txtStart time  2327 #Finish Time: 2349 GPU: 1 _ep: 972

328_ep_expo.txtStart time  2327 #Finish Time: 2349 GPU: 1 _ep: 972

329_ep_expo.txtStart time  2335 #Finish Time: 2356 GPU: 1 _ep: 947

329_ep_expo.txtStart time  2335 #Finish Time: 2356 GPU: 1 _ep: 947

330_ep_expo.txtStart time  2349 #Finish Time: 2363 GPU: 1 _ep: 956

330_ep_expo.txtStart time  2349 #Finish Time: 2363 GPU: 1 _ep: 956

331_ep_expo.txtStart time  2356 #Finish Time: 2371 GPU: 1 _ep: 1047

331_ep_expo.txtStart time  2356 #Finish Time: 2371 GPU: 1 _ep: 1047

332_ep_expo.txtStart time  2358 #Finish Time: 2378 GPU: 1 _ep: 977

332_ep_expo.txtStart time  2358 #Finish Time: 2378 GPU: 1 _ep: 977

226_ep_expo.txtStart time  2372 #Finish Time: 2385 GPU: 16 _ep: 964

226_ep_expo.txtStart time  2372 #Finish Time: 2385 GPU: 16 _ep: 964

227_ep_expo.txtStart time  2378 #Finish Time: 2392 GPU: 16 _ep: 1012

227_ep_expo.txtStart time  2378 #Finish Time: 2392 GPU: 16 _ep: 1012

228_ep_expo.txtStart time  2379 #Finish Time: 2400 GPU: 16 _ep: 1056

228_ep_expo.txtStart time  2379 #Finish Time: 2400 GPU: 16 _ep: 1056

333_ep_expo.txtStart time  2400 #Finish Time: 2408 GPU: 1 _ep: 1058

333_ep_expo.txtStart time  2400 #Finish Time: 2408 GPU: 1 _ep: 1058

334_ep_expo.txtStart time  2400 #Finish Time: 2415 GPU: 1 _ep: 1034

334_ep_expo.txtStart time  2400 #Finish Time: 2415 GPU: 1 _ep: 1034

335_ep_expo.txtStart time  2401 #Finish Time: 2422 GPU: 1 _ep: 994

335_ep_expo.txtStart time  2401 #Finish Time: 2422 GPU: 1 _ep: 994

336_ep_expo.txtStart time  2415 #Finish Time: 2430 GPU: 1 _ep: 1015

336_ep_expo.txtStart time  2415 #Finish Time: 2430 GPU: 1 _ep: 1015

337_ep_expo.txtStart time  2422 #Finish Time: 2438 GPU: 1 _ep: 997

337_ep_expo.txtStart time  2422 #Finish Time: 2438 GPU: 1 _ep: 997

338_ep_expo.txtStart time  2430 #Finish Time: 2445 GPU: 1 _ep: 1005

338_ep_expo.txtStart time  2430 #Finish Time: 2445 GPU: 1 _ep: 1005

339_ep_expo.txtStart time  2431 #Finish Time: 2452 GPU: 1 _ep: 990

339_ep_expo.txtStart time  2431 #Finish Time: 2452 GPU: 1 _ep: 990

340_ep_expo.txtStart time  2445 #Finish Time: 2459 GPU: 1 _ep: 947

340_ep_expo.txtStart time  2445 #Finish Time: 2459 GPU: 1 _ep: 947

341_ep_expo.txtStart time  2452 #Finish Time: 2466 GPU: 1 _ep: 951

341_ep_expo.txtStart time  2452 #Finish Time: 2466 GPU: 1 _ep: 951

342_ep_expo.txtStart time  2459 #Finish Time: 2474 GPU: 1 _ep: 1012

342_ep_expo.txtStart time  2459 #Finish Time: 2474 GPU: 1 _ep: 1012

229_ep_expo.txtStart time  2467 #Finish Time: 2481 GPU: 16 _ep: 1013

229_ep_expo.txtStart time  2467 #Finish Time: 2481 GPU: 16 _ep: 1013

230_ep_expo.txtStart time  2474 #Finish Time: 2488 GPU: 16 _ep: 949

230_ep_expo.txtStart time  2474 #Finish Time: 2488 GPU: 16 _ep: 949

231_ep_expo.txtStart time  2475 #Finish Time: 2496 GPU: 16 _ep: 1041

231_ep_expo.txtStart time  2475 #Finish Time: 2496 GPU: 16 _ep: 1041

343_ep_expo.txtStart time  2496 #Finish Time: 2504 GPU: 1 _ep: 1032

343_ep_expo.txtStart time  2496 #Finish Time: 2504 GPU: 1 _ep: 1032

344_ep_expo.txtStart time  2496 #Finish Time: 2511 GPU: 1 _ep: 1006

344_ep_expo.txtStart time  2496 #Finish Time: 2511 GPU: 1 _ep: 1006

345_ep_expo.txtStart time  2497 #Finish Time: 2518 GPU: 1 _ep: 998

345_ep_expo.txtStart time  2497 #Finish Time: 2518 GPU: 1 _ep: 998

346_ep_expo.txtStart time  2505 #Finish Time: 2525 GPU: 1 _ep: 998

346_ep_expo.txtStart time  2505 #Finish Time: 2525 GPU: 1 _ep: 998

347_ep_expo.txtStart time  2518 #Finish Time: 2532 GPU: 1 _ep: 973

347_ep_expo.txtStart time  2518 #Finish Time: 2532 GPU: 1 _ep: 973

348_ep_expo.txtStart time  2519 #Finish Time: 2540 GPU: 1 _ep: 1018

348_ep_expo.txtStart time  2519 #Finish Time: 2540 GPU: 1 _ep: 1018

349_ep_expo.txtStart time  2532 #Finish Time: 2548 GPU: 1 _ep: 1013

349_ep_expo.txtStart time  2532 #Finish Time: 2548 GPU: 1 _ep: 1013

350_ep_expo.txtStart time  2540 #Finish Time: 2555 GPU: 1 _ep: 985

350_ep_expo.txtStart time  2540 #Finish Time: 2555 GPU: 1 _ep: 985

351_ep_expo.txtStart time  2548 #Finish Time: 2563 GPU: 1 _ep: 1033

351_ep_expo.txtStart time  2548 #Finish Time: 2563 GPU: 1 _ep: 1033

352_ep_expo.txtStart time  2550 #Finish Time: 2571 GPU: 1 _ep: 1017

352_ep_expo.txtStart time  2550 #Finish Time: 2571 GPU: 1 _ep: 1017

232_ep_expo.txtStart time  2564 #Finish Time: 2579 GPU: 16 _ep: 1003

232_ep_expo.txtStart time  2564 #Finish Time: 2579 GPU: 16 _ep: 1003

233_ep_expo.txtStart time  2571 #Finish Time: 2587 GPU: 16 _ep: 1019

233_ep_expo.txtStart time  2571 #Finish Time: 2587 GPU: 16 _ep: 1019

234_ep_expo.txtStart time  2571 #Finish Time: 2595 GPU: 16 _ep: 1005

234_ep_expo.txtStart time  2571 #Finish Time: 2595 GPU: 16 _ep: 1005

353_ep_expo.txtStart time  2595 #Finish Time: 2603 GPU: 1 _ep: 1022

353_ep_expo.txtStart time  2595 #Finish Time: 2603 GPU: 1 _ep: 1022

354_ep_expo.txtStart time  2595 #Finish Time: 2611 GPU: 1 _ep: 998

354_ep_expo.txtStart time  2595 #Finish Time: 2611 GPU: 1 _ep: 998

355_ep_expo.txtStart time  2596 #Finish Time: 2619 GPU: 1 _ep: 1006

355_ep_expo.txtStart time  2596 #Finish Time: 2619 GPU: 1 _ep: 1006

356_ep_expo.txtStart time  2604 #Finish Time: 2627 GPU: 1 _ep: 1003

356_ep_expo.txtStart time  2604 #Finish Time: 2627 GPU: 1 _ep: 1003

357_ep_expo.txtStart time  2619 #Finish Time: 2634 GPU: 1 _ep: 976

357_ep_expo.txtStart time  2619 #Finish Time: 2634 GPU: 1 _ep: 976

358_ep_expo.txtStart time  2620 #Finish Time: 2642 GPU: 1 _ep: 1026

358_ep_expo.txtStart time  2620 #Finish Time: 2642 GPU: 1 _ep: 1026

359_ep_expo.txtStart time  2634 #Finish Time: 2650 GPU: 1 _ep: 1053

359_ep_expo.txtStart time  2634 #Finish Time: 2650 GPU: 1 _ep: 1053

360_ep_expo.txtStart time  2642 #Finish Time: 2657 GPU: 1 _ep: 952

360_ep_expo.txtStart time  2642 #Finish Time: 2657 GPU: 1 _ep: 952

361_ep_expo.txtStart time  2650 #Finish Time: 2664 GPU: 1 _ep: 1003

361_ep_expo.txtStart time  2650 #Finish Time: 2664 GPU: 1 _ep: 1003

362_ep_expo.txtStart time  2657 #Finish Time: 2671 GPU: 1 _ep: 979

362_ep_expo.txtStart time  2657 #Finish Time: 2671 GPU: 1 _ep: 979

363_ep_expo.txtStart time  2658 #Finish Time: 2678 GPU: 1 _ep: 995

363_ep_expo.txtStart time  2658 #Finish Time: 2678 GPU: 1 _ep: 995

235_ep_expo.txtStart time  2672 #Finish Time: 2685 GPU: 32 _ep: 1028

235_ep_expo.txtStart time  2672 #Finish Time: 2685 GPU: 32 _ep: 1028

364_ep_expo.txtStart time  2679 #Finish Time: 2693 GPU: 1 _ep: 1039

364_ep_expo.txtStart time  2679 #Finish Time: 2693 GPU: 1 _ep: 1039

365_ep_expo.txtStart time  2685 #Finish Time: 2701 GPU: 1 _ep: 1036

365_ep_expo.txtStart time  2685 #Finish Time: 2701 GPU: 1 _ep: 1036

366_ep_expo.txtStart time  2685 #Finish Time: 2708 GPU: 1 _ep: 979

366_ep_expo.txtStart time  2685 #Finish Time: 2708 GPU: 1 _ep: 979

367_ep_expo.txtStart time  2699 #Finish Time: 2715 GPU: 1 _ep: 983

367_ep_expo.txtStart time  2699 #Finish Time: 2715 GPU: 1 _ep: 983

368_ep_expo.txtStart time  2708 #Finish Time: 2723 GPU: 1 _ep: 1015

368_ep_expo.txtStart time  2708 #Finish Time: 2723 GPU: 1 _ep: 1015

369_ep_expo.txtStart time  2715 #Finish Time: 2730 GPU: 1 _ep: 977

369_ep_expo.txtStart time  2715 #Finish Time: 2730 GPU: 1 _ep: 977

370_ep_expo.txtStart time  2720 #Finish Time: 2737 GPU: 1 _ep: 1022

370_ep_expo.txtStart time  2720 #Finish Time: 2737 GPU: 1 _ep: 1022

371_ep_expo.txtStart time  2730 #Finish Time: 2744 GPU: 1 _ep: 1023

371_ep_expo.txtStart time  2730 #Finish Time: 2744 GPU: 1 _ep: 1023

372_ep_expo.txtStart time  2735 #Finish Time: 2751 GPU: 1 _ep: 972

372_ep_expo.txtStart time  2735 #Finish Time: 2751 GPU: 1 _ep: 972

373_ep_expo.txtStart time  2744 #Finish Time: 2758 GPU: 1 _ep: 970

373_ep_expo.txtStart time  2744 #Finish Time: 2758 GPU: 1 _ep: 970

374_ep_expo.txtStart time  2751 #Finish Time: 2766 GPU: 1 _ep: 1029

374_ep_expo.txtStart time  2751 #Finish Time: 2766 GPU: 1 _ep: 1029

375_ep_expo.txtStart time  2758 #Finish Time: 2773 GPU: 1 _ep: 948

375_ep_expo.txtStart time  2758 #Finish Time: 2773 GPU: 1 _ep: 948

376_ep_expo.txtStart time  2759 #Finish Time: 2780 GPU: 1 _ep: 937

376_ep_expo.txtStart time  2759 #Finish Time: 2780 GPU: 1 _ep: 937

377_ep_expo.txtStart time  2773 #Finish Time: 2788 GPU: 1 _ep: 1013

377_ep_expo.txtStart time  2773 #Finish Time: 2788 GPU: 1 _ep: 1013

378_ep_expo.txtStart time  2780 #Finish Time: 2796 GPU: 1 _ep: 1013

378_ep_expo.txtStart time  2780 #Finish Time: 2796 GPU: 1 _ep: 1013

379_ep_expo.txtStart time  2788 #Finish Time: 2803 GPU: 1 _ep: 983

379_ep_expo.txtStart time  2788 #Finish Time: 2804 GPU: 1 _ep: 983

380_ep_expo.txtStart time  2789 #Finish Time: 2811 GPU: 1 _ep: 1001

380_ep_expo.txtStart time  2789 #Finish Time: 2811 GPU: 1 _ep: 1001

381_ep_expo.txtStart time  2803 #Finish Time: 2819 GPU: 1 _ep: 1005

381_ep_expo.txtStart time  2803 #Finish Time: 2819 GPU: 1 _ep: 1005

382_ep_expo.txtStart time  2811 #Finish Time: 2827 GPU: 1 _ep: 1031

382_ep_expo.txtStart time  2811 #Finish Time: 2827 GPU: 1 _ep: 1031

383_ep_expo.txtStart time  2819 #Finish Time: 2834 GPU: 1 _ep: 975

383_ep_expo.txtStart time  2819 #Finish Time: 2834 GPU: 1 _ep: 975

384_ep_expo.txtStart time  2821 #Finish Time: 2842 GPU: 1 _ep: 1055

384_ep_expo.txtStart time  2821 #Finish Time: 2842 GPU: 1 _ep: 1055

385_ep_expo.txtStart time  2834 #Finish Time: 2849 GPU: 1 _ep: 991

385_ep_expo.txtStart time  2834 #Finish Time: 2849 GPU: 1 _ep: 991

386_ep_expo.txtStart time  2840 #Finish Time: 2856 GPU: 1 _ep: 983

386_ep_expo.txtStart time  2840 #Finish Time: 2856 GPU: 1 _ep: 983

387_ep_expo.txtStart time  2843 #Finish Time: 2863 GPU: 1 _ep: 989

387_ep_expo.txtStart time  2843 #Finish Time: 2863 GPU: 1 _ep: 989

388_ep_expo.txtStart time  2853 #Finish Time: 2871 GPU: 1 _ep: 1005

388_ep_expo.txtStart time  2853 #Finish Time: 2871 GPU: 1 _ep: 1005

389_ep_expo.txtStart time  2863 #Finish Time: 2879 GPU: 1 _ep: 950

389_ep_expo.txtStart time  2863 #Finish Time: 2879 GPU: 1 _ep: 950

236_ep_expo.txtStart time  2872 #Finish Time: 2886 GPU: 32 _ep: 914

236_ep_expo.txtStart time  2872 #Finish Time: 2886 GPU: 32 _ep: 914

390_ep_expo.txtStart time  2886 #Finish Time: 2894 GPU: 1 _ep: 1041

390_ep_expo.txtStart time  2886 #Finish Time: 2894 GPU: 1 _ep: 1041

391_ep_expo.txtStart time  2886 #Finish Time: 2901 GPU: 1 _ep: 988

391_ep_expo.txtStart time  2886 #Finish Time: 2901 GPU: 1 _ep: 988

392_ep_expo.txtStart time  2894 #Finish Time: 2909 GPU: 1 _ep: 1040

392_ep_expo.txtStart time  2894 #Finish Time: 2909 GPU: 1 _ep: 1040

393_ep_expo.txtStart time  2901 #Finish Time: 2916 GPU: 1 _ep: 977

393_ep_expo.txtStart time  2901 #Finish Time: 2916 GPU: 1 _ep: 977

394_ep_expo.txtStart time  2909 #Finish Time: 2924 GPU: 1 _ep: 1017

394_ep_expo.txtStart time  2909 #Finish Time: 2924 GPU: 1 _ep: 1017

395_ep_expo.txtStart time  2916 #Finish Time: 2932 GPU: 1 _ep: 986

395_ep_expo.txtStart time  2916 #Finish Time: 2932 GPU: 1 _ep: 986

396_ep_expo.txtStart time  2924 #Finish Time: 2939 GPU: 1 _ep: 1003

396_ep_expo.txtStart time  2924 #Finish Time: 2939 GPU: 1 _ep: 1003

397_ep_expo.txtStart time  2932 #Finish Time: 2947 GPU: 1 _ep: 1095

397_ep_expo.txtStart time  2932 #Finish Time: 2947 GPU: 1 _ep: 1095

398_ep_expo.txtStart time  2939 #Finish Time: 2955 GPU: 1 _ep: 1045

398_ep_expo.txtStart time  2939 #Finish Time: 2955 GPU: 1 _ep: 1045

399_ep_expo.txtStart time  2947 #Finish Time: 2963 GPU: 1 _ep: 1006

399_ep_expo.txtStart time  2947 #Finish Time: 2963 GPU: 1 _ep: 1006

400_ep_expo.txtStart time  2955 #Finish Time: 2970 GPU: 1 _ep: 1013

400_ep_expo.txtStart time  2955 #Finish Time: 2970 GPU: 1 _ep: 1013

401_ep_expo.txtStart time  2963 #Finish Time: 2977 GPU: 1 _ep: 986

401_ep_expo.txtStart time  2963 #Finish Time: 2977 GPU: 1 _ep: 986

402_ep_expo.txtStart time  2970 #Finish Time: 2985 GPU: 1 _ep: 987

402_ep_expo.txtStart time  2970 #Finish Time: 2985 GPU: 1 _ep: 987

403_ep_expo.txtStart time  2977 #Finish Time: 2993 GPU: 1 _ep: 1016

403_ep_expo.txtStart time  2977 #Finish Time: 2993 GPU: 1 _ep: 1016

404_ep_expo.txtStart time  2985 #Finish Time: 3001 GPU: 1 _ep: 1055

404_ep_expo.txtStart time  2985 #Finish Time: 3001 GPU: 1 _ep: 1055

405_ep_expo.txtStart time  2993 #Finish Time: 3009 GPU: 1 _ep: 1028

405_ep_expo.txtStart time  2993 #Finish Time: 3009 GPU: 1 _ep: 1028

406_ep_expo.txtStart time  3001 #Finish Time: 3016 GPU: 1 _ep: 928

406_ep_expo.txtStart time  3001 #Finish Time: 3016 GPU: 1 _ep: 928

407_ep_expo.txtStart time  3009 #Finish Time: 3023 GPU: 1 _ep: 957

407_ep_expo.txtStart time  3009 #Finish Time: 3023 GPU: 1 _ep: 957

408_ep_expo.txtStart time  3016 #Finish Time: 3030 GPU: 1 _ep: 985

408_ep_expo.txtStart time  3016 #Finish Time: 3030 GPU: 1 _ep: 985

409_ep_expo.txtStart time  3023 #Finish Time: 3037 GPU: 1 _ep: 921

409_ep_expo.txtStart time  3023 #Finish Time: 3037 GPU: 1 _ep: 921

410_ep_expo.txtStart time  3030 #Finish Time: 3044 GPU: 1 _ep: 979

410_ep_expo.txtStart time  3030 #Finish Time: 3044 GPU: 1 _ep: 979

411_ep_expo.txtStart time  3037 #Finish Time: 3051 GPU: 1 _ep: 1014

411_ep_expo.txtStart time  3037 #Finish Time: 3051 GPU: 1 _ep: 1014

412_ep_expo.txtStart time  3044 #Finish Time: 3058 GPU: 1 _ep: 998

412_ep_expo.txtStart time  3044 #Finish Time: 3058 GPU: 1 _ep: 998

413_ep_expo.txtStart time  3051 #Finish Time: 3066 GPU: 1 _ep: 967

413_ep_expo.txtStart time  3051 #Finish Time: 3066 GPU: 1 _ep: 967

414_ep_expo.txtStart time  3058 #Finish Time: 3073 GPU: 1 _ep: 1024

414_ep_expo.txtStart time  3058 #Finish Time: 3073 GPU: 1 _ep: 1024

415_ep_expo.txtStart time  3066 #Finish Time: 3080 GPU: 1 _ep: 941

415_ep_expo.txtStart time  3066 #Finish Time: 3080 GPU: 1 _ep: 941

416_ep_expo.txtStart time  3073 #Finish Time: 3088 GPU: 1 _ep: 1019

416_ep_expo.txtStart time  3073 #Finish Time: 3088 GPU: 1 _ep: 1019

237_ep_expo.txtStart time  3084 #Finish Time: 3095 GPU: 32 _ep: 1025

237_ep_expo.txtStart time  3084 #Finish Time: 3095 GPU: 32 _ep: 1025

417_ep_expo.txtStart time  3095 #Finish Time: 3102 GPU: 1 _ep: 991

417_ep_expo.txtStart time  3095 #Finish Time: 3102 GPU: 1 _ep: 991

418_ep_expo.txtStart time  3095 #Finish Time: 3109 GPU: 1 _ep: 1020

418_ep_expo.txtStart time  3095 #Finish Time: 3109 GPU: 1 _ep: 1020

419_ep_expo.txtStart time  3102 #Finish Time: 3116 GPU: 1 _ep: 997

419_ep_expo.txtStart time  3102 #Finish Time: 3116 GPU: 1 _ep: 997

420_ep_expo.txtStart time  3109 #Finish Time: 3123 GPU: 1 _ep: 1005

420_ep_expo.txtStart time  3109 #Finish Time: 3123 GPU: 1 _ep: 1005

421_ep_expo.txtStart time  3116 #Finish Time: 3130 GPU: 1 _ep: 994

421_ep_expo.txtStart time  3116 #Finish Time: 3130 GPU: 1 _ep: 994

422_ep_expo.txtStart time  3123 #Finish Time: 3138 GPU: 1 _ep: 1016

422_ep_expo.txtStart time  3123 #Finish Time: 3138 GPU: 1 _ep: 1016

423_ep_expo.txtStart time  3130 #Finish Time: 3145 GPU: 1 _ep: 1008

423_ep_expo.txtStart time  3130 #Finish Time: 3145 GPU: 1 _ep: 1008

424_ep_expo.txtStart time  3138 #Finish Time: 3153 GPU: 1 _ep: 1064

424_ep_expo.txtStart time  3138 #Finish Time: 3153 GPU: 1 _ep: 1064

425_ep_expo.txtStart time  3145 #Finish Time: 3160 GPU: 1 _ep: 1004

425_ep_expo.txtStart time  3145 #Finish Time: 3160 GPU: 1 _ep: 1004

426_ep_expo.txtStart time  3153 #Finish Time: 3167 GPU: 1 _ep: 988

426_ep_expo.txtStart time  3153 #Finish Time: 3167 GPU: 1 _ep: 988

427_ep_expo.txtStart time  3160 #Finish Time: 3175 GPU: 1 _ep: 1017

427_ep_expo.txtStart time  3160 #Finish Time: 3175 GPU: 1 _ep: 1017

428_ep_expo.txtStart time  3167 #Finish Time: 3182 GPU: 1 _ep: 997

428_ep_expo.txtStart time  3167 #Finish Time: 3182 GPU: 1 _ep: 997

429_ep_expo.txtStart time  3175 #Finish Time: 3189 GPU: 1 _ep: 973

429_ep_expo.txtStart time  3175 #Finish Time: 3189 GPU: 1 _ep: 973

430_ep_expo.txtStart time  3183 #Finish Time: 3197 GPU: 1 _ep: 995

430_ep_expo.txtStart time  3183 #Finish Time: 3197 GPU: 1 _ep: 995

431_ep_expo.txtStart time  3189 #Finish Time: 3204 GPU: 1 _ep: 966

431_ep_expo.txtStart time  3189 #Finish Time: 3204 GPU: 1 _ep: 966

432_ep_expo.txtStart time  3197 #Finish Time: 3212 GPU: 1 _ep: 1050

432_ep_expo.txtStart time  3197 #Finish Time: 3212 GPU: 1 _ep: 1050

433_ep_expo.txtStart time  3204 #Finish Time: 3219 GPU: 1 _ep: 952

433_ep_expo.txtStart time  3204 #Finish Time: 3219 GPU: 1 _ep: 952

434_ep_expo.txtStart time  3212 #Finish Time: 3227 GPU: 1 _ep: 1014

434_ep_expo.txtStart time  3212 #Finish Time: 3227 GPU: 1 _ep: 1014

435_ep_expo.txtStart time  3219 #Finish Time: 3234 GPU: 1 _ep: 1002

435_ep_expo.txtStart time  3219 #Finish Time: 3234 GPU: 1 _ep: 1002

436_ep_expo.txtStart time  3227 #Finish Time: 3242 GPU: 1 _ep: 1058

436_ep_expo.txtStart time  3227 #Finish Time: 3242 GPU: 1 _ep: 1058

437_ep_expo.txtStart time  3235 #Finish Time: 3249 GPU: 1 _ep: 958

437_ep_expo.txtStart time  3235 #Finish Time: 3249 GPU: 1 _ep: 958

438_ep_expo.txtStart time  3242 #Finish Time: 3256 GPU: 1 _ep: 974

438_ep_expo.txtStart time  3242 #Finish