37_ep_expo.txtStart time  4 #Finish Time: 53 GPU: 2 _ep: 939

33_ep_expo.txtStart time  4 #Finish Time: 53 GPU: 2 _ep: 924

243_ep_expo.txtStart time  6 #Finish Time: 60 GPU: 1 _ep: 999

22_ep_expo.txtStart time  2 #Finish Time: 60 GPU: 2 _ep: 982

241_ep_expo.txtStart time  4 #Finish Time: 34 GPU: 1 _ep: 975

376_ep_expo.txtStart time  14 #Finish Time: 33 GPU: 1 _ep: 937

32_ep_expo.txtStart time  4 #Finish Time: 59 GPU: 2 _ep: 983

367_ep_expo.txtStart time  12 #Finish Time: 63 GPU: 1 _ep: 983

2_ep_expo.txtStart time  2 #Finish Time: 35 GPU: 2 _ep: 963

14_ep_expo.txtStart time  2 #Finish Time: 60 GPU: 2 _ep: 998

361_ep_expo.txtStart time  10 #Finish Time: 59 GPU: 1 _ep: 1003

242_ep_expo.txtStart time  6 #Finish Time: 36 GPU: 1 _ep: 1016

240_ep_expo.txtStart time  4 #Finish Time: 41 GPU: 1 _ep: 1047

39_ep_expo.txtStart time  4 #Finish Time: 59 GPU: 2 _ep: 945

244_ep_expo.txtStart time  8 #Finish Time: 60 GPU: 1 _ep: 1023

11_ep_expo.txtStart time  2 #Finish Time: 60 GPU: 2 _ep: 980

1_ep_expo.txtStart time  2 #Finish Time: 60 GPU: 2 _ep: 978

0_ep_expo.txtStart time  2 #Finish Time: 40 GPU: 2 _ep: 993

3_ep_expo.txtStart time  2 #Finish Time: 35 GPU: 2 _ep: 1024

23_ep_expo.txtStart time  2 #Finish Time: 53 GPU: 2 _ep: 1042

15_ep_expo.txtStart time  2 #Finish Time: 56 GPU: 2 _ep: 954

4_ep_expo.txtStart time  2 #Finish Time: 60 GPU: 2 _ep: 964

24_ep_expo.txtStart time  2 #Finish Time: 60 GPU: 2 _ep: 982

28_ep_expo.txtStart time  2 #Finish Time: 60 GPU: 2 _ep: 1029

12_ep_expo.txtStart time  2 #Finish Time: 54 GPU: 2 _ep: 1001

5_ep_expo.txtStart time  2 #Finish Time: 58 GPU: 2 _ep: 975

6_ep_expo.txtStart time  2 #Finish Time: 60 GPU: 2 _ep: 986

21_ep_expo.txtStart time  2 #Finish Time: 60 GPU: 2 _ep: 1004

19_ep_expo.txtStart time  2 #Finish Time: 54 GPU: 2 _ep: 942

7_ep_expo.txtStart time  2 #Finish Time: 53 GPU: 2 _ep: 1034

36_ep_expo.txtStart time  4 #Finish Time: 59 GPU: 2 _ep: 951

9_ep_expo.txtStart time  2 #Finish Time: 39 GPU: 2 _ep: 997

17_ep_expo.txtStart time  2 #Finish Time: 60 GPU: 2 _ep: 1029

25_ep_expo.txtStart time  2 #Finish Time: 64 GPU: 2 _ep: 994

26_ep_expo.txtStart time  2 #Finish Time: 68 GPU: 2 _ep: 995

18_ep_expo.txtStart time  2 #Finish Time: 68 GPU: 2 _ep: 971

16_ep_expo.txtStart time  2 #Finish Time: 68 GPU: 2 _ep: 1035

366_ep_expo.txtStart time  12 #Finish Time: 68 GPU: 1 _ep: 979

20_ep_expo.txtStart time  2 #Finish Time: 68 GPU: 2 _ep: 1002

8_ep_expo.txtStart time  2 #Finish Time: 68 GPU: 2 _ep: 980

13_ep_expo.txtStart time  2 #Finish Time: 68 GPU: 2 _ep: 1039

27_ep_expo.txtStart time  2 #Finish Time: 68 GPU: 2 _ep: 1033

31_ep_expo.txtStart time  4 #Finish Time: 68 GPU: 2 _ep: 1003

38_ep_expo.txtStart time  4 #Finish Time: 68 GPU: 2 _ep: 1009

35_ep_expo.txtStart time  4 #Finish Time: 68 GPU: 2 _ep: 1029

246_ep_expo.txtStart time  8 #Finish Time: 69 GPU: 1 _ep: 953

245_ep_expo.txtStart time  8 #Finish Time: 69 GPU: 1 _ep: 1026

341_ep_expo.txtStart time  10 #Finish Time: 69 GPU: 1 _ep: 951

340_ep_expo.txtStart time  10 #Finish Time: 69 GPU: 1 _ep: 947

328_ep_expo.txtStart time  10 #Finish Time: 69 GPU: 1 _ep: 972

329_ep_expo.txtStart time  10 #Finish Time: 69 GPU: 1 _ep: 947

316_ep_expo.txtStart time  10 #Finish Time: 69 GPU: 1 _ep: 969

335_ep_expo.txtStart time  10 #Finish Time: 69 GPU: 1 _ep: 994

30_ep_expo.txtStart time  4 #Finish Time: 69 GPU: 2 _ep: 989

318_ep_expo.txtStart time  10 #Finish Time: 70 GPU: 1 _ep: 962

313_ep_expo.txtStart time  10 #Finish Time: 70 GPU: 1 _ep: 953

330_ep_expo.txtStart time  10 #Finish Time: 70 GPU: 1 _ep: 956

360_ep_expo.txtStart time  10 #Finish Time: 70 GPU: 1 _ep: 952

357_ep_expo.txtStart time  10 #Finish Time: 70 GPU: 1 _ep: 976

345_ep_expo.txtStart time  10 #Finish Time: 70 GPU: 1 _ep: 998

322_ep_expo.txtStart time  10 #Finish Time: 70 GPU: 1 _ep: 968

346_ep_expo.txtStart time  10 #Finish Time: 70 GPU: 1 _ep: 998

323_ep_expo.txtStart time  10 #Finish Time: 70 GPU: 1 _ep: 948

317_ep_expo.txtStart time  10 #Finish Time: 70 GPU: 1 _ep: 985

338_ep_expo.txtStart time  10 #Finish Time: 70 GPU: 1 _ep: 1005

339_ep_expo.txtStart time  10 #Finish Time: 70 GPU: 1 _ep: 990

363_ep_expo.txtStart time  10 #Finish Time: 70 GPU: 1 _ep: 995

344_ep_expo.txtStart time  10 #Finish Time: 70 GPU: 1 _ep: 1006

347_ep_expo.txtStart time  10 #Finish Time: 70 GPU: 1 _ep: 973

362_ep_expo.txtStart time  10 #Finish Time: 70 GPU: 1 _ep: 979

29_ep_expo.txtStart time  2 #Finish Time: 70 GPU: 2 _ep: 1072

10_ep_expo.txtStart time  2 #Finish Time: 70 GPU: 2 _ep: 1069

34_ep_expo.txtStart time  4 #Finish Time: 70 GPU: 2 _ep: 1035

355_ep_expo.txtStart time  10 #Finish Time: 71 GPU: 1 _ep: 1006

326_ep_expo.txtStart time  10 #Finish Time: 71 GPU: 1 _ep: 1008

337_ep_expo.txtStart time  10 #Finish Time: 71 GPU: 1 _ep: 997

354_ep_expo.txtStart time  10 #Finish Time: 71 GPU: 1 _ep: 998

312_ep_expo.txtStart time  10 #Finish Time: 71 GPU: 1 _ep: 1022

321_ep_expo.txtStart time  10 #Finish Time: 72 GPU: 1 _ep: 1004

45_ep_expo.txtStart time  4 #Finish Time: 73 GPU: 3 _ep: 1000

48_ep_expo.txtStart time  4 #Finish Time: 73 GPU: 3 _ep: 988

325_ep_expo.txtStart time  10 #Finish Time: 74 GPU: 1 _ep: 982

314_ep_expo.txtStart time  10 #Finish Time: 74 GPU: 1 _ep: 971

320_ep_expo.txtStart time  10 #Finish Time: 74 GPU: 1 _ep: 1016

342_ep_expo.txtStart time  10 #Finish Time: 74 GPU: 1 _ep: 1012

350_ep_expo.txtStart time  10 #Finish Time: 74 GPU: 1 _ep: 985

247_ep_expo.txtStart time  11 #Finish Time: 74 GPU: 1 _ep: 951

334_ep_expo.txtStart time  10 #Finish Time: 74 GPU: 1 _ep: 1034

324_ep_expo.txtStart time  10 #Finish Time: 74 GPU: 1 _ep: 1027

389_ep_expo.txtStart time  14 #Finish Time: 74 GPU: 1 _ep: 950

356_ep_expo.txtStart time  10 #Finish Time: 75 GPU: 1 _ep: 1003

327_ep_expo.txtStart time  10 #Finish Time: 75 GPU: 1 _ep: 996

336_ep_expo.txtStart time  10 #Finish Time: 75 GPU: 1 _ep: 1015

332_ep_expo.txtStart time  10 #Finish Time: 75 GPU: 1 _ep: 977

353_ep_expo.txtStart time  10 #Finish Time: 75 GPU: 1 _ep: 1022

319_ep_expo.txtStart time  10 #Finish Time: 75 GPU: 1 _ep: 1050

343_ep_expo.txtStart time  10 #Finish Time: 75 GPU: 1 _ep: 1032

315_ep_expo.txtStart time  10 #Finish Time: 75 GPU: 1 _ep: 1022

373_ep_expo.txtStart time  14 #Finish Time: 75 GPU: 1 _ep: 970

46_ep_expo.txtStart time  4 #Finish Time: 75 GPU: 3 _ep: 993

42_ep_expo.txtStart time  4 #Finish Time: 75 GPU: 3 _ep: 1012

44_ep_expo.txtStart time  4 #Finish Time: 75 GPU: 3 _ep: 992

349_ep_expo.txtStart time  10 #Finish Time: 76 GPU: 1 _ep: 1013

352_ep_expo.txtStart time  10 #Finish Time: 76 GPU: 1 _ep: 1017

348_ep_expo.txtStart time  10 #Finish Time: 76 GPU: 1 _ep: 1018

365_ep_expo.txtStart time  10 #Finish Time: 76 GPU: 1 _ep: 1036

351_ep_expo.txtStart time  10 #Finish Time: 76 GPU: 1 _ep: 1033

386_ep_expo.txtStart time  14 #Finish Time: 76 GPU: 1 _ep: 983

375_ep_expo.txtStart time  14 #Finish Time: 76 GPU: 1 _ep: 948

387_ep_expo.txtStart time  14 #Finish Time: 76 GPU: 1 _ep: 989

393_ep_expo.txtStart time  14 #Finish Time: 76 GPU: 1 _ep: 977

407_ep_expo.txtStart time  16 #Finish Time: 76 GPU: 1 _ep: 957

391_ep_expo.txtStart time  14 #Finish Time: 76 GPU: 1 _ep: 988

425_ep_expo.txtStart time  16 #Finish Time: 76 GPU: 1 _ep: 1004

50_ep_expo.txtStart time  4 #Finish Time: 76 GPU: 3 _ep: 989

41_ep_expo.txtStart time  4 #Finish Time: 76 GPU: 3 _ep: 983

358_ep_expo.txtStart time  10 #Finish Time: 77 GPU: 1 _ep: 1026

248_ep_expo.txtStart time  11 #Finish Time: 77 GPU: 1 _ep: 1032

409_ep_expo.txtStart time  16 #Finish Time: 77 GPU: 1 _ep: 921

47_ep_expo.txtStart time  4 #Finish Time: 77 GPU: 3 _ep: 994

331_ep_expo.txtStart time  10 #Finish Time: 78 GPU: 1 _ep: 1047

399_ep_expo.txtStart time  14 #Finish Time: 78 GPU: 1 _ep: 1006

43_ep_expo.txtStart time  4 #Finish Time: 79 GPU: 3 _ep: 1030

359_ep_expo.txtStart time  10 #Finish Time: 80 GPU: 1 _ep: 1053

372_ep_expo.txtStart time  14 #Finish Time: 80 GPU: 1 _ep: 972

406_ep_expo.txtStart time  16 #Finish Time: 80 GPU: 1 _ep: 928

383_ep_expo.txtStart time  14 #Finish Time: 80 GPU: 1 _ep: 975

410_ep_expo.txtStart time  16 #Finish Time: 80 GPU: 1 _ep: 979

408_ep_expo.txtStart time  16 #Finish Time: 80 GPU: 1 _ep: 985

452_ep_expo.txtStart time  18 #Finish Time: 80 GPU: 1 _ep: 941

59_ep_expo.txtStart time  6 #Finish Time: 80 GPU: 3 _ep: 955

379_ep_expo.txtStart time  14 #Finish Time: 81 GPU: 1 _ep: 983

385_ep_expo.txtStart time  14 #Finish Time: 81 GPU: 1 _ep: 991

369_ep_expo.txtStart time  14 #Finish Time: 81 GPU: 1 _ep: 977

378_ep_expo.txtStart time  14 #Finish Time: 81 GPU: 1 _ep: 1013

401_ep_expo.txtStart time  14 #Finish Time: 81 GPU: 1 _ep: 986

402_ep_expo.txtStart time  16 #Finish Time: 81 GPU: 1 _ep: 987

411_ep_expo.txtStart time  16 #Finish Time: 81 GPU: 1 _ep: 1014

423_ep_expo.txtStart time  16 #Finish Time: 81 GPU: 1 _ep: 1008

250_ep_expo.txtStart time  20 #Finish Time: 81 GPU: 1 _ep: 1005

49_ep_expo.txtStart time  4 #Finish Time: 81 GPU: 3 _ep: 1000

51_ep_expo.txtStart time  4 #Finish Time: 81 GPU: 3 _ep: 1004

40_ep_expo.txtStart time  4 #Finish Time: 81 GPU: 3 _ep: 1045

364_ep_expo.txtStart time  10 #Finish Time: 82 GPU: 1 _ep: 1039

395_ep_expo.txtStart time  14 #Finish Time: 82 GPU: 1 _ep: 986

374_ep_expo.txtStart time  14 #Finish Time: 82 GPU: 1 _ep: 1029

431_ep_expo.txtStart time  16 #Finish Time: 82 GPU: 1 _ep: 966

400_ep_expo.txtStart time  14 #Finish Time: 82 GPU: 1 _ep: 1013

396_ep_expo.txtStart time  14 #Finish Time: 82 GPU: 1 _ep: 1003

433_ep_expo.txtStart time  16 #Finish Time: 82 GPU: 1 _ep: 952

370_ep_expo.txtStart time  14 #Finish Time: 82 GPU: 1 _ep: 1022

429_ep_expo.txtStart time  16 #Finish Time: 82 GPU: 1 _ep: 973

420_ep_expo.txtStart time  16 #Finish Time: 82 GPU: 1 _ep: 1005

438_ep_expo.txtStart time  18 #Finish Time: 82 GPU: 1 _ep: 974

414_ep_expo.txtStart time  16 #Finish Time: 82 GPU: 1 _ep: 1024

300_ep_expo.txtStart time  22 #Finish Time: 82 GPU: 1 _ep: 938

333_ep_expo.txtStart time  10 #Finish Time: 83 GPU: 1 _ep: 1058

377_ep_expo.txtStart time  14 #Finish Time: 83 GPU: 1 _ep: 1013

368_ep_expo.txtStart time  14 #Finish Time: 83 GPU: 1 _ep: 1015

381_ep_expo.txtStart time  14 #Finish Time: 83 GPU: 1 _ep: 1005

380_ep_expo.txtStart time  14 #Finish Time: 83 GPU: 1 _ep: 1001

398_ep_expo.txtStart time  14 #Finish Time: 83 GPU: 1 _ep: 1045

371_ep_expo.txtStart time  14 #Finish Time: 83 GPU: 1 _ep: 1023

417_ep_expo.txtStart time  16 #Finish Time: 83 GPU: 1 _ep: 991

413_ep_expo.txtStart time  16 #Finish Time: 83 GPU: 1 _ep: 967

434_ep_expo.txtStart time  16 #Finish Time: 83 GPU: 1 _ep: 1014

466_ep_expo.txtStart time  18 #Finish Time: 83 GPU: 1 _ep: 999

426_ep_expo.txtStart time  16 #Finish Time: 83 GPU: 1 _ep: 988

405_ep_expo.txtStart time  16 #Finish Time: 84 GPU: 1 _ep: 1028

288_ep_expo.txtStart time  22 #Finish Time: 84 GPU: 1 _ep: 951

382_ep_expo.txtStart time  14 #Finish Time: 85 GPU: 1 _ep: 1031

421_ep_expo.txtStart time  16 #Finish Time: 85 GPU: 1 _ep: 994

457_ep_expo.txtStart time  18 #Finish Time: 85 GPU: 1 _ep: 946

52_ep_expo.txtStart time  6 #Finish Time: 85 GPU: 3 _ep: 962

415_ep_expo.txtStart time  16 #Finish Time: 86 GPU: 1 _ep: 941

430_ep_expo.txtStart time  16 #Finish Time: 86 GPU: 1 _ep: 995

428_ep_expo.txtStart time  16 #Finish Time: 86 GPU: 1 _ep: 997

412_ep_expo.txtStart time  16 #Finish Time: 86 GPU: 1 _ep: 998

419_ep_expo.txtStart time  16 #Finish Time: 86 GPU: 1 _ep: 997

445_ep_expo.txtStart time  18 #Finish Time: 86 GPU: 1 _ep: 1004

53_ep_expo.txtStart time  6 #Finish Time: 86 GPU: 3 _ep: 988

392_ep_expo.txtStart time  14 #Finish Time: 87 GPU: 1 _ep: 1040

390_ep_expo.txtStart time  14 #Finish Time: 87 GPU: 1 _ep: 1041

469_ep_expo.txtStart time  18 #Finish Time: 87 GPU: 1 _ep: 956

463_ep_expo.txtStart time  18 #Finish Time: 87 GPU: 1 _ep: 970

453_ep_expo.txtStart time  18 #Finish Time: 87 GPU: 1 _ep: 1009

450_ep_expo.txtStart time  18 #Finish Time: 87 GPU: 1 _ep: 1015

435_ep_expo.txtStart time  16 #Finish Time: 87 GPU: 1 _ep: 1002

479_ep_expo.txtStart time  18 #Finish Time: 87 GPU: 1 _ep: 951

437_ep_expo.txtStart time  18 #Finish Time: 87 GPU: 1 _ep: 958

249_ep_expo.txtStart time  18 #Finish Time: 87 GPU: 1 _ep: 1017

55_ep_expo.txtStart time  6 #Finish Time: 87 GPU: 3 _ep: 1007

388_ep_expo.txtStart time  14 #Finish Time: 88 GPU: 1 _ep: 1005

384_ep_expo.txtStart time  14 #Finish Time: 88 GPU: 1 _ep: 1055

436_ep_expo.txtStart time  16 #Finish Time: 88 GPU: 1 _ep: 1058

404_ep_expo.txtStart time  16 #Finish Time: 88 GPU: 1 _ep: 1055

473_ep_expo.txtStart time  18 #Finish Time: 88 GPU: 1 _ep: 994

427_ep_expo.txtStart time  16 #Finish Time: 88 GPU: 1 _ep: 1017

465_ep_expo.txtStart time  18 #Finish Time: 88 GPU: 1 _ep: 972

468_ep_expo.txtStart time  18 #Finish Time: 88 GPU: 1 _ep: 977

422_ep_expo.txtStart time  16 #Finish Time: 88 GPU: 1 _ep: 1016

470_ep_expo.txtStart time  18 #Finish Time: 88 GPU: 1 _ep: 981

418_ep_expo.txtStart time  16 #Finish Time: 88 GPU: 1 _ep: 1020

446_ep_expo.txtStart time  18 #Finish Time: 88 GPU: 1 _ep: 1020

439_ep_expo.txtStart time  18 #Finish Time: 88 GPU: 1 _ep: 994

440_ep_expo.txtStart time  18 #Finish Time: 88 GPU: 1 _ep: 982

474_ep_expo.txtStart time  18 #Finish Time: 88 GPU: 1 _ep: 980

441_ep_expo.txtStart time  18 #Finish Time: 88 GPU: 1 _ep: 989

54_ep_expo.txtStart time  6 #Finish Time: 88 GPU: 3 _ep: 1016

56_ep_expo.txtStart time  6 #Finish Time: 88 GPU: 3 _ep: 1002

394_ep_expo.txtStart time  14 #Finish Time: 89 GPU: 1 _ep: 1017

451_ep_expo.txtStart time  18 #Finish Time: 89 GPU: 1 _ep: 995

467_ep_expo.txtStart time  18 #Finish Time: 89 GPU: 1 _ep: 1000

442_ep_expo.txtStart time  18 #Finish Time: 89 GPU: 1 _ep: 1040

449_ep_expo.txtStart time  18 #Finish Time: 89 GPU: 1 _ep: 1002

432_ep_expo.txtStart time  16 #Finish Time: 90 GPU: 1 _ep: 1050

397_ep_expo.txtStart time  14 #Finish Time: 90 GPU: 1 _ep: 1095

478_ep_expo.txtStart time  18 #Finish Time: 90 GPU: 1 _ep: 1006

472_ep_expo.txtStart time  18 #Finish Time: 90 GPU: 1 _ep: 1007

444_ep_expo.txtStart time  18 #Finish Time: 91 GPU: 1 _ep: 1022

476_ep_expo.txtStart time  18 #Finish Time: 91 GPU: 1 _ep: 1015

253_ep_expo.txtStart time  23 #Finish Time: 91 GPU: 1 _ep: 996

424_ep_expo.txtStart time  16 #Finish Time: 92 GPU: 1 _ep: 1064

471_ep_expo.txtStart time  18 #Finish Time: 92 GPU: 1 _ep: 1009

454_ep_expo.txtStart time  18 #Finish Time: 92 GPU: 1 _ep: 1014

477_ep_expo.txtStart time  18 #Finish Time: 92 GPU: 1 _ep: 1017

251_ep_expo.txtStart time  20 #Finish Time: 92 GPU: 1 _ep: 1032

292_ep_expo.txtStart time  22 #Finish Time: 92 GPU: 1 _ep: 965

403_ep_expo.txtStart time  16 #Finish Time: 93 GPU: 1 _ep: 1016

416_ep_expo.txtStart time  16 #Finish Time: 93 GPU: 1 _ep: 1019

458_ep_expo.txtStart time  18 #Finish Time: 93 GPU: 1 _ep: 1019

459_ep_expo.txtStart time  18 #Finish Time: 93 GPU: 1 _ep: 1020

456_ep_expo.txtStart time  18 #Finish Time: 93 GPU: 1 _ep: 1021

448_ep_expo.txtStart time  18 #Finish Time: 93 GPU: 1 _ep: 1016

460_ep_expo.txtStart time  18 #Finish Time: 93 GPU: 1 _ep: 980

308_ep_expo.txtStart time  22 #Finish Time: 93 GPU: 1 _ep: 973

283_ep_expo.txtStart time  22 #Finish Time: 93 GPU: 1 _ep: 978

286_ep_expo.txtStart time  22 #Finish Time: 93 GPU: 1 _ep: 980

287_ep_expo.txtStart time  22 #Finish Time: 93 GPU: 1 _ep: 967

303_ep_expo.txtStart time  22 #Finish Time: 93 GPU: 1 _ep: 996

254_ep_expo.txtStart time  23 #Finish Time: 93 GPU: 1 _ep: 1010

462_ep_expo.txtStart time  18 #Finish Time: 94 GPU: 1 _ep: 1026

455_ep_expo.txtStart time  18 #Finish Time: 94 GPU: 1 _ep: 1053

443_ep_expo.txtStart time  18 #Finish Time: 94 GPU: 1 _ep: 1055

311_ep_expo.txtStart time  22 #Finish Time: 94 GPU: 1 _ep: 922

447_ep_expo.txtStart time  18 #Finish Time: 94 GPU: 1 _ep: 1025

475_ep_expo.txtStart time  18 #Finish Time: 94 GPU: 1 _ep: 1042

305_ep_expo.txtStart time  22 #Finish Time: 94 GPU: 1 _ep: 1007

461_ep_expo.txtStart time  18 #Finish Time: 94 GPU: 1 _ep: 1109

291_ep_expo.txtStart time  22 #Finish Time: 94 GPU: 1 _ep: 1000

285_ep_expo.txtStart time  22 #Finish Time: 94 GPU: 1 _ep: 1007

301_ep_expo.txtStart time  22 #Finish Time: 94 GPU: 1 _ep: 1007

257_ep_expo.txtStart time  28 #Finish Time: 94 GPU: 1 _ep: 958

58_ep_expo.txtStart time  6 #Finish Time: 94 GPU: 3 _ep: 1017

62_ep_expo.txtStart time  6 #Finish Time: 94 GPU: 4 _ep: 973

464_ep_expo.txtStart time  18 #Finish Time: 95 GPU: 1 _ep: 1068

307_ep_expo.txtStart time  22 #Finish Time: 95 GPU: 1 _ep: 1016

295_ep_expo.txtStart time  22 #Finish Time: 95 GPU: 1 _ep: 1019

299_ep_expo.txtStart time  22 #Finish Time: 95 GPU: 1 _ep: 1023

280_ep_expo.txtStart time  22 #Finish Time: 95 GPU: 1 _ep: 998

297_ep_expo.txtStart time  22 #Finish Time: 95 GPU: 1 _ep: 1026

289_ep_expo.txtStart time  22 #Finish Time: 95 GPU: 1 _ep: 1000

255_ep_expo.txtStart time  26 #Finish Time: 95 GPU: 1 _ep: 939

294_ep_expo.txtStart time  22 #Finish Time: 95 GPU: 1 _ep: 1010

296_ep_expo.txtStart time  22 #Finish Time: 95 GPU: 1 _ep: 1009

293_ep_expo.txtStart time  22 #Finish Time: 95 GPU: 1 _ep: 1017

309_ep_expo.txtStart time  22 #Finish Time: 95 GPU: 1 _ep: 1017

282_ep_expo.txtStart time  22 #Finish Time: 95 GPU: 1 _ep: 1018

252_ep_expo.txtStart time  20 #Finish Time: 96 GPU: 1 _ep: 1037

281_ep_expo.txtStart time  22 #Finish Time: 96 GPU: 1 _ep: 1038

57_ep_expo.txtStart time  6 #Finish Time: 96 GPU: 3 _ep: 1051

63_ep_expo.txtStart time  6 #Finish Time: 96 GPU: 4 _ep: 1020

258_ep_expo.txtStart time  28 #Finish Time: 97 GPU: 1 _ep: 956

61_ep_expo.txtStart time  6 #Finish Time: 97 GPU: 4 _ep: 976

259_ep_expo.txtStart time  28 #Finish Time: 99 GPU: 1 _ep: 978

277_ep_expo.txtStart time  30 #Finish Time: 99 GPU: 1 _ep: 994

66_ep_expo.txtStart time  6 #Finish Time: 99 GPU: 4 _ep: 999

60_ep_expo.txtStart time  6 #Finish Time: 99 GPU: 4 _ep: 1023

306_ep_expo.txtStart time  22 #Finish Time: 100 GPU: 1 _ep: 967

284_ep_expo.txtStart time  22 #Finish Time: 100 GPU: 1 _ep: 1053

290_ep_expo.txtStart time  22 #Finish Time: 100 GPU: 1 _ep: 1014

310_ep_expo.txtStart time  22 #Finish Time: 100 GPU: 1 _ep: 1050

304_ep_expo.txtStart time  22 #Finish Time: 100 GPU: 1 _ep: 997

274_ep_expo.txtStart time  30 #Finish Time: 100 GPU: 1 _ep: 1011

64_ep_expo.txtStart time  6 #Finish Time: 100 GPU: 4 _ep: 1025

85_ep_expo.txtStart time  9 #Finish Time: 100 GPU: 4 _ep: 966

298_ep_expo.txtStart time  22 #Finish Time: 101 GPU: 1 _ep: 998

302_ep_expo.txtStart time  22 #Finish Time: 101 GPU: 1 _ep: 1012

263_ep_expo.txtStart time  30 #Finish Time: 101 GPU: 1 _ep: 943

262_ep_expo.txtStart time  30 #Finish Time: 101 GPU: 1 _ep: 966

256_ep_expo.txtStart time  26 #Finish Time: 101 GPU: 1 _ep: 1038

269_ep_expo.txtStart time  30 #Finish Time: 101 GPU: 1 _ep: 1035

67_ep_expo.txtStart time  6 #Finish Time: 101 GPU: 4 _ep: 996

275_ep_expo.txtStart time  30 #Finish Time: 102 GPU: 1 _ep: 974

65_ep_expo.txtStart time  6 #Finish Time: 102 GPU: 4 _ep: 1022

94_ep_expo.txtStart time  9 #Finish Time: 102 GPU: 4 _ep: 954

86_ep_expo.txtStart time  9 #Finish Time: 102 GPU: 4 _ep: 953

261_ep_expo.txtStart time  31 #Finish Time: 103 GPU: 1 _ep: 987

265_ep_expo.txtStart time  30 #Finish Time: 103 GPU: 1 _ep: 979

80_ep_expo.txtStart time  8 #Finish Time: 103 GPU: 4 _ep: 987

276_ep_expo.txtStart time  30 #Finish Time: 104 GPU: 1 _ep: 1002

279_ep_expo.txtStart time  30 #Finish Time: 104 GPU: 1 _ep: 1003

264_ep_expo.txtStart time  30 #Finish Time: 104 GPU: 1 _ep: 1020

270_ep_expo.txtStart time  30 #Finish Time: 104 GPU: 1 _ep: 996

268_ep_expo.txtStart time  30 #Finish Time: 105 GPU: 1 _ep: 1006

271_ep_expo.txtStart time  30 #Finish Time: 105 GPU: 1 _ep: 1016

68_ep_expo.txtStart time  8 #Finish Time: 105 GPU: 4 _ep: 988

77_ep_expo.txtStart time  8 #Finish Time: 105 GPU: 4 _ep: 990

272_ep_expo.txtStart time  30 #Finish Time: 106 GPU: 1 _ep: 1020

260_ep_expo.txtStart time  31 #Finish Time: 106 GPU: 1 _ep: 1027

70_ep_expo.txtStart time  8 #Finish Time: 106 GPU: 4 _ep: 954

89_ep_expo.txtStart time  9 #Finish Time: 106 GPU: 4 _ep: 961

76_ep_expo.txtStart time  8 #Finish Time: 106 GPU: 4 _ep: 1004

266_ep_expo.txtStart time  30 #Finish Time: 107 GPU: 1 _ep: 1032

278_ep_expo.txtStart time  30 #Finish Time: 107 GPU: 1 _ep: 1030

81_ep_expo.txtStart time  8 #Finish Time: 107 GPU: 4 _ep: 969

72_ep_expo.txtStart time  8 #Finish Time: 107 GPU: 4 _ep: 1001

273_ep_expo.txtStart time  30 #Finish Time: 108 GPU: 1 _ep: 1041

267_ep_expo.txtStart time  30 #Finish Time: 108 GPU: 1 _ep: 1040

79_ep_expo.txtStart time  8 #Finish Time: 108 GPU: 4 _ep: 982

82_ep_expo.txtStart time  9 #Finish Time: 108 GPU: 4 _ep: 971

75_ep_expo.txtStart time  8 #Finish Time: 109 GPU: 4 _ep: 1012

95_ep_expo.txtStart time  9 #Finish Time: 110 GPU: 4 _ep: 958

73_ep_expo.txtStart time  8 #Finish Time: 110 GPU: 4 _ep: 960

71_ep_expo.txtStart time  8 #Finish Time: 110 GPU: 4 _ep: 1039

90_ep_expo.txtStart time  9 #Finish Time: 110 GPU: 4 _ep: 1015

84_ep_expo.txtStart time  9 #Finish Time: 112 GPU: 4 _ep: 998

78_ep_expo.txtStart time  8 #Finish Time: 112 GPU: 4 _ep: 1024

74_ep_expo.txtStart time  8 #Finish Time: 113 GPU: 4 _ep: 1054

93_ep_expo.txtStart time  9 #Finish Time: 113 GPU: 4 _ep: 992

87_ep_expo.txtStart time  9 #Finish Time: 113 GPU: 4 _ep: 1083

91_ep_expo.txtStart time  9 #Finish Time: 114 GPU: 4 _ep: 978

88_ep_expo.txtStart time  9 #Finish Time: 114 GPU: 4 _ep: 996

104_ep_expo.txtStart time  11 #Finish Time: 114 GPU: 4 _ep: 981

83_ep_expo.txtStart time  9 #Finish Time: 115 GPU: 4 _ep: 995

92_ep_expo.txtStart time  9 #Finish Time: 115 GPU: 4 _ep: 1034

107_ep_expo.txtStart time  11 #Finish Time: 115 GPU: 4 _ep: 982

111_ep_expo.txtStart time  12 #Finish Time: 116 GPU: 4 _ep: 965

106_ep_expo.txtStart time  11 #Finish Time: 116 GPU: 4 _ep: 1012

102_ep_expo.txtStart time  11 #Finish Time: 118 GPU: 4 _ep: 1013

69_ep_expo.txtStart time  8 #Finish Time: 119 GPU: 4 _ep: 1050

97_ep_expo.txtStart time  11 #Finish Time: 119 GPU: 4 _ep: 979

105_ep_expo.txtStart time  11 #Finish Time: 119 GPU: 4 _ep: 977

100_ep_expo.txtStart time  11 #Finish Time: 119 GPU: 4 _ep: 1009

108_ep_expo.txtStart time  11 #Finish Time: 119 GPU: 4 _ep: 1016

99_ep_expo.txtStart time  11 #Finish Time: 120 GPU: 4 _ep: 975

101_ep_expo.txtStart time  11 #Finish Time: 121 GPU: 4 _ep: 996

109_ep_expo.txtStart time  11 #Finish Time: 121 GPU: 4 _ep: 1010

103_ep_expo.txtStart time  11 #Finish Time: 121 GPU: 4 _ep: 1021

113_ep_expo.txtStart time  12 #Finish Time: 122 GPU: 4 _ep: 1022

96_ep_expo.txtStart time  11 #Finish Time: 122 GPU: 4 _ep: 1033

110_ep_expo.txtStart time  12 #Finish Time: 123 GPU: 4 _ep: 1012

118_ep_expo.txtStart time  12 #Finish Time: 123 GPU: 4 _ep: 1018

112_ep_expo.txtStart time  12 #Finish Time: 124 GPU: 4 _ep: 1032

119_ep_expo.txtStart time  12 #Finish Time: 125 GPU: 4 _ep: 997

98_ep_expo.txtStart time  11 #Finish Time: 126 GPU: 4 _ep: 987

117_ep_expo.txtStart time  12 #Finish Time: 126 GPU: 4 _ep: 1032

114_ep_expo.txtStart time  12 #Finish Time: 126 GPU: 4 _ep: 1051

116_ep_expo.txtStart time  12 #Finish Time: 126 GPU: 4 _ep: 1035

115_ep_expo.txtStart time  12 #Finish Time: 127 GPU: 4 _ep: 1049

125_ep_expo.txtStart time  13 #Finish Time: 128 GPU: 8 _ep: 991

121_ep_expo.txtStart time  12 #Finish Time: 129 GPU: 8 _ep: 1017

128_ep_expo.txtStart time  13 #Finish Time: 131 GPU: 8 _ep: 989

124_ep_expo.txtStart time  13 #Finish Time: 131 GPU: 8 _ep: 964

120_ep_expo.txtStart time  12 #Finish Time: 132 GPU: 8 _ep: 1020

133_ep_expo.txtStart time  15 #Finish Time: 133 GPU: 8 _ep: 935

126_ep_expo.txtStart time  13 #Finish Time: 133 GPU: 8 _ep: 1022

122_ep_expo.txtStart time  13 #Finish Time: 134 GPU: 8 _ep: 982

127_ep_expo.txtStart time  13 #Finish Time: 135 GPU: 8 _ep: 925

135_ep_expo.txtStart time  15 #Finish Time: 135 GPU: 8 _ep: 982

123_ep_expo.txtStart time  13 #Finish Time: 137 GPU: 8 _ep: 1015

130_ep_expo.txtStart time  15 #Finish Time: 138 GPU: 8 _ep: 1012

131_ep_expo.txtStart time  15 #Finish Time: 141 GPU: 8 _ep: 992

129_ep_expo.txtStart time  15 #Finish Time: 141 GPU: 8 _ep: 1043

140_ep_expo.txtStart time  17 #Finish Time: 142 GPU: 8 _ep: 1011

134_ep_expo.txtStart time  15 #Finish Time: 143 GPU: 8 _ep: 1010

132_ep_expo.txtStart time  15 #Finish Time: 143 GPU: 8 _ep: 1015

136_ep_expo.txtStart time  17 #Finish Time: 147 GPU: 8 _ep: 1007

137_ep_expo.txtStart time  17 #Finish Time: 148 GPU: 8 _ep: 980

138_ep_expo.txtStart time  17 #Finish Time: 148 GPU: 8 _ep: 985

147_ep_expo.txtStart time  19 #Finish Time: 148 GPU: 8 _ep: 949

146_ep_expo.txtStart time  19 #Finish Time: 150 GPU: 8 _ep: 975

139_ep_expo.txtStart time  17 #Finish Time: 150 GPU: 8 _ep: 1042

141_ep_expo.txtStart time  17 #Finish Time: 151 GPU: 8 _ep: 1009

158_ep_expo.txtStart time  21 #Finish Time: 151 GPU: 8 _ep: 972

150_ep_expo.txtStart time  20 #Finish Time: 153 GPU: 8 _ep: 984

144_ep_expo.txtStart time  19 #Finish Time: 154 GPU: 8 _ep: 1004

156_ep_expo.txtStart time  20 #Finish Time: 154 GPU: 8 _ep: 1026

143_ep_expo.txtStart time  19 #Finish Time: 156 GPU: 8 _ep: 956

155_ep_expo.txtStart time  20 #Finish Time: 157 GPU: 8 _ep: 966

157_ep_expo.txtStart time  21 #Finish Time: 157 GPU: 8 _ep: 977

149_ep_expo.txtStart time  19 #Finish Time: 160 GPU: 8 _ep: 978

161_ep_expo.txtStart time  21 #Finish Time: 161 GPU: 8 _ep: 991

148_ep_expo.txtStart time  19 #Finish Time: 164 GPU: 8 _ep: 1001

170_ep_expo.txtStart time  23 #Finish Time: 164 GPU: 8 _ep: 999

159_ep_expo.txtStart time  21 #Finish Time: 164 GPU: 8 _ep: 1011

151_ep_expo.txtStart time  20 #Finish Time: 165 GPU: 8 _ep: 1001

142_ep_expo.txtStart time  17 #Finish Time: 170 GPU: 8 _ep: 1029

154_ep_expo.txtStart time  20 #Finish Time: 171 GPU: 8 _ep: 1031

167_ep_expo.txtStart time  23 #Finish Time: 171 GPU: 8 _ep: 972

165_ep_expo.txtStart time  23 #Finish Time: 172 GPU: 8 _ep: 976

152_ep_expo.txtStart time  20 #Finish Time: 172 GPU: 8 _ep: 1034

173_ep_expo.txtStart time  24 #Finish Time: 172 GPU: 8 _ep: 990

162_ep_expo.txtStart time  21 #Finish Time: 173 GPU: 8 _ep: 1041

164_ep_expo.txtStart time  23 #Finish Time: 174 GPU: 8 _ep: 986

163_ep_expo.txtStart time  21 #Finish Time: 174 GPU: 8 _ep: 1031

153_ep_expo.txtStart time  20 #Finish Time: 175 GPU: 8 _ep: 1038

160_ep_expo.txtStart time  21 #Finish Time: 175 GPU: 8 _ep: 1029

166_ep_expo.txtStart time  23 #Finish Time: 176 GPU: 8 _ep: 1014

174_ep_expo.txtStart time  24 #Finish Time: 176 GPU: 8 _ep: 1025

145_ep_expo.txtStart time  19 #Finish Time: 178 GPU: 8 _ep: 1052

171_ep_expo.txtStart time  24 #Finish Time: 179 GPU: 8 _ep: 943

175_ep_expo.txtStart time  24 #Finish Time: 180 GPU: 8 _ep: 952

179_ep_expo.txtStart time  26 #Finish Time: 181 GPU: 8 _ep: 996

182_ep_expo.txtStart time  26 #Finish Time: 181 GPU: 8 _ep: 978

177_ep_expo.txtStart time  24 #Finish Time: 182 GPU: 8 _ep: 986

180_ep_expo.txtStart time  26 #Finish Time: 185 GPU: 8 _ep: 993

172_ep_expo.txtStart time  24 #Finish Time: 187 GPU: 8 _ep: 1007

169_ep_expo.txtStart time  23 #Finish Time: 188 GPU: 8 _ep: 1001

185_ep_expo.txtStart time  28 #Finish Time: 190 GPU: 8 _ep: 1000

178_ep_expo.txtStart time  26 #Finish Time: 190 GPU: 8 _ep: 1001

181_ep_expo.txtStart time  26 #Finish Time: 191 GPU: 8 _ep: 984

168_ep_expo.txtStart time  23 #Finish Time: 192 GPU: 8 _ep: 1032

184_ep_expo.txtStart time  26 #Finish Time: 192 GPU: 8 _ep: 992

176_ep_expo.txtStart time  24 #Finish Time: 193 GPU: 8 _ep: 1036

187_ep_expo.txtStart time  28 #Finish Time: 193 GPU: 8 _ep: 956

194_ep_expo.txtStart time  29 #Finish Time: 194 GPU: 8 _ep: 970

189_ep_expo.txtStart time  28 #Finish Time: 194 GPU: 8 _ep: 1009

190_ep_expo.txtStart time  28 #Finish Time: 196 GPU: 8 _ep: 1012

183_ep_expo.txtStart time  26 #Finish Time: 196 GPU: 8 _ep: 1043

191_ep_expo.txtStart time  28 #Finish Time: 197 GPU: 8 _ep: 1022

198_ep_expo.txtStart time  29 #Finish Time: 198 GPU: 8 _ep: 1030

197_ep_expo.txtStart time  29 #Finish Time: 199 GPU: 8 _ep: 945

203_ep_expo.txtStart time  31 #Finish Time: 200 GPU: 8 _ep: 955

209_ep_expo.txtStart time  33 #Finish Time: 200 GPU: 8 _ep: 959

186_ep_expo.txtStart time  28 #Finish Time: 203 GPU: 8 _ep: 972

188_ep_expo.txtStart time  28 #Finish Time: 203 GPU: 8 _ep: 979

199_ep_expo.txtStart time  31 #Finish Time: 203 GPU: 8 _ep: 974

196_ep_expo.txtStart time  29 #Finish Time: 204 GPU: 8 _ep: 981

205_ep_expo.txtStart time  31 #Finish Time: 205 GPU: 8 _ep: 990

202_ep_expo.txtStart time  31 #Finish Time: 207 GPU: 8 _ep: 999

192_ep_expo.txtStart time  29 #Finish Time: 210 GPU: 8 _ep: 1000

200_ep_expo.txtStart time  31 #Finish Time: 210 GPU: 8 _ep: 1000

204_ep_expo.txtStart time  31 #Finish Time: 210 GPU: 8 _ep: 1006

195_ep_expo.txtStart time  29 #Finish Time: 211 GPU: 8 _ep: 1007

201_ep_expo.txtStart time  31 #Finish Time: 212 GPU: 8 _ep: 1021

207_ep_expo.txtStart time  33 #Finish Time: 214 GPU: 8 _ep: 1024

193_ep_expo.txtStart time  29 #Finish Time: 216 GPU: 8 _ep: 1034

208_ep_expo.txtStart time  33 #Finish Time: 217 GPU: 8 _ep: 1036

206_ep_expo.txtStart time  33 #Finish Time: 217 GPU: 8 _ep: 1040

213_ep_expo.txtStart time  34 #Finish Time: 226 GPU: 16 _ep: 1001

219_ep_expo.txtStart time  36 #Finish Time: 227 GPU: 16 _ep: 984

210_ep_expo.txtStart time  33 #Finish Time: 227 GPU: 16 _ep: 1016

215_ep_expo.txtStart time  35 #Finish Time: 230 GPU: 16 _ep: 992

221_ep_expo.txtStart time  37 #Finish Time: 231 GPU: 16 _ep: 976

220_ep_expo.txtStart time  37 #Finish Time: 234 GPU: 16 _ep: 1006

226_ep_expo.txtStart time  40 #Finish Time: 237 GPU: 16 _ep: 964

222_ep_expo.txtStart time  37 #Finish Time: 238 GPU: 16 _ep: 1015

224_ep_expo.txtStart time  39 #Finish Time: 244 GPU: 16 _ep: 949

212_ep_expo.txtStart time  34 #Finish Time: 244 GPU: 16 _ep: 954

230_ep_expo.txtStart time  43 #Finish Time: 245 GPU: 16 _ep: 949

211_ep_expo.txtStart time  34 #Finish Time: 251 GPU: 16 _ep: 981

217_ep_expo.txtStart time  36 #Finish Time: 252 GPU: 16 _ep: 968

225_ep_expo.txtStart time  39 #Finish Time: 256 GPU: 16 _ep: 969

216_ep_expo.txtStart time  35 #Finish Time: 259 GPU: 16 _ep: 990

214_ep_expo.txtStart time  35 #Finish Time: 260 GPU: 16 _ep: 991

223_ep_expo.txtStart time  39 #Finish Time: 266 GPU: 16 _ep: 1004

227_ep_expo.txtStart time  40 #Finish Time: 268 GPU: 16 _ep: 1012

229_ep_expo.txtStart time  43 #Finish Time: 269 GPU: 16 _ep: 1013

218_ep_expo.txtStart time  36 #Finish Time: 276 GPU: 16 _ep: 1022

232_ep_expo.txtStart time  45 #Finish Time: 282 GPU: 16 _ep: 1003

233_ep_expo.txtStart time  45 #Finish Time: 283 GPU: 16 _ep: 1019

231_ep_expo.txtStart time  44 #Finish Time: 284 GPU: 16 _ep: 1041

228_ep_expo.txtStart time  40 #Finish Time: 284 GPU: 16 _ep: 1056

234_ep_expo.txtStart time  46 #Finish Time: 296 GPU: 16 _ep: 1005

239_ep_expo.txtStart time  55 #Finish Time: 296 GPU: 32 _ep: 980

236_ep_expo.txtStart time  52 #Finish Time: 302 GPU: 32 _ep: 914

238_ep_expo.txtStart time  54 #Finish Time: 308 GPU: 32 _ep: 977

237_ep_expo.txtStart time  53 #Finish Time: 314 GPU: 32 _ep: 1025

235_ep_expo.txtStart time  50 #Finish Time: 320 GPU: 32 _ep: 1028

