0----------------------10
0----------------------10
1----------------------16
1----------------------23
2----------------------23
2----------------------23
3----------------------30
3----------------------30
4----------------------37
4----------------------37
5----------------------44
5----------------------44
6----------------------51
6----------------------51
7----------------------59
7----------------------59
8----------------------66
8----------------------66
9----------------------74
9----------------------74
10----------------------82
10----------------------82
11----------------------89
11----------------------89
12----------------------97
12----------------------97
13----------------------105
13----------------------105
14----------------------113
14----------------------113
15----------------------120
15----------------------120
16----------------------128
16----------------------128
17----------------------136
17----------------------137
18----------------------143
18----------------------143
19----------------------150
19----------------------150
20----------------------158
20----------------------158
21----------------------166
21----------------------166
22----------------------173
22----------------------173
23----------------------181
23----------------------181
24----------------------188
24----------------------188
25----------------------196
25----------------------196
26----------------------203
26----------------------203
27----------------------211
27----------------------211
28----------------------219
28----------------------219
29----------------------227
29----------------------227
30----------------------235
30----------------------235
31----------------------242
31----------------------242
32----------------------249
32----------------------249
33----------------------256
33----------------------256
34----------------------264
34----------------------264
35----------------------271
35----------------------271
36----------------------278
36----------------------278
37----------------------285
37----------------------285
38----------------------292
38----------------------292
39----------------------299
39----------------------299
40----------------------307
40----------------------307
41----------------------315
41----------------------315
42----------------------322
42----------------------322
43----------------------330
43----------------------330
44----------------------338
44----------------------338
45----------------------345
45----------------------345
46----------------------352
46----------------------352
47----------------------360
47----------------------360
48----------------------367
48----------------------367
49----------------------374
49----------------------374
50----------------------381
50----------------------381
51----------------------389
51----------------------389
240----------------------397
240----------------------397
241----------------------404
241----------------------404
52----------------------411
52----------------------411
53----------------------418
53----------------------418
54----------------------425
54----------------------425
55----------------------432
55----------------------432
56----------------------439
56----------------------439
57----------------------447
57----------------------447
58----------------------455
58----------------------455
59----------------------462
59----------------------462
60----------------------470
60----------------------470
61----------------------477
61----------------------477
62----------------------484
62----------------------484
63----------------------491
63----------------------492
64----------------------499
64----------------------499
65----------------------507
65----------------------507
66----------------------514
66----------------------514
67----------------------522
67----------------------522
242----------------------530
242----------------------530
243----------------------538
243----------------------543
244----------------------545
244----------------------545
68----------------------552
68----------------------552
69----------------------560
69----------------------560
70----------------------567
70----------------------567
71----------------------575
71----------------------575
72----------------------583
72----------------------583
73----------------------590
73----------------------590
74----------------------598
74----------------------598
75----------------------606
75----------------------606
76----------------------614
76----------------------614
77----------------------621
77----------------------621
78----------------------629
78----------------------629
79----------------------636
79----------------------636
80----------------------644
80----------------------644
81----------------------651
81----------------------651
245----------------------659
245----------------------659
246----------------------666
246----------------------666
82----------------------673
82----------------------673
83----------------------680
83----------------------680
84----------------------687
84----------------------687
85----------------------694
85----------------------694
86----------------------701
86----------------------701
87----------------------709
87----------------------709
88----------------------717
88----------------------717
89----------------------724
89----------------------724
90----------------------731
90----------------------731
91----------------------738
91----------------------738
92----------------------746
92----------------------746
93----------------------754
93----------------------754
94----------------------761
94----------------------761
95----------------------768
95----------------------768
247----------------------775
247----------------------775
248----------------------783
248----------------------783
96----------------------791
96----------------------791
97----------------------798
97----------------------798
98----------------------806
98----------------------806
99----------------------813
99----------------------813
100----------------------820
100----------------------820
101----------------------827
101----------------------827
102----------------------835
102----------------------835
103----------------------843
103----------------------843
104----------------------850
104----------------------850
105----------------------857
105----------------------857
106----------------------864
106----------------------864
107----------------------871
107----------------------871
108----------------------879
108----------------------879
109----------------------887
109----------------------887
249----------------------894
249----------------------894
250----------------------901
250----------------------901
110----------------------909
110----------------------909
111----------------------916
111----------------------916
112----------------------923
112----------------------923
113----------------------930
113----------------------930
114----------------------938
114----------------------938
115----------------------946
115----------------------946
116----------------------954
116----------------------954
117----------------------962
117----------------------962
118----------------------970
118----------------------970
119----------------------978
119----------------------978
120----------------------986
120----------------------986
121----------------------993
121----------------------993
251----------------------1000
251----------------------1000
252----------------------1008
252----------------------1008
122----------------------1015
122----------------------1015
123----------------------1022
123----------------------1022
124----------------------1029
124----------------------1029
125----------------------1036
125----------------------1036
126----------------------1043
126----------------------1043
127----------------------1050
127----------------------1050
128----------------------1057
128----------------------1057
253----------------------1064
253----------------------1064
254----------------------1072
254----------------------1072
129----------------------1080
129----------------------1080
130----------------------1087
130----------------------1087
131----------------------1095
131----------------------1095
132----------------------1103
132----------------------1103
133----------------------1110
133----------------------1110
134----------------------1118
134----------------------1118
135----------------------1125
135----------------------1125
255----------------------1132
255----------------------1132
256----------------------1140
256----------------------1140
136----------------------1148
136----------------------1148
137----------------------1155
137----------------------1155
138----------------------1162
138----------------------1162
139----------------------1170
139----------------------1170
140----------------------1177
140----------------------1177
141----------------------1185
141----------------------1185
142----------------------1192
142----------------------1192
257----------------------1199
257----------------------1199
258----------------------1206
258----------------------1206
143----------------------1213
143----------------------1213
144----------------------1221
144----------------------1221
145----------------------1229
145----------------------1229
146----------------------1236
146----------------------1236
147----------------------1243
147----------------------1243
148----------------------1250
148----------------------1250
259----------------------1257
259----------------------1257
260----------------------1265
260----------------------1265
149----------------------1272
149----------------------1272
150----------------------1279
150----------------------1279
151----------------------1287
151----------------------1287
152----------------------1295
152----------------------1295
153----------------------1303
153----------------------1303
154----------------------1311
154----------------------1311
155----------------------1318
155----------------------1318
261----------------------1325
261----------------------1325
262----------------------1332
262----------------------1332
156----------------------1339
156----------------------1339
157----------------------1346
157----------------------1346
158----------------------1353
158----------------------1353
159----------------------1361
159----------------------1361
160----------------------1369
160----------------------1369
161----------------------1376
161----------------------1376
162----------------------1384
162----------------------1384
263----------------------1391
263----------------------1391
264----------------------1398
264----------------------1398
163----------------------1406
163----------------------1406
164----------------------1413
164----------------------1413
165----------------------1420
165----------------------1420
166----------------------1428
166----------------------1428
167----------------------1435
167----------------------1435
168----------------------1443
168----------------------1443
169----------------------1451
169----------------------1451
265----------------------1458
265----------------------1458
266----------------------1466
266----------------------1466
170----------------------1473
170----------------------1473
171----------------------1480
171----------------------1480
172----------------------1487
172----------------------1487
173----------------------1494
173----------------------1494
174----------------------1502
174----------------------1502
175----------------------1509
175----------------------1509
176----------------------1517
176----------------------1517
267----------------------1525
267----------------------1525
268----------------------1533
268----------------------1533
177----------------------1540
177----------------------1540
178----------------------1548
178----------------------1548
179----------------------1555
179----------------------1555
180----------------------1562
180----------------------1562
181----------------------1570
181----------------------1570
182----------------------1577
182----------------------1577
183----------------------1585
183----------------------1585
269----------------------1593
269----------------------1593
270----------------------1601
270----------------------1601
184----------------------1609
184----------------------1609
185----------------------1616
185----------------------1616
186----------------------1623
186----------------------1623
187----------------------1630
187----------------------1630
188----------------------1637
188----------------------1637
189----------------------1645
189----------------------1645
190----------------------1652
190----------------------1652
271----------------------1660
271----------------------1660
272----------------------1668
272----------------------1668
273----------------------1676
273----------------------1676
191----------------------1684
191----------------------1684
192----------------------1692
192----------------------1692
193----------------------1700
193----------------------1700
194----------------------1707
194----------------------1707
195----------------------1715
195----------------------1715
196----------------------1722
196----------------------1722
197----------------------1729
197----------------------1729
274----------------------1737
274----------------------1737
275----------------------1744
275----------------------1744
198----------------------1752
198----------------------1752
199----------------------1759
199----------------------1759
200----------------------1767
200----------------------1767
201----------------------1775
201----------------------1775
202----------------------1783
202----------------------1783
203----------------------1790
203----------------------1790
204----------------------1798
204----------------------1798
276----------------------1806
276----------------------1806
277----------------------1813
277----------------------1813
205----------------------1820
205----------------------1820
206----------------------1828
206----------------------1828
207----------------------1836
207----------------------1836
208----------------------1844
208----------------------1844
209----------------------1851
209----------------------1851
210----------------------1859
210----------------------1859
278----------------------1867
278----------------------1867
279----------------------1876
279----------------------1876
211----------------------1883
211----------------------1883
212----------------------1890
213----------------------1897
212----------------------1897
213----------------------1897
280----------------------1905
280----------------------1905
281----------------------1913
281----------------------1913
282----------------------1921
282----------------------1921
283----------------------1928
283----------------------1928
284----------------------1936
284----------------------1936
285----------------------1943
285----------------------1943
286----------------------1950
286----------------------1950
287----------------------1957
287----------------------1957
288----------------------1964
288----------------------1964
289----------------------1972
289----------------------1972
214----------------------1979
214----------------------1979
215----------------------1986
215----------------------1986
216----------------------1994
216----------------------1994
290----------------------2001
290----------------------2001
291----------------------2008
291----------------------2008
292----------------------2015
292----------------------2015
293----------------------2023
293----------------------2023
294----------------------2031
294----------------------2031
295----------------------2039
295----------------------2039
296----------------------2047
296----------------------2047
297----------------------2055
297----------------------2055
298----------------------2063
298----------------------2063
299----------------------2070
299----------------------2070
217----------------------2077
217----------------------2077
218----------------------2085
218----------------------2085
219----------------------2092
219----------------------2092
300----------------------2099
300----------------------2099
301----------------------2106
301----------------------2106
302----------------------2114
302----------------------2114
303----------------------2121
303----------------------2121
304----------------------2128
304----------------------2128
305----------------------2135
305----------------------2135
306----------------------2143
306----------------------2143
307----------------------2151
307----------------------2151
308----------------------2158
308----------------------2158
309----------------------2166
309----------------------2166
310----------------------2174
310----------------------2174
220----------------------2181
220----------------------2181
221----------------------2188
221----------------------2188
222----------------------2196
222----------------------2196
311----------------------2203
311----------------------2203
312----------------------2211
312----------------------2211
313----------------------2218
313----------------------2218
314----------------------2225
314----------------------2225
315----------------------2232
315----------------------2232
316----------------------2239
316----------------------2239
317----------------------2246
317----------------------2246
318----------------------2253
318----------------------2253
319----------------------2261
319----------------------2261
320----------------------2268
320----------------------2268
321----------------------2277
321----------------------2277
223----------------------2284
223----------------------2284
224----------------------2291
224----------------------2291
225----------------------2298
225----------------------2298
322----------------------2305
322----------------------2305
323----------------------2312
323----------------------2312
324----------------------2319
324----------------------2319
325----------------------2326
325----------------------2326
326----------------------2334
326----------------------2334
327----------------------2342
327----------------------2342
328----------------------2349
328----------------------2349
329----------------------2356
329----------------------2356
330----------------------2363
330----------------------2363
331----------------------2371
331----------------------2371
332----------------------2378
332----------------------2378
226----------------------2385
226----------------------2385
227----------------------2392
227----------------------2392
228----------------------2400
228----------------------2400
333----------------------2408
333----------------------2408
334----------------------2415
334----------------------2415
335----------------------2422
335----------------------2422
336----------------------2430
336----------------------2430
337----------------------2438
337----------------------2438
338----------------------2445
338----------------------2445
339----------------------2452
339----------------------2452
340----------------------2459
340----------------------2459
341----------------------2466
341----------------------2466
342----------------------2474
342----------------------2474
229----------------------2481
229----------------------2481
230----------------------2488
230----------------------2488
231----------------------2496
231----------------------2496
343----------------------2504
343----------------------2504
344----------------------2511
344----------------------2511
345----------------------2518
345----------------------2518
346----------------------2525
346----------------------2525
347----------------------2532
347----------------------2532
348----------------------2540
348----------------------2540
349----------------------2548
349----------------------2548
350----------------------2555
350----------------------2555
351----------------------2563
351----------------------2563
352----------------------2571
352----------------------2571
232----------------------2579
232----------------------2579
233----------------------2587
233----------------------2587
234----------------------2595
234----------------------2595
353----------------------2603
353----------------------2603
354----------------------2611
354----------------------2611
355----------------------2619
355----------------------2619
356----------------------2627
356----------------------2627
357----------------------2634
357----------------------2634
358----------------------2642
358----------------------2642
359----------------------2650
359----------------------2650
360----------------------2657
360----------------------2657
361----------------------2664
361----------------------2664
362----------------------2671
362----------------------2671
363----------------------2678
363----------------------2678
235----------------------2685
235----------------------2685
364----------------------2693
364----------------------2693
365----------------------2701
365----------------------2701
366----------------------2708
366----------------------2708
367----------------------2715
367----------------------2715
368----------------------2723
368----------------------2723
369----------------------2730
369----------------------2730
370----------------------2737
370----------------------2737
371----------------------2744
371----------------------2744
372----------------------2751
372----------------------2751
373----------------------2758
373----------------------2758
374----------------------2766
374----------------------2766
375----------------------2773
375----------------------2773
376----------------------2780
376----------------------2780
377----------------------2788
377----------------------2788
378----------------------2796
378----------------------2796
379----------------------2803
379----------------------2804
380----------------------2811
380----------------------2811
381----------------------2819
381----------------------2819
382----------------------2827
382----------------------2827
383----------------------2834
383----------------------2834
384----------------------2842
384----------------------2842
385----------------------2849
385----------------------2849
386----------------------2856
386----------------------2856
387----------------------2863
387----------------------2863
388----------------------2871
388----------------------2871
389----------------------2879
389----------------------2879
236----------------------2886
236----------------------2886
390----------------------2894
390----------------------2894
391----------------------2901
391----------------------2901
392----------------------2909
392----------------------2909
393----------------------2916
393----------------------2916
394----------------------2924
394----------------------2924
395----------------------2932
395----------------------2932
396----------------------2939
396----------------------2939
397----------------------2947
397----------------------2947
398----------------------2955
398----------------------2955
399----------------------2963
399----------------------2963
400----------------------2970
400----------------------2970
401----------------------2977
401----------------------2977
402----------------------2985
402----------------------2985
403----------------------2993
403----------------------2993
404----------------------3001
404----------------------3001
405----------------------3009
405----------------------3009
406----------------------3016
406----------------------3016
407----------------------3023
407----------------------3023
408----------------------3030
408----------------------3030
409----------------------3037
409----------------------3037
410----------------------3044
410----------------------3044
411----------------------3051
411----------------------3051
412----------------------3058
412----------------------3058
413----------------------3066
413----------------------3066
414----------------------3073
414----------------------3073
415----------------------3080
415----------------------3080
416----------------------3088
416----------------------3088
237----------------------3095
237----------------------3095
417----------------------3102
417----------------------3102
418----------------------3109
418----------------------3109
419----------------------3116
419----------------------3116
420----------------------3123
420----------------------3123
421----------------------3130
421----------------------3130
422----------------------3138
422----------------------3138
423----------------------3145
423----------------------3145
424----------------------3153
424----------------------3153
425----------------------3160
425----------------------3160
426----------------------3167
426----------------------3167
427----------------------3175
427----------------------3175
428----------------------3182
428----------------------3182
429----------------------3189
429----------------------3189
430----------------------3197
430----------------------3197
431----------------------3204
431----------------------3204
432----------------------3212
432----------------------3212
433----------------------3219
433----------------------3219
434----------------------3227
434----------------------3227
435----------------------3234
435----------------------3234
436----------------------3242
436----------------------3242
437----------------------3249
437----------------------3249
438----------------------3256
0----------------------10
0----------------------10
1----------------------16
1----------------------23
2----------------------23
2----------------------23
3----------------------30
3----------------------30
4----------------------37
4----------------------37
5----------------------44
5----------------------44
6----------------------51
6----------------------51
7----------------------59
7----------------------59
8----------------------66
8----------------------66
9----------------------74
9----------------------74
10----------------------82
10----------------------82
11----------------------89
11----------------------89
12----------------------97
12----------------------97
13----------------------105
13----------------------105
14----------------------113
14----------------------113
15----------------------120
15----------------------120
16----------------------128
16----------------------128
17----------------------136
17----------------------137
18----------------------143
18----------------------143
19----------------------150
19----------------------150
20----------------------158
20----------------------158
21----------------------166
21----------------------166
22----------------------173
22----------------------173
23----------------------181
23----------------------181
24----------------------188
24----------------------188
25----------------------196
25----------------------196
26----------------------203
26----------------------203
27----------------------211
27----------------------211
28----------------------219
28----------------------219
29----------------------227
29----------------------227
30----------------------235
30----------------------235
31----------------------242
31----------------------242
32----------------------249
32----------------------249
33----------------------256
33----------------------256
34----------------------264
34----------------------264
35----------------------271
35----------------------271
36----------------------278
36----------------------278
37----------------------285
37----------------------285
38----------------------292
38----------------------292
39----------------------299
39----------------------299
40----------------------307
40----------------------307
41----------------------315
41----------------------315
42----------------------322
42----------------------322
43----------------------330
43----------------------330
44----------------------338
44----------------------338
45----------------------345
45----------------------345
46----------------------352
46----------------------352
47----------------------360
47----------------------360
48----------------------367
48----------------------367
49----------------------374
49----------------------374
50----------------------381
50----------------------381
51----------------------389
51----------------------389
240----------------------397
240----------------------397
241----------------------404
241----------------------404
52----------------------411
52----------------------411
53----------------------418
53----------------------418
54----------------------425
54----------------------425
55----------------------432
55----------------------432
56----------------------439
56----------------------439
57----------------------447
57----------------------447
58----------------------455
58----------------------455
59----------------------462
59----------------------462
60----------------------470
60----------------------470
61----------------------477
61----------------------477
62----------------------484
62----------------------484
63----------------------491
63----------------------492
64----------------------499
64----------------------499
65----------------------507
65----------------------507
66----------------------514
66----------------------514
67----------------------522
67----------------------522
242----------------------530
242----------------------530
243----------------------538
243----------------------543
244----------------------545
244----------------------545
68----------------------552
68----------------------552
69----------------------560
69----------------------560
70----------------------567
70----------------------567
71----------------------575
71----------------------575
72----------------------583
72----------------------583
73----------------------590
73----------------------590
74----------------------598
74----------------------598
75----------------------606
75----------------------606
76----------------------614
76----------------------614
77----------------------621
77----------------------621
78----------------------629
78----------------------629
79----------------------636
79----------------------636
80----------------------644
80----------------------644
81----------------------651
81----------------------651
245----------------------659
245----------------------659
246----------------------666
246----------------------666
82----------------------673
82----------------------673
83----------------------680
83----------------------680
84----------------------687
84----------------------687
85----------------------694
85----------------------694
86----------------------701
86----------------------701
87----------------------709
87----------------------709
88----------------------717
88----------------------717
89----------------------724
89----------------------724
90----------------------731
90----------------------731
91----------------------738
91----------------------738
92----------------------746
92----------------------746
93----------------------754
93----------------------754
94----------------------761
94----------------------761
95----------------------768
95----------------------768
247----------------------775
247----------------------775
248----------------------783
248----------------------783
96----------------------791
96----------------------791
97----------------------798
97----------------------798
98----------------------806
98----------------------806
99----------------------813
99----------------------813
100----------------------820
100----------------------820
101----------------------827
101----------------------827
102----------------------835
102----------------------835
103----------------------843
103----------------------843
104----------------------850
104----------------------850
105----------------------857
105----------------------857
106----------------------864
106----------------------864
107----------------------871
107----------------------871
108----------------------879
108----------------------879
109----------------------887
109----------------------887
249----------------------894
249----------------------894
250----------------------901
250----------------------901
110----------------------909
110----------------------909
111----------------------916
111----------------------916
112----------------------923
112----------------------923
113----------------------930
113----------------------930
114----------------------938
114----------------------938
115----------------------946
115----------------------946
116----------------------954
116----------------------954
117----------------------962
117----------------------962
118----------------------970
118----------------------970
119----------------------978
119----------------------978
120----------------------986
120----------------------986
121----------------------993
121----------------------993
251----------------------1000
251----------------------1000
252----------------------1008
252----------------------1008
122----------------------1015
122----------------------1015
123----------------------1022
123----------------------1022
124----------------------1029
124----------------------1029
125----------------------1036
125----------------------1036
126----------------------1043
126----------------------1043
127----------------------1050
127----------------------1050
128----------------------1057
128----------------------1057
253----------------------1064
253----------------------1064
254----------------------1072
254----------------------1072
129----------------------1080
129----------------------1080
130----------------------1087
130----------------------1087
131----------------------1095
131----------------------1095
132----------------------1103
132----------------------1103
133----------------------1110
133----------------------1110
134----------------------1118
134----------------------1118
135----------------------1125
135----------------------1125
255----------------------1132
255----------------------1132
256----------------------1140
256----------------------1140
136----------------------1148
136----------------------1148
137----------------------1155
137----------------------1155
138----------------------1162
138----------------------1162
139----------------------1170
139----------------------1170
140----------------------1177
140----------------------1177
141----------------------1185
141----------------------1185
142----------------------1192
142----------------------1192
257----------------------1199
257----------------------1199
258----------------------1206
258----------------------1206
143----------------------1213
143----------------------1213
144----------------------1221
144----------------------1221
145----------------------1229
145----------------------1229
146----------------------1236
146----------------------1236
147----------------------1243
147----------------------1243
148----------------------1250
148----------------------1250
259----------------------1257
259----------------------1257
260----------------------1265
260----------------------1265
149----------------------1272
149----------------------1272
150----------------------1279
150----------------------1279
151----------------------1287
151----------------------1287
152----------------------1295
152----------------------1295
153----------------------1303
153----------------------1303
154----------------------1311
154----------------------1311
155----------------------1318
155----------------------1318
261----------------------1325
261----------------------1325
262----------------------1332
262----------------------1332
156----------------------1339
156----------------------1339
157----------------------1346
157----------------------1346
158----------------------1353
158----------------------1353
159----------------------1361
159----------------------1361
160----------------------1369
160----------------------1369
161----------------------1376
161----------------------1376
162----------------------1384
162----------------------1384
263----------------------1391
263----------------------1391
264----------------------1398
264----------------------1398
163----------------------1406
163----------------------1406
164----------------------1413
164----------------------1413
165----------------------1420
165----------------------1420
166----------------------1428
166----------------------1428
167----------------------1435
167----------------------1435
168----------------------1443
168----------------------1443
169----------------------1451
169----------------------1451
265----------------------1458
265----------------------1458
266----------------------1466
266----------------------1466
170----------------------1473
170----------------------1473
171----------------------1480
171----------------------1480
172----------------------1487
172----------------------1487
173----------------------1494
173----------------------1494
174----------------------1502
174----------------------1502
175----------------------1509
175----------------------1509
176----------------------1517
176----------------------1517
267----------------------1525
267----------------------1525
268----------------------1533
268----------------------1533
177----------------------1540
177----------------------1540
178----------------------1548
178----------------------1548
179----------------------1555
179----------------------1555
180----------------------1562
180----------------------1562
181----------------------1570
181----------------------1570
182----------------------1577
182----------------------1577
183----------------------1585
183----------------------1585
269----------------------1593
269----------------------1593
270----------------------1601
270----------------------1601
184----------------------1609
184----------------------1609
185----------------------1616
185----------------------1616
186----------------------1623
186----------------------1623
187----------------------1630
187----------------------1630
188----------------------1637
188----------------------1637
189----------------------1645
189----------------------1645
190----------------------1652
190----------------------1652
271----------------------1660
271----------------------1660
272----------------------1668
272----------------------1668
273----------------------1676
273----------------------1676
191----------------------1684
191----------------------1684
192----------------------1692
192----------------------1692
193----------------------1700
193----------------------1700
194----------------------1707
194----------------------1707
195----------------------1715
195----------------------1715
196----------------------1722
196----------------------1722
197----------------------1729
197----------------------1729
274----------------------1737
274----------------------1737
275----------------------1744
275----------------------1744
198----------------------1752
198----------------------1752
199----------------------1759
199----------------------1759
200----------------------1767
200----------------------1767
201----------------------1775
201----------------------1775
202----------------------1783
202----------------------1783
203----------------------1790
203----------------------1790
204----------------------1798
204----------------------1798
276----------------------1806
276----------------------1806
277----------------------1813
277----------------------1813
205----------------------1820
205----------------------1820
206----------------------1828
206----------------------1828
207----------------------1836
207----------------------1836
208----------------------1844
208----------------------1844
209----------------------1851
209----------------------1851
210----------------------1859
210----------------------1859
278----------------------1867
278----------------------1867
279----------------------1876
279----------------------1876
211----------------------1883
211----------------------1883
212----------------------1890
213----------------------1897
212----------------------1897
213----------------------1897
280----------------------1905
280----------------------1905
281----------------------1913
281----------------------1913
282----------------------1921
282----------------------1921
283----------------------1928
283----------------------1928
284----------------------1936
284----------------------1936
285----------------------1943
285----------------------1943
286----------------------1950
286----------------------1950
287----------------------1957
287----------------------1957
288----------------------1964
288----------------------1964
289----------------------1972
289----------------------1972
214----------------------1979
214----------------------1979
215----------------------1986
215----------------------1986
216----------------------1994
216----------------------1994
290----------------------2001
290----------------------2001
291----------------------2008
291----------------------2008
292----------------------2015
292----------------------2015
293----------------------2023
293----------------------2023
294----------------------2031
294----------------------2031
295----------------------2039
295----------------------2039
296----------------------2047
296----------------------2047
297----------------------2055
297----------------------2055
298----------------------2063
298----------------------2063
299----------------------2070
299----------------------2070
217----------------------2077
217----------------------2077
218----------------------2085
218----------------------2085
219----------------------2092
219----------------------2092
300----------------------2099
300----------------------2099
301----------------------2106
301----------------------2106
302----------------------2114
302----------------------2114
303----------------------2121
303----------------------2121
304----------------------2128
304----------------------2128
305----------------------2135
305----------------------2135
306----------------------2143
306----------------------2143
307----------------------2151
307----------------------2151
308----------------------2158
308----------------------2158
309----------------------2166
309----------------------2166
310----------------------2174
310----------------------2174
220----------------------2181
220----------------------2181
221----------------------2188
221----------------------2188
222----------------------2196
222----------------------2196
311----------------------2203
311----------------------2203
312----------------------2211
312----------------------2211
313----------------------2218
313----------------------2218
314----------------------2225
314----------------------2225
315----------------------2232
315----------------------2232
316----------------------2239
316----------------------2239
317----------------------2246
317----------------------2246
318----------------------2253
318----------------------2253
319----------------------2261
319----------------------2261
320----------------------2268
320----------------------2268
321----------------------2277
321----------------------2277
223----------------------2284
223----------------------2284
224----------------------2291
224----------------------2291
225----------------------2298
225----------------------2298
322----------------------2305
322----------------------2305
323----------------------2312
323----------------------2312
324----------------------2319
324----------------------2319
325----------------------2326
325----------------------2326
326----------------------2334
326----------------------2334
327----------------------2342
327----------------------2342
328----------------------2349
328----------------------2349
329----------------------2356
329----------------------2356
330----------------------2363
330----------------------2363
331----------------------2371
331----------------------2371
332----------------------2378
332----------------------2378
226----------------------2385
226----------------------2385
227----------------------2392
227----------------------2392
228----------------------2400
228----------------------2400
333----------------------2408
333----------------------2408
334----------------------2415
334----------------------2415
335----------------------2422
335----------------------2422
336----------------------2430
336----------------------2430
337----------------------2438
337----------------------2438
338----------------------2445
338----------------------2445
339----------------------2452
339----------------------2452
340----------------------2459
340----------------------2459
341----------------------2466
341----------------------2466
342----------------------2474
342----------------------2474
229----------------------2481
229----------------------2481
230----------------------2488
230----------------------2488
231----------------------2496
231----------------------2496
343----------------------2504
343----------------------2504
344----------------------2511
344----------------------2511
345----------------------2518
345----------------------2518
346----------------------2525
346----------------------2525
347----------------------2532
347----------------------2532
348----------------------2540
348----------------------2540
349----------------------2548
349----------------------2548
350----------------------2555
350----------------------2555
351----------------------2563
351----------------------2563
352----------------------2571
352----------------------2571
232----------------------2579
232----------------------2579
233----------------------2587
233----------------------2587
234----------------------2595
234----------------------2595
353----------------------2603
353----------------------2603
354----------------------2611
354----------------------2611
355----------------------2619
355----------------------2619
356----------------------2627
356----------------------2627
357----------------------2634
357----------------------2634
358----------------------2642
358----------------------2642
359----------------------2650
359----------------------2650
360----------------------2657
360----------------------2657
361----------------------2664
361----------------------2664
362----------------------2671
362----------------------2671
363----------------------2678
363----------------------2678
235----------------------2685
235----------------------2685
364----------------------2693
364----------------------2693
365----------------------2701
365----------------------2701
366----------------------2708
366----------------------2708
367----------------------2715
367----------------------2715
368----------------------2723
368----------------------2723
369----------------------2730
369----------------------2730
370----------------------2737
370----------------------2737
371----------------------2744
371----------------------2744
372----------------------2751
372----------------------2751
373----------------------2758
373----------------------2758
374----------------------2766
374----------------------2766
375----------------------2773
375----------------------2773
376----------------------2780
376----------------------2780
377----------------------2788
377----------------------2788
378----------------------2796
378----------------------2796
379----------------------2803
379----------------------2804
380----------------------2811
380----------------------2811
381----------------------2819
381----------------------2819
382----------------------2827
382----------------------2827
383----------------------2834
383----------------------2834
384----------------------2842
384----------------------2842
385----------------------2849
385----------------------2849
386----------------------2856
386----------------------2856
387----------------------2863
387----------------------2863
388----------------------2871
388----------------------2871
389----------------------2879
389----------------------2879
236----------------------2886
236----------------------2886
390----------------------2894
390----------------------2894
391----------------------2901
391----------------------2901
392----------------------2909
392----------------------2909
393----------------------2916
393----------------------2916
394----------------------2924
394----------------------2924
395----------------------2932
395----------------------2932
396----------------------2939
396----------------------2939
397----------------------2947
397----------------------2947
398----------------------2955
398----------------------2955
399----------------------2963
399----------------------2963
400----------------------2970
400----------------------2970
401----------------------2977
401----------------------2977
402----------------------2985
402----------------------2985
403----------------------2993
403----------------------2993
404----------------------3001
404----------------------3001
405----------------------3009
405----------------------3009
406----------------------3016
406----------------------3016
407----------------------3023
407----------------------3023
408----------------------3030
408----------------------3030
409----------------------3037
409----------------------3037
410----------------------3044
410----------------------3044
411----------------------3051
411----------------------3051
412----------------------3058
412----------------------3058
413----------------------3066
413----------------------3066
414----------------------3073
414----------------------3073
415----------------------3080
415----------------------3080
416----------------------3088
416----------------------3088
237----------------------3095
237----------------------3095
417----------------------3102
417----------------------3102
418----------------------3109
418----------------------3109
419----------------------3116
419----------------------3116
420----------------------3123
420----------------------3123
421----------------------3130
421----------------------3130
422----------------------3138
422----------------------3138
423----------------------3145
423----------------------3145
424----------------------3153
424----------------------3153
425----------------------3160
425----------------------3160
426----------------------3167
426----------------------3167
427----------------------3175
427----------------------3175
428----------------------3182
428----------------------3182
429----------------------3189
429----------------------3189
430----------------------3197
430----------------------3197
431----------------------3204
431----------------------3204
432----------------------3212
432----------------------3212
433----------------------3219
433----------------------3219
434----------------------3227
434----------------------3227
435----------------------3234
435----------------------3234
436----------------------3242
436----------------------3242
437----------------------3249
437----------------------3249
438----------------------3256
0----------------------10
0----------------------10
1----------------------16
1----------------------23
2----------------------23
2----------------------23
3----------------------30
3----------------------30
4----------------------37
4----------------------37
5----------------------44
5----------------------44
6----------------------51
6----------------------51
7----------------------59
7----------------------59
8----------------------66
8----------------------66
9----------------------74
9----------------------74
10----------------------82
10----------------------82
11----------------------89
11----------------------89
12----------------------97
12----------------------97
13----------------------105
13----------------------105
14----------------------113
14----------------------113
15----------------------120
15----------------------120
16----------------------128
16----------------------128
17----------------------136
17----------------------137
18----------------------143
18----------------------143
19----------------------150
19----------------------150
20----------------------158
20----------------------158
21----------------------166
21----------------------166
22----------------------173
22----------------------173
23----------------------181
23----------------------181
24----------------------188
24----------------------188
25----------------------196
25----------------------196
26----------------------203
26----------------------203
27----------------------211
27----------------------211
28----------------------219
28----------------------219
29----------------------227
29----------------------227
30----------------------235
30----------------------235
31----------------------242
31----------------------242
32----------------------249
32----------------------249
33----------------------256
33----------------------256
34----------------------264
34----------------------264
35----------------------271
35----------------------271
36----------------------278
36----------------------278
37----------------------285
37----------------------285
38----------------------292
38----------------------292
39----------------------299
39----------------------299
40----------------------307
40----------------------307
41----------------------315
41----------------------315
42----------------------322
42----------------------322
43----------------------330
43----------------------330
44----------------------338
44----------------------338
45----------------------345
45----------------------345
46----------------------352
46----------------------352
47----------------------360
47----------------------360
48----------------------367
48----------------------367
49----------------------374
49----------------------374
50----------------------381
50----------------------381
51----------------------389
51----------------------389
240----------------------397
240----------------------397
241----------------------404
241----------------------404
52----------------------411
52----------------------411
53----------------------418
53----------------------418
54----------------------425
54----------------------425
55----------------------432
55----------------------432
56----------------------439
56----------------------439
57----------------------447
57----------------------447
58----------------------455
58----------------------455
59----------------------462
59----------------------462
60----------------------470
60----------------------470
61----------------------477
61----------------------477
62----------------------484
62----------------------484
63----------------------491
63----------------------492
64----------------------499
64----------------------499
65----------------------507
65----------------------507
66----------------------514
66----------------------514
67----------------------522
67----------------------522
242----------------------530
242----------------------530
243----------------------538
243----------------------543
244----------------------545
244----------------------545
68----------------------552
68----------------------552
69----------------------560
69----------------------560
70----------------------567
70----------------------567
71----------------------575
71----------------------575
72----------------------583
72----------------------583
73----------------------590
73----------------------590
74----------------------598
74----------------------598
75----------------------606
75----------------------606
76----------------------614
76----------------------614
77----------------------621
77----------------------621
78----------------------629
78----------------------629
79----------------------636
79----------------------636
80----------------------644
80----------------------644
81----------------------651
81----------------------651
245----------------------659
245----------------------659
246----------------------666
246----------------------666
82----------------------673
82----------------------673
83----------------------680
83----------------------680
84----------------------687
84----------------------687
85----------------------694
85----------------------694
86----------------------701
86----------------------701
87----------------------709
87----------------------709
88----------------------717
88----------------------717
89----------------------724
89----------------------724
90----------------------731
90----------------------731
91----------------------738
91----------------------738
92----------------------746
92----------------------746
93----------------------754
93----------------------754
94----------------------761
94----------------------761
95----------------------768
95----------------------768
247----------------------775
247----------------------775
248----------------------783
248----------------------783
96----------------------791
96----------------------791
97----------------------798
97----------------------798
98----------------------806
98----------------------806
99----------------------813
99----------------------813
100----------------------820
100----------------------820
101----------------------827
101----------------------827
102----------------------835
102----------------------835
103----------------------843
103----------------------843
104----------------------850
104----------------------850
105----------------------857
105----------------------857
106----------------------864
106----------------------864
107----------------------871
107----------------------871
108----------------------879
108----------------------879
109----------------------887
109----------------------887
249----------------------894
249----------------------894
250----------------------901
250----------------------901
110----------------------909
110----------------------909
111----------------------916
111----------------------916
112----------------------923
112----------------------923
113----------------------930
113----------------------930
114----------------------938
114----------------------938
115----------------------946
115----------------------946
116----------------------954
116----------------------954
117----------------------962
117----------------------962
118----------------------970
118----------------------970
119----------------------978
119----------------------978
120----------------------986
120----------------------986
121----------------------993
121----------------------993
251----------------------1000
251----------------------1000
252----------------------1008
252----------------------1008
122----------------------1015
122----------------------1015
123----------------------1022
123----------------------1022
124----------------------1029
124----------------------1029
125----------------------1036
125----------------------1036
126----------------------1043
126----------------------1043
127----------------------1050
127----------------------1050
128----------------------1057
128----------------------1057
253----------------------1064
253----------------------1064
254----------------------1072
254----------------------1072
129----------------------1080
129----------------------1080
130----------------------1087
130----------------------1087
131----------------------1095
131----------------------1095
132----------------------1103
132----------------------1103
133----------------------1110
133----------------------1110
134----------------------1118
134----------------------1118
135----------------------1125
135----------------------1125
255----------------------1132
255----------------------1132
256----------------------1140
256----------------------1140
136----------------------1148
136----------------------1148
137----------------------1155
137----------------------1155
138----------------------1162
138----------------------1162
139----------------------1170
139----------------------1170
140----------------------1177
140----------------------1177
141----------------------1185
141----------------------1185
142----------------------1192
142----------------------1192
257----------------------1199
257----------------------1199
258----------------------1206
258----------------------1206
143----------------------1213
143----------------------1213
144----------------------1221
144----------------------1221
145----------------------1229
145----------------------1229
146----------------------1236
146----------------------1236
147----------------------1243
147----------------------1243
148----------------------1250
148----------------------1250
259----------------------1257
259----------------------1257
260----------------------1265
260----------------------1265
149----------------------1272
149----------------------1272
150----------------------1279
150----------------------1279
151----------------------1287
151----------------------1287
152----------------------1295
152----------------------1295
153----------------------1303
153----------------------1303
154----------------------1311
154----------------------1311
155----------------------1318
155----------------------1318
261----------------------1325
261----------------------1325
262----------------------1332
262----------------------1332
156----------------------1339
156----------------------1339
157----------------------1346
157----------------------1346
158----------------------1353
158----------------------1353
159----------------------1361
159----------------------1361
160----------------------1369
160----------------------1369
161----------------------1376
161----------------------1376
162----------------------1384
162----------------------1384
263----------------------1391
263----------------------1391
264----------------------1398
264----------------------1398
163----------------------1406
163----------------------1406
164----------------------1413
164----------------------1413
165----------------------1420
165----------------------1420
166----------------------1428
166----------------------1428
167----------------------1435
167----------------------1435
168----------------------1443
168----------------------1443
169----------------------1451
169----------------------1451
265----------------------1458
265----------------------1458
266----------------------1466
266----------------------1466
170----------------------1473
170----------------------1473
171----------------------1480
171----------------------1480
172----------------------1487
172----------------------1487
173----------------------1494
173----------------------1494
174----------------------1502
174----------------------1502
175----------------------1509
175----------------------1509
176----------------------1517
176----------------------1517
267----------------------1525
267----------------------1525
268----------------------1533
268----------------------1533
177----------------------1540
177----------------------1540
178----------------------1548
178----------------------1548
179----------------------1555
179----------------------1555
180----------------------1562
180----------------------1562
181----------------------1570
181----------------------1570
182----------------------1577
182----------------------1577
183----------------------1585
183----------------------1585
269----------------------1593
269----------------------1593
270----------------------1601
270----------------------1601
184----------------------1609
184----------------------1609
185----------------------1616
185----------------------1616
186----------------------1623
186----------------------1623
187----------------------1630
187----------------------1630
188----------------------1637
188----------------------1637
189----------------------1645
189----------------------1645
190----------------------1652
190----------------------1652
271----------------------1660
271----------------------1660
272----------------------1668
272----------------------1668
273----------------------1676
273----------------------1676
191----------------------1684
191----------------------1684
192----------------------1692
192----------------------1692
193----------------------1700
193----------------------1700
194----------------------1707
194----------------------1707
195----------------------1715
195----------------------1715
196----------------------1722
196----------------------1722
197----------------------1729
197----------------------1729
274----------------------1737
274----------------------1737
275----------------------1744
275----------------------1744
198----------------------1752
198----------------------1752
199----------------------1759
199----------------------1759
200----------------------1767
200----------------------1767
201----------------------1775
201----------------------1775
202----------------------1783
202----------------------1783
203----------------------1790
203----------------------1790
204----------------------1798
204----------------------1798
276----------------------1806
276----------------------1806
277----------------------1813
277----------------------1813
205----------------------1820
205----------------------1820
206----------------------1828
206----------------------1828
207----------------------1836
207----------------------1836
208----------------------1844
208----------------------1844
209----------------------1851
209----------------------1851
210----------------------1859
210----------------------1859
278----------------------1867
278----------------------1867
279----------------------1876
279----------------------1876
211----------------------1883
211----------------------1883
212----------------------1890
213----------------------1897
212----------------------1897
213----------------------1897
280----------------------1905
280----------------------1905
281----------------------1913
281----------------------1913
282----------------------1921
282----------------------1921
283----------------------1928
283----------------------1928
284----------------------1936
284----------------------1936
285----------------------1943
285----------------------1943
286----------------------1950
286----------------------1950
287----------------------1957
287----------------------1957
288----------------------1964
288----------------------1964
289----------------------1972
289----------------------1972
214----------------------1979
214----------------------1979
215----------------------1986
215----------------------1986
216----------------------1994
216----------------------1994
290----------------------2001
290----------------------2001
291----------------------2008
291----------------------2008
292----------------------2015
292----------------------2015
293----------------------2023
293----------------------2023
294----------------------2031
294----------------------2031
295----------------------2039
295----------------------2039
296----------------------2047
296----------------------2047
297----------------------2055
297----------------------2055
298----------------------2063
298----------------------2063
299----------------------2070
299----------------------2070
217----------------------2077
217----------------------2077
218----------------------2085
218----------------------2085
219----------------------2092
219----------------------2092
300----------------------2099
300----------------------2099
301----------------------2106
301----------------------2106
302----------------------2114
302----------------------2114
303----------------------2121
303----------------------2121
304----------------------2128
304----------------------2128
305----------------------2135
305----------------------2135
306----------------------2143
306----------------------2143
307----------------------2151
307----------------------2151
308----------------------2158
308----------------------2158
309----------------------2166
309----------------------2166
310----------------------2174
310----------------------2174
220----------------------2181
220----------------------2181
221----------------------2188
221----------------------2188
222----------------------2196
222----------------------2196
311----------------------2203
311----------------------2203
312----------------------2211
312----------------------2211
313----------------------2218
313----------------------2218
314----------------------2225
314----------------------2225
315----------------------2232
315----------------------2232
316----------------------2239
316----------------------2239
317----------------------2246
317----------------------2246
318----------------------2253
318----------------------2253
319----------------------2261
319----------------------2261
320----------------------2268
320----------------------2268
321----------------------2277
321----------------------2277
223----------------------2284
223----------------------2284
224----------------------2291
224----------------------2291
225----------------------2298
225----------------------2298
322----------------------2305
322----------------------2305
323----------------------2312
323----------------------2312
324----------------------2319
324----------------------2319
325----------------------2326
325----------------------2326
326----------------------2334
326----------------------2334
327----------------------2342
327----------------------2342
328----------------------2349
328----------------------2349
329----------------------2356
329----------------------2356
330----------------------2363
330----------------------2363
331----------------------2371
331----------------------2371
332----------------------2378
332----------------------2378
226----------------------2385
226----------------------2385
227----------------------2392
227----------------------2392
228----------------------2400
228----------------------2400
333----------------------2408
333----------------------2408
334----------------------2415
334----------------------2415
335----------------------2422
335----------------------2422
336----------------------2430
336----------------------2430
337----------------------2438
337----------------------2438
338----------------------2445
338----------------------2445
339----------------------2452
339----------------------2452
340----------------------2459
340----------------------2459
341----------------------2466
341----------------------2466
342----------------------2474
342----------------------2474
229----------------------2481
229----------------------2481
230----------------------2488
230----------------------2488
231----------------------2496
231----------------------2496
343----------------------2504
343----------------------2504
344----------------------2511
344----------------------2511
345----------------------2518
345----------------------2518
346----------------------2525
346----------------------2525
347----------------------2532
347----------------------2532
348----------------------2540
348----------------------2540
349----------------------2548
349----------------------2548
350----------------------2555
350----------------------2555
351----------------------2563
351----------------------2563
352----------------------2571
352----------------------2571
232----------------------2579
232----------------------2579
233----------------------2587
233----------------------2587
234----------------------2595
234----------------------2595
353----------------------2603
353----------------------2603
354----------------------2611
354----------------------2611
355----------------------2619
355----------------------2619
356----------------------2627
356----------------------2627
357----------------------2634
357----------------------2634
358----------------------2642
358----------------------2642
359----------------------2650
359----------------------2650
360----------------------2657
360----------------------2657
361----------------------2664
361----------------------2664
362----------------------2671
362----------------------2671
363----------------------2678
363----------------------2678
235----------------------2685
235----------------------2685
364----------------------2693
364----------------------2693
365----------------------2701
365----------------------2701
366----------------------2708
366----------------------2708
367----------------------2715
367----------------------2715
368----------------------2723
368----------------------2723
369----------------------2730
369----------------------2730
370----------------------2737
370----------------------2737
371----------------------2744
371----------------------2744
372----------------------2751
372----------------------2751
373----------------------2758
373----------------------2758
374----------------------2766
374----------------------2766
375----------------------2773
375----------------------2773
376----------------------2780
376----------------------2780
377----------------------2788
377----------------------2788
378----------------------2796
378----------------------2796
379----------------------2803
379----------------------2804
380----------------------2811
380----------------------2811
381----------------------2819
381----------------------2819
382----------------------2827
382----------------------2827
383----------------------2834
383----------------------2834
384----------------------2842
384----------------------2842
385----------------------2849
385----------------------2849
386----------------------2856
386----------------------2856
387----------------------2863
387----------------------2863
388----------------------2871
388----------------------2871
389----------------------2879
389----------------------2879
236----------------------2886
236----------------------2886
390----------------------2894
390----------------------2894
391----------------------2901
391----------------------2901
392----------------------2909
392----------------------2909
393----------------------2916
393----------------------2916
394----------------------2924
394----------------------2924
395----------------------2932
395----------------------2932
396----------------------2939
396----------------------2939
397----------------------2947
397----------------------2947
398----------------------2955
398----------------------2955
399----------------------2963
399----------------------2963
400----------------------2970
400----------------------2970
401----------------------2977
401----------------------2977
402----------------------2985
402----------------------2985
403----------------------2993
403----------------------2993
404----------------------3001
404----------------------3001
405----------------------3009
405----------------------3009
406----------------------3016
406----------------------3016
407----------------------3023
407----------------------3023
408----------------------3030
408----------------------3030
409----------------------3037
409----------------------3037
410----------------------3044
410----------------------3044
411----------------------3051
411----------------------3051
412----------------------3058
412----------------------3058
413----------------------3066
413----------------------3066
414----------------------3073
414----------------------3073
415----------------------3080
415----------------------3080
416----------------------3088
416----------------------3088
237----------------------3095
237----------------------3095
417----------------------3102
417----------------------3102
418----------------------3109
418----------------------3109
419----------------------3116
419----------------------3116
420----------------------3123
420----------------------3123
421----------------------3130
421----------------------3130
422----------------------3138
422----------------------3138
423----------------------3145
423----------------------3145
424----------------------3153
424----------------------3153
425----------------------3160
425----------------------3160
426----------------------3167
426----------------------3167
427----------------------3175
427----------------------3175
428----------------------3182
428----------------------3182
429----------------------3189
429----------------------3189
430----------------------3197
430----------------------3197
431----------------------3204
431----------------------3204
432----------------------3212
432----------------------3212
433----------------------3219
433----------------------3219
434----------------------3227
434----------------------3227
435----------------------3234
435----------------------3234
436----------------------3242
436----------------------3242
437----------------------3249
437----------------------3249
438----------------------3256
