364----------------------11
366----------------------11
25----------------------2
249----------------------14
1----------------------2
242----------------------7
331----------------------9
144----------------------18
146----------------------18
3----------------------19
2----------------------19
397----------------------19
159----------------------21
365----------------------24
252----------------------24
461----------------------24
469----------------------24
380----------------------24
443----------------------24
17----------------------24
359----------------------24
470----------------------24
32----------------------24
90----------------------24
76----------------------24
368----------------------28
416----------------------28
428----------------------28
51----------------------28
287----------------------31
16----------------------31
319----------------------31
356----------------------31
374----------------------31
471----------------------31
338----------------------31
342----------------------31
465----------------------31
53----------------------31
452----------------------31
258----------------------31
294----------------------32
296----------------------33
205----------------------33
4----------------------33
390----------------------33
425----------------------34
22----------------------34
10----------------------34
456----------------------34
329----------------------35
429----------------------35
40----------------------35
8----------------------36
55----------------------36
462----------------------36
60----------------------36
224----------------------38
377----------------------38
77----------------------38
109----------------------38
9----------------------41
245----------------------41
243----------------------42
318----------------------42
21----------------------42
327----------------------43
344----------------------43
421----------------------43
326----------------------43
134----------------------43
283----------------------43
136----------------------44
336----------------------45
46----------------------45
149----------------------45
14----------------------46
239----------------------46
304----------------------46
44----------------------46
343----------------------47
460----------------------47
478----------------------47
182----------------------47
310----------------------48
317----------------------48
6----------------------48
254----------------------48
12----------------------48
420----------------------49
33----------------------49
280----------------------49
102----------------------49
110----------------------49
171----------------------49
313----------------------50
47----------------------50
88----------------------50
101----------------------50
115----------------------50
349----------------------51
251----------------------51
403----------------------51
434----------------------51
363----------------------51
431----------------------51
446----------------------51
246----------------------51
34----------------------51
320----------------------52
314----------------------52
402----------------------52
367----------------------52
354----------------------52
330----------------------52
328----------------------52
29----------------------52
427----------------------52
351----------------------53
270----------------------53
105----------------------53
43----------------------53
87----------------------53
52----------------------54
247----------------------55
476----------------------55
257----------------------55
292----------------------55
69----------------------55
98----------------------55
384----------------------56
240----------------------56
408----------------------56
442----------------------56
457----------------------56
315----------------------57
357----------------------57
385----------------------57
372----------------------57
382----------------------57
414----------------------57
472----------------------57
97----------------------57
126----------------------57
322----------------------58
405----------------------58
409----------------------58
376----------------------58
417----------------------58
250----------------------58
19----------------------58
66----------------------58
81----------------------58
73----------------------58
162----------------------58
308----------------------59
438----------------------59
418----------------------59
138----------------------59
307----------------------60
332----------------------60
311----------------------60
401----------------------60
286----------------------60
297----------------------60
92----------------------60
325----------------------61
383----------------------61
0----------------------62
437----------------------63
86----------------------64
75----------------------64
400----------------------65
464----------------------65
449----------------------65
281----------------------65
27----------------------65
59----------------------65
78----------------------65
45----------------------65
394----------------------66
388----------------------66
387----------------------66
389----------------------66
430----------------------66
295----------------------66
473----------------------66
39----------------------66
65----------------------66
333----------------------67
253----------------------67
459----------------------67
466----------------------67
261----------------------67
37----------------------67
133----------------------67
347----------------------68
375----------------------68
386----------------------68
157----------------------68
49----------------------69
334----------------------70
275----------------------70
95----------------------70
381----------------------71
28----------------------71
67----------------------71
23----------------------72
392----------------------73
436----------------------73
316----------------------73
324----------------------73
260----------------------73
80----------------------73
93----------------------73
352----------------------74
174----------------------74
435----------------------75
423----------------------75
26----------------------75
94----------------------75
345----------------------76
298----------------------76
278----------------------76
30----------------------76
56----------------------76
96----------------------76
306----------------------77
74----------------------77
346----------------------78
448----------------------78
309----------------------79
396----------------------79
447----------------------79
5----------------------79
54----------------------79
312----------------------80
85----------------------80
112----------------------80
151----------------------80
360----------------------81
454----------------------81
404----------------------82
305----------------------82
11----------------------82
140----------------------83
440----------------------84
413----------------------84
370----------------------84
129----------------------84
379----------------------85
477----------------------85
48----------------------85
57----------------------85
373----------------------86
362----------------------86
426----------------------86
36----------------------87
89----------------------87
410----------------------88
479----------------------88
300----------------------88
259----------------------88
20----------------------88
82----------------------88
406----------------------89
248----------------------89
337----------------------89
422----------------------89
263----------------------89
104----------------------89
361----------------------90
339----------------------90
264----------------------90
444----------------------91
293----------------------91
256----------------------91
106----------------------91
277----------------------93
63----------------------93
323----------------------94
288----------------------94
272----------------------94
369----------------------96
441----------------------96
303----------------------96
213----------------------96
439----------------------97
398----------------------97
458----------------------97
463----------------------97
353----------------------98
285----------------------98
35----------------------98
99----------------------98
291----------------------99
262----------------------99
228----------------------99
340----------------------100
407----------------------100
341----------------------100
335----------------------101
15----------------------101
241----------------------102
475----------------------102
450----------------------102
31----------------------102
132----------------------103
350----------------------104
433----------------------104
467----------------------104
267----------------------104
116----------------------104
7----------------------104
371----------------------105
321----------------------105
118----------------------105
412----------------------106
474----------------------106
13----------------------106
424----------------------107
180----------------------107
68----------------------107
348----------------------108
399----------------------108
419----------------------108
395----------------------109
355----------------------109
107----------------------109
393----------------------110
38----------------------110
411----------------------111
255----------------------111
455----------------------112
269----------------------113
284----------------------113
142----------------------113
302----------------------114
103----------------------115
108----------------------116
62----------------------116
358----------------------117
276----------------------117
139----------------------117
84----------------------118
299----------------------119
378----------------------119
91----------------------119
445----------------------121
222----------------------121
71----------------------122
119----------------------124
83----------------------124
244----------------------125
468----------------------125
198----------------------125
113----------------------126
451----------------------127
279----------------------127
18----------------------127
271----------------------129
289----------------------129
24----------------------129
274----------------------130
169----------------------132
141----------------------132
186----------------------132
432----------------------133
415----------------------133
173----------------------133
282----------------------134
453----------------------134
273----------------------135
268----------------------135
42----------------------136
117----------------------137
179----------------------140
114----------------------140
165----------------------141
301----------------------142
111----------------------142
100----------------------142
127----------------------143
79----------------------143
290----------------------144
208----------------------145
204----------------------145
124----------------------145
266----------------------146
61----------------------146
70----------------------146
125----------------------146
41----------------------147
167----------------------148
122----------------------148
131----------------------150
64----------------------150
391----------------------151
177----------------------151
147----------------------152
265----------------------153
135----------------------153
58----------------------154
121----------------------155
166----------------------156
190----------------------156
176----------------------158
168----------------------158
189----------------------159
207----------------------160
154----------------------160
202----------------------161
172----------------------164
163----------------------166
143----------------------166
188----------------------167
150----------------------167
231----------------------169
214----------------------170
181----------------------172
227----------------------174
197----------------------175
148----------------------176
156----------------------177
191----------------------179
195----------------------179
210----------------------183
192----------------------183
145----------------------184
158----------------------186
50----------------------186
170----------------------188
72----------------------191
209----------------------191
226----------------------192
187----------------------192
137----------------------194
123----------------------195
200----------------------196
120----------------------198
152----------------------199
194----------------------201
130----------------------203
196----------------------205
153----------------------205
201----------------------209
184----------------------210
199----------------------211
206----------------------212
221----------------------216
211----------------------221
183----------------------223
225----------------------227
160----------------------230
155----------------------231
175----------------------231
161----------------------231
220----------------------233
232----------------------239
164----------------------240
128----------------------241
178----------------------247
203----------------------248
233----------------------249
185----------------------257
193----------------------258
215----------------------264
217----------------------264
218----------------------277
216----------------------278
219----------------------287
234----------------------294
230----------------------300
238----------------------314
229----------------------319
223----------------------329
212----------------------346
237----------------------348
236----------------------375
235----------------------377
