1----------------------2
25----------------------2
242----------------------5
331----------------------6
224----------------------9
144----------------------16
239----------------------17
146----------------------17
159----------------------19
249----------------------31
364----------------------32
366----------------------32
287----------------------34
469----------------------35
470----------------------35
294----------------------35
397----------------------35
461----------------------36
296----------------------36
365----------------------37
380----------------------37
252----------------------37
359----------------------38
342----------------------38
338----------------------39
374----------------------39
356----------------------40
416----------------------40
368----------------------40
428----------------------40
443----------------------40
452----------------------40
456----------------------40
465----------------------41
319----------------------41
471----------------------41
258----------------------41
283----------------------42
462----------------------44
304----------------------44
280----------------------45
377----------------------45
425----------------------45
429----------------------45
390----------------------46
329----------------------48
292----------------------48
326----------------------49
327----------------------49
343----------------------49
344----------------------49
460----------------------49
245----------------------49
336----------------------49
254----------------------50
478----------------------50
420----------------------50
421----------------------50
318----------------------51
270----------------------51
17----------------------51
2----------------------52
3----------------------52
286----------------------54
76----------------------56
90----------------------56
317----------------------56
251----------------------57
434----------------------57
431----------------------58
246----------------------58
243----------------------59
349----------------------59
363----------------------59
275----------------------59
403----------------------59
446----------------------59
310----------------------59
297----------------------60
313----------------------60
281----------------------60
402----------------------60
247----------------------60
295----------------------61
314----------------------61
472----------------------61
457----------------------61
354----------------------61
427----------------------61
442----------------------61
328----------------------62
330----------------------62
257----------------------62
476----------------------62
408----------------------62
367----------------------63
320----------------------63
32----------------------63
16----------------------64
51----------------------64
53----------------------64
357----------------------65
385----------------------65
376----------------------65
315----------------------66
409----------------------66
261----------------------66
382----------------------66
250----------------------66
414----------------------66
464----------------------66
473----------------------66
449----------------------67
438----------------------67
405----------------------67
417----------------------67
418----------------------67
466----------------------67
351----------------------67
372----------------------67
278----------------------67
384----------------------67
311----------------------68
430----------------------68
437----------------------68
293----------------------68
401----------------------69
308----------------------69
400----------------------69
459----------------------69
260----------------------69
332----------------------69
253----------------------69
383----------------------69
298----------------------69
307----------------------69
322----------------------69
389----------------------70
394----------------------70
4----------------------70
10----------------------70
8----------------------70
22----------------------71
77----------------------72
60----------------------74
288----------------------74
109----------------------75
386----------------------76
387----------------------76
388----------------------76
205----------------------77
375----------------------78
325----------------------79
182----------------------81
171----------------------82
162----------------------82
149----------------------84
136----------------------86
134----------------------87
40----------------------88
300----------------------88
263----------------------88
55----------------------89
333----------------------89
477----------------------89
305----------------------89
436----------------------90
448----------------------90
240----------------------90
347----------------------90
272----------------------90
334----------------------90
264----------------------90
381----------------------90
454----------------------90
423----------------------90
447----------------------91
352----------------------91
324----------------------91
392----------------------91
285----------------------91
291----------------------91
21----------------------91
33----------------------91
435----------------------92
277----------------------92
14----------------------92
9----------------------92
440----------------------92
345----------------------93
267----------------------93
479----------------------93
413----------------------93
303----------------------93
306----------------------93
316----------------------93
259----------------------93
444----------------------93
404----------------------94
396----------------------94
256----------------------94
269----------------------94
379----------------------94
312----------------------94
360----------------------94
346----------------------95
309----------------------95
248----------------------95
373----------------------95
284----------------------95
458----------------------95
410----------------------95
370----------------------95
362----------------------95
426----------------------95
422----------------------95
463----------------------95
262----------------------95
441----------------------95
406----------------------95
29----------------------96
12----------------------96
6----------------------96
34----------------------96
44----------------------97
46----------------------97
110----------------------97
439----------------------97
115----------------------98
398----------------------99
105----------------------100
101----------------------101
102----------------------101
467----------------------101
337----------------------101
302----------------------101
361----------------------101
450----------------------101
475----------------------101
339----------------------102
276----------------------102
369----------------------102
353----------------------102
299----------------------102
407----------------------102
282----------------------102
323----------------------102
433----------------------103
474----------------------103
455----------------------103
289----------------------103
274----------------------104
340----------------------104
341----------------------104
271----------------------104
47----------------------104
52----------------------104
273----------------------105
335----------------------105
279----------------------105
371----------------------105
412----------------------105
98----------------------106
92----------------------106
97----------------------107
87----------------------108
88----------------------108
138----------------------109
133----------------------110
151----------------------111
393----------------------111
157----------------------112
445----------------------113
399----------------------113
174----------------------114
255----------------------114
424----------------------115
241----------------------116
411----------------------117
350----------------------118
355----------------------119
321----------------------120
126----------------------120
228----------------------122
419----------------------123
348----------------------123
222----------------------124
268----------------------124
395----------------------124
451----------------------124
19----------------------125
39----------------------126
213----------------------127
0----------------------127
43----------------------128
468----------------------129
266----------------------129
290----------------------129
453----------------------129
358----------------------129
27----------------------129
301----------------------130
378----------------------130
81----------------------130
86----------------------131
66----------------------131
69----------------------131
95----------------------132
37----------------------133
432----------------------133
59----------------------133
30----------------------134
415----------------------134
28----------------------134
45----------------------134
244----------------------135
23----------------------135
26----------------------135
265----------------------136
198----------------------136
5----------------------138
180----------------------138
11----------------------140
140----------------------141
129----------------------143
73----------------------143
112----------------------143
80----------------------144
75----------------------147
78----------------------147
93----------------------148
94----------------------148
96----------------------148
36----------------------149
49----------------------149
54----------------------149
56----------------------149
85----------------------149
391----------------------150
106----------------------150
67----------------------150
65----------------------151
57----------------------152
20----------------------152
74----------------------152
31----------------------153
116----------------------153
118----------------------153
82----------------------153
35----------------------154
89----------------------155
104----------------------155
208----------------------155
15----------------------157
132----------------------158
38----------------------159
7----------------------163
186----------------------163
13----------------------165
204----------------------165
48----------------------165
227----------------------169
231----------------------171
63----------------------171
107----------------------172
99----------------------173
119----------------------175
108----------------------175
202----------------------177
179----------------------179
169----------------------179
173----------------------180
24----------------------182
18----------------------184
142----------------------184
139----------------------184
207----------------------186
103----------------------186
68----------------------187
117----------------------187
84----------------------188
91----------------------188
114----------------------189
113----------------------189
197----------------------190
141----------------------191
165----------------------194
167----------------------194
168----------------------194
177----------------------195
189----------------------197
176----------------------197
190----------------------197
111----------------------198
226----------------------199
83----------------------201
62----------------------203
214----------------------203
71----------------------203
210----------------------204
100----------------------204
191----------------------205
181----------------------205
188----------------------206
172----------------------206
166----------------------207
147----------------------207
42----------------------207
163----------------------208
124----------------------210
127----------------------211
41----------------------212
79----------------------212
58----------------------212
125----------------------212
70----------------------213
61----------------------213
122----------------------213
131----------------------214
154----------------------214
192----------------------215
195----------------------217
64----------------------218
200----------------------220
209----------------------222
143----------------------224
135----------------------225
194----------------------227
156----------------------228
187----------------------228
150----------------------229
121----------------------230
158----------------------231
199----------------------231
148----------------------231
50----------------------234
196----------------------234
170----------------------234
221----------------------237
72----------------------238
201----------------------239
206----------------------240
145----------------------242
137----------------------243
152----------------------244
184----------------------245
211----------------------246
220----------------------248
225----------------------250
123----------------------255
153----------------------255
183----------------------256
120----------------------256
232----------------------257
130----------------------258
175----------------------261
160----------------------263
203----------------------264
161----------------------266
155----------------------271
185----------------------272
193----------------------272
164----------------------273
178----------------------274
233----------------------275
217----------------------276
128----------------------279
215----------------------288
218----------------------291
216----------------------292
234----------------------301
219----------------------304
230----------------------309
229----------------------316
238----------------------321
223----------------------322
212----------------------329
237----------------------334
236----------------------340
235----------------------341
