1_ep_expo.txtStart time  2 #Finish Time: 2 GPU: 2 _ep: 3

25_ep_expo.txtStart time  2 #Finish Time: 2 GPU: 2 _ep: 61

136_ep_expo.txtStart time  9 #Finish Time: 9 GPU: 8 _ep: 138

144_ep_expo.txtStart time  10 #Finish Time: 10 GPU: 8 _ep: 113

146_ep_expo.txtStart time  11 #Finish Time: 11 GPU: 8 _ep: 34

294_ep_expo.txtStart time  11 #Finish Time: 11 GPU: 1 _ep: 171

159_ep_expo.txtStart time  12 #Finish Time: 12 GPU: 8 _ep: 17

242_ep_expo.txtStart time  16 #Finish Time: 16 GPU: 1 _ep: 35

213_ep_expo.txtStart time  21 #Finish Time: 21 GPU: 16 _ep: 133

364_ep_expo.txtStart time  23 #Finish Time: 23 GPU: 1 _ep: 61

366_ep_expo.txtStart time  23 #Finish Time: 23 GPU: 1 _ep: 80

228_ep_expo.txtStart time  26 #Finish Time: 26 GPU: 16 _ep: 145

461_ep_expo.txtStart time  32 #Finish Time: 32 GPU: 1 _ep: 132

239_ep_expo.txtStart time  33 #Finish Time: 33 GPU: 32 _ep: 48

331_ep_expo.txtStart time  34 #Finish Time: 34 GPU: 1 _ep: 16

470_ep_expo.txtStart time  33 #Finish Time: 34 GPU: 1 _ep: 287

258_ep_expo.txtStart time  33 #Finish Time: 34 GPU: 1 _ep: 380

456_ep_expo.txtStart time  32 #Finish Time: 36 GPU: 1 _ep: 422

287_ep_expo.txtStart time  31 #Finish Time: 36 GPU: 1 _ep: 89

296_ep_expo.txtStart time  31 #Finish Time: 36 GPU: 1 _ep: 121

365_ep_expo.txtStart time  23 #Finish Time: 37 GPU: 1 _ep: 153

368_ep_expo.txtStart time  23 #Finish Time: 37 GPU: 1 _ep: 388

249_ep_expo.txtStart time  22 #Finish Time: 37 GPU: 1 _ep: 111

252_ep_expo.txtStart time  22 #Finish Time: 37 GPU: 1 _ep: 125

359_ep_expo.txtStart time  30 #Finish Time: 38 GPU: 1 _ep: 259

377_ep_expo.txtStart time  30 #Finish Time: 38 GPU: 1 _ep: 546

380_ep_expo.txtStart time  27 #Finish Time: 39 GPU: 1 _ep: 249

356_ep_expo.txtStart time  25 #Finish Time: 40 GPU: 1 _ep: 341

254_ep_expo.txtStart time  22 #Finish Time: 40 GPU: 1 _ep: 620

465_ep_expo.txtStart time  32 #Finish Time: 40 GPU: 1 _ep: 281

304_ep_expo.txtStart time  31 #Finish Time: 40 GPU: 1 _ep: 580

319_ep_expo.txtStart time  31 #Finish Time: 40 GPU: 1 _ep: 336

338_ep_expo.txtStart time  30 #Finish Time: 41 GPU: 1 _ep: 413

342_ep_expo.txtStart time  30 #Finish Time: 41 GPU: 1 _ep: 386

280_ep_expo.txtStart time  34 #Finish Time: 41 GPU: 1 _ep: 587

390_ep_expo.txtStart time  34 #Finish Time: 41 GPU: 1 _ep: 466

397_ep_expo.txtStart time  34 #Finish Time: 41 GPU: 1 _ep: 248

469_ep_expo.txtStart time  33 #Finish Time: 42 GPU: 1 _ep: 155

471_ep_expo.txtStart time  33 #Finish Time: 42 GPU: 1 _ep: 309

3_ep_expo.txtStart time  2 #Finish Time: 42 GPU: 2 _ep: 305

283_ep_expo.txtStart time  34 #Finish Time: 43 GPU: 1 _ep: 412

425_ep_expo.txtStart time  34 #Finish Time: 44 GPU: 1 _ep: 451

452_ep_expo.txtStart time  15 #Finish Time: 45 GPU: 1 _ep: 377

245_ep_expo.txtStart time  26 #Finish Time: 46 GPU: 1 _ep: 591

428_ep_expo.txtStart time  32 #Finish Time: 48 GPU: 1 _ep: 393

443_ep_expo.txtStart time  32 #Finish Time: 48 GPU: 1 _ep: 295

478_ep_expo.txtStart time  33 #Finish Time: 49 GPU: 1 _ep: 666

257_ep_expo.txtStart time  33 #Finish Time: 49 GPU: 1 _ep: 934

374_ep_expo.txtStart time  30 #Finish Time: 49 GPU: 1 _ep: 341

429_ep_expo.txtStart time  29 #Finish Time: 49 GPU: 1 _ep: 506

462_ep_expo.txtStart time  32 #Finish Time: 50 GPU: 1 _ep: 501

310_ep_expo.txtStart time  31 #Finish Time: 50 GPU: 1 _ep: 745

317_ep_expo.txtStart time  31 #Finish Time: 50 GPU: 1 _ep: 793

416_ep_expo.txtStart time  21 #Finish Time: 50 GPU: 1 _ep: 421

327_ep_expo.txtStart time  12 #Finish Time: 50 GPU: 1 _ep: 653

408_ep_expo.txtStart time  34 #Finish Time: 51 GPU: 1 _ep: 1012

251_ep_expo.txtStart time  22 #Finish Time: 51 GPU: 1 _ep: 736

336_ep_expo.txtStart time  30 #Finish Time: 52 GPU: 1 _ep: 636

343_ep_expo.txtStart time  30 #Finish Time: 52 GPU: 1 _ep: 705

344_ep_expo.txtStart time  30 #Finish Time: 52 GPU: 1 _ep: 653

329_ep_expo.txtStart time  34 #Finish Time: 52 GPU: 1 _ep: 497

394_ep_expo.txtStart time  34 #Finish Time: 52 GPU: 1 _ep: 1174

2_ep_expo.txtStart time  2 #Finish Time: 53 GPU: 2 _ep: 312

109_ep_expo.txtStart time  6 #Finish Time: 54 GPU: 4 _ep: 308

77_ep_expo.txtStart time  4 #Finish Time: 55 GPU: 4 _ep: 373

286_ep_expo.txtStart time  34 #Finish Time: 57 GPU: 1 _ep: 793

363_ep_expo.txtStart time  23 #Finish Time: 58 GPU: 1 _ep: 842

367_ep_expo.txtStart time  23 #Finish Time: 58 GPU: 1 _ep: 984

292_ep_expo.txtStart time  31 #Finish Time: 58 GPU: 1 _ep: 749

297_ep_expo.txtStart time  31 #Finish Time: 58 GPU: 1 _ep: 818

313_ep_expo.txtStart time  31 #Finish Time: 58 GPU: 1 _ep: 845

318_ep_expo.txtStart time  31 #Finish Time: 58 GPU: 1 _ep: 644

320_ep_expo.txtStart time  31 #Finish Time: 58 GPU: 1 _ep: 916

420_ep_expo.txtStart time  21 #Finish Time: 58 GPU: 1 _ep: 701

421_ep_expo.txtStart time  21 #Finish Time: 58 GPU: 1 _ep: 625

243_ep_expo.txtStart time  16 #Finish Time: 58 GPU: 1 _ep: 756

403_ep_expo.txtStart time  14 #Finish Time: 58 GPU: 1 _ep: 815

402_ep_expo.txtStart time  14 #Finish Time: 58 GPU: 1 _ep: 931

427_ep_expo.txtStart time  32 #Finish Time: 59 GPU: 1 _ep: 925

349_ep_expo.txtStart time  7 #Finish Time: 60 GPU: 1 _ep: 860

270_ep_expo.txtStart time  28 #Finish Time: 60 GPU: 1 _ep: 625

281_ep_expo.txtStart time  34 #Finish Time: 60 GPU: 1 _ep: 893

442_ep_expo.txtStart time  32 #Finish Time: 60 GPU: 1 _ep: 904

472_ep_expo.txtStart time  33 #Finish Time: 60 GPU: 1 _ep: 929

476_ep_expo.txtStart time  33 #Finish Time: 60 GPU: 1 _ep: 898

434_ep_expo.txtStart time  29 #Finish Time: 61 GPU: 1 _ep: 822

449_ep_expo.txtStart time  32 #Finish Time: 61 GPU: 1 _ep: 1136

326_ep_expo.txtStart time  12 #Finish Time: 61 GPU: 1 _ep: 666

295_ep_expo.txtStart time  11 #Finish Time: 61 GPU: 1 _ep: 930

246_ep_expo.txtStart time  22 #Finish Time: 61 GPU: 1 _ep: 831

457_ep_expo.txtStart time  32 #Finish Time: 62 GPU: 1 _ep: 960

460_ep_expo.txtStart time  32 #Finish Time: 62 GPU: 1 _ep: 578

298_ep_expo.txtStart time  31 #Finish Time: 62 GPU: 1 _ep: 1197

418_ep_expo.txtStart time  21 #Finish Time: 62 GPU: 1 _ep: 1094

32_ep_expo.txtStart time  24 #Finish Time: 63 GPU: 2 _ep: 501

53_ep_expo.txtStart time  29 #Finish Time: 64 GPU: 3 _ep: 360

55_ep_expo.txtStart time  29 #Finish Time: 64 GPU: 3 _ep: 429

16_ep_expo.txtStart time  2 #Finish Time: 65 GPU: 2 _ep: 402

17_ep_expo.txtStart time  2 #Finish Time: 65 GPU: 2 _ep: 434

4_ep_expo.txtStart time  2 #Finish Time: 65 GPU: 2 _ep: 586

464_ep_expo.txtStart time  32 #Finish Time: 65 GPU: 1 _ep: 1184

288_ep_expo.txtStart time  31 #Finish Time: 65 GPU: 1 _ep: 1395

305_ep_expo.txtStart time  31 #Finish Time: 65 GPU: 1 _ep: 1393

51_ep_expo.txtStart time  29 #Finish Time: 66 GPU: 3 _ep: 378

382_ep_expo.txtStart time  20 #Finish Time: 66 GPU: 1 _ep: 1118

311_ep_expo.txtStart time  17 #Finish Time: 66 GPU: 1 _ep: 1278

401_ep_expo.txtStart time  14 #Finish Time: 66 GPU: 1 _ep: 1211

328_ep_expo.txtStart time  34 #Finish Time: 66 GPU: 1 _ep: 1012

332_ep_expo.txtStart time  34 #Finish Time: 66 GPU: 1 _ep: 1262

387_ep_expo.txtStart time  34 #Finish Time: 66 GPU: 1 _ep: 1348

400_ep_expo.txtStart time  34 #Finish Time: 66 GPU: 1 _ep: 1280

409_ep_expo.txtStart time  34 #Finish Time: 66 GPU: 1 _ep: 1101

307_ep_expo.txtStart time  6 #Finish Time: 66 GPU: 1 _ep: 1195

438_ep_expo.txtStart time  29 #Finish Time: 67 GPU: 1 _ep: 1159

414_ep_expo.txtStart time  21 #Finish Time: 67 GPU: 1 _ep: 1047

446_ep_expo.txtStart time  32 #Finish Time: 67 GPU: 1 _ep: 758

447_ep_expo.txtStart time  32 #Finish Time: 67 GPU: 1 _ep: 1442

261_ep_expo.txtStart time  33 #Finish Time: 67 GPU: 1 _ep: 1195

275_ep_expo.txtStart time  10 #Finish Time: 67 GPU: 1 _ep: 826

351_ep_expo.txtStart time  25 #Finish Time: 68 GPU: 1 _ep: 1016

384_ep_expo.txtStart time  30 #Finish Time: 68 GPU: 1 _ep: 1044

437_ep_expo.txtStart time  29 #Finish Time: 68 GPU: 1 _ep: 1202

278_ep_expo.txtStart time  34 #Finish Time: 68 GPU: 1 _ep: 1107

247_ep_expo.txtStart time  22 #Finish Time: 68 GPU: 1 _ep: 996

383_ep_expo.txtStart time  27 #Finish Time: 69 GPU: 1 _ep: 1224

375_ep_expo.txtStart time  30 #Finish Time: 69 GPU: 1 _ep: 1374

385_ep_expo.txtStart time  30 #Finish Time: 69 GPU: 1 _ep: 1076

396_ep_expo.txtStart time  34 #Finish Time: 69 GPU: 1 _ep: 1675

405_ep_expo.txtStart time  8 #Finish Time: 69 GPU: 1 _ep: 1052

308_ep_expo.txtStart time  6 #Finish Time: 69 GPU: 1 _ep: 1207

22_ep_expo.txtStart time  2 #Finish Time: 69 GPU: 2 _ep: 670

354_ep_expo.txtStart time  25 #Finish Time: 69 GPU: 1 _ep: 951

253_ep_expo.txtStart time  22 #Finish Time: 70 GPU: 1 _ep: 1229

459_ep_expo.txtStart time  32 #Finish Time: 70 GPU: 1 _ep: 1164

314_ep_expo.txtStart time  31 #Finish Time: 70 GPU: 1 _ep: 1009

315_ep_expo.txtStart time  31 #Finish Time: 70 GPU: 1 _ep: 1046

6_ep_expo.txtStart time  2 #Finish Time: 70 GPU: 2 _ep: 917

9_ep_expo.txtStart time  2 #Finish Time: 70 GPU: 2 _ep: 751

102_ep_expo.txtStart time  6 #Finish Time: 71 GPU: 4 _ep: 463

105_ep_expo.txtStart time  6 #Finish Time: 71 GPU: 4 _ep: 496

250_ep_expo.txtStart time  22 #Finish Time: 71 GPU: 1 _ep: 1116

198_ep_expo.txtStart time  18 #Finish Time: 73 GPU: 8 _ep: 523

182_ep_expo.txtStart time  16 #Finish Time: 75 GPU: 8 _ep: 145

174_ep_expo.txtStart time  15 #Finish Time: 76 GPU: 8 _ep: 271

171_ep_expo.txtStart time  14 #Finish Time: 77 GPU: 8 _ep: 180

162_ep_expo.txtStart time  13 #Finish Time: 78 GPU: 8 _ep: 280

149_ep_expo.txtStart time  11 #Finish Time: 80 GPU: 8 _ep: 137

325_ep_expo.txtStart time  34 #Finish Time: 84 GPU: 1 _ep: 1324

330_ep_expo.txtStart time  34 #Finish Time: 84 GPU: 1 _ep: 979

333_ep_expo.txtStart time  34 #Finish Time: 84 GPU: 1 _ep: 1418

60_ep_expo.txtStart time  3 #Finish Time: 85 GPU: 4 _ep: 358

76_ep_expo.txtStart time  4 #Finish Time: 86 GPU: 4 _ep: 251

110_ep_expo.txtStart time  6 #Finish Time: 86 GPU: 4 _ep: 416

90_ep_expo.txtStart time  5 #Finish Time: 87 GPU: 4 _ep: 218

477_ep_expo.txtStart time  33 #Finish Time: 87 GPU: 1 _ep: 1476

381_ep_expo.txtStart time  20 #Finish Time: 87 GPU: 1 _ep: 1482

272_ep_expo.txtStart time  33 #Finish Time: 87 GPU: 1 _ep: 1413

466_ep_expo.txtStart time  32 #Finish Time: 87 GPU: 1 _ep: 1109

444_ep_expo.txtStart time  32 #Finish Time: 87 GPU: 1 _ep: 1654

357_ep_expo.txtStart time  25 #Finish Time: 87 GPU: 1 _ep: 1000

372_ep_expo.txtStart time  30 #Finish Time: 87 GPU: 1 _ep: 1138

376_ep_expo.txtStart time  30 #Finish Time: 87 GPU: 1 _ep: 1157

389_ep_expo.txtStart time  34 #Finish Time: 88 GPU: 1 _ep: 1294

260_ep_expo.txtStart time  33 #Finish Time: 88 GPU: 1 _ep: 1349

435_ep_expo.txtStart time  29 #Finish Time: 88 GPU: 1 _ep: 1528

436_ep_expo.txtStart time  29 #Finish Time: 88 GPU: 1 _ep: 1408

431_ep_expo.txtStart time  29 #Finish Time: 88 GPU: 1 _ep: 885

40_ep_expo.txtStart time  27 #Finish Time: 89 GPU: 3 _ep: 530

347_ep_expo.txtStart time  30 #Finish Time: 89 GPU: 1 _ep: 1441

322_ep_expo.txtStart time  31 #Finish Time: 90 GPU: 1 _ep: 1209

379_ep_expo.txtStart time  30 #Finish Time: 90 GPU: 1 _ep: 1811

430_ep_expo.txtStart time  29 #Finish Time: 90 GPU: 1 _ep: 1296

406_ep_expo.txtStart time  8 #Finish Time: 90 GPU: 1 _ep: 1731

316_ep_expo.txtStart time  31 #Finish Time: 91 GPU: 1 _ep: 1557

423_ep_expo.txtStart time  21 #Finish Time: 91 GPU: 1 _ep: 1534

277_ep_expo.txtStart time  34 #Finish Time: 91 GPU: 1 _ep: 1530

293_ep_expo.txtStart time  11 #Finish Time: 91 GPU: 1 _ep: 1353

410_ep_expo.txtStart time  9 #Finish Time: 91 GPU: 1 _ep: 1904

263_ep_expo.txtStart time  33 #Finish Time: 91 GPU: 1 _ep: 1568

417_ep_expo.txtStart time  21 #Finish Time: 91 GPU: 1 _ep: 1155

473_ep_expo.txtStart time  33 #Finish Time: 91 GPU: 1 _ep: 1174

479_ep_expo.txtStart time  33 #Finish Time: 91 GPU: 1 _ep: 1721

373_ep_expo.txtStart time  30 #Finish Time: 91 GPU: 1 _ep: 1837

285_ep_expo.txtStart time  34 #Finish Time: 92 GPU: 1 _ep: 1488

14_ep_expo.txtStart time  2 #Finish Time: 92 GPU: 2 _ep: 816

8_ep_expo.txtStart time  2 #Finish Time: 92 GPU: 2 _ep: 663

10_ep_expo.txtStart time  2 #Finish Time: 92 GPU: 2 _ep: 675

34_ep_expo.txtStart time  24 #Finish Time: 92 GPU: 2 _ep: 936

458_ep_expo.txtStart time  32 #Finish Time: 92 GPU: 1 _ep: 1902

448_ep_expo.txtStart time  32 #Finish Time: 93 GPU: 1 _ep: 1437

454_ep_expo.txtStart time  32 #Finish Time: 93 GPU: 1 _ep: 1470

264_ep_expo.txtStart time  33 #Finish Time: 93 GPU: 1 _ep: 1497

334_ep_expo.txtStart time  19 #Finish Time: 93 GPU: 1 _ep: 1565

259_ep_expo.txtStart time  33 #Finish Time: 93 GPU: 1 _ep: 1609

352_ep_expo.txtStart time  25 #Finish Time: 93 GPU: 1 _ep: 1482

309_ep_expo.txtStart time  6 #Finish Time: 94 GPU: 1 _ep: 1757

303_ep_expo.txtStart time  5 #Finish Time: 94 GPU: 1 _ep: 1625

248_ep_expo.txtStart time  22 #Finish Time: 94 GPU: 1 _ep: 1862

300_ep_expo.txtStart time  4 #Finish Time: 94 GPU: 1 _ep: 1599

240_ep_expo.txtStart time  3 #Finish Time: 94 GPU: 1 _ep: 1397

312_ep_expo.txtStart time  17 #Finish Time: 94 GPU: 1 _ep: 1877

284_ep_expo.txtStart time  34 #Finish Time: 94 GPU: 1 _ep: 1877

306_ep_expo.txtStart time  31 #Finish Time: 94 GPU: 1 _ep: 1775

386_ep_expo.txtStart time  30 #Finish Time: 94 GPU: 1 _ep: 1397

450_ep_expo.txtStart time  32 #Finish Time: 94 GPU: 1 _ep: 2045

392_ep_expo.txtStart time  34 #Finish Time: 95 GPU: 1 _ep: 1512

439_ep_expo.txtStart time  29 #Finish Time: 95 GPU: 1 _ep: 2061

324_ep_expo.txtStart time  31 #Finish Time: 95 GPU: 1 _ep: 1526

422_ep_expo.txtStart time  21 #Finish Time: 95 GPU: 1 _ep: 1902

269_ep_expo.txtStart time  33 #Finish Time: 95 GPU: 1 _ep: 1863

262_ep_expo.txtStart time  33 #Finish Time: 95 GPU: 1 _ep: 1802

370_ep_expo.txtStart time  23 #Finish Time: 95 GPU: 1 _ep: 1833

440_ep_expo.txtStart time  29 #Finish Time: 95 GPU: 1 _ep: 1697

388_ep_expo.txtStart time  34 #Finish Time: 95 GPU: 1 _ep: 1344

12_ep_expo.txtStart time  2 #Finish Time: 96 GPU: 2 _ep: 950

33_ep_expo.txtStart time  24 #Finish Time: 96 GPU: 2 _ep: 852

21_ep_expo.txtStart time  2 #Finish Time: 96 GPU: 2 _ep: 845

115_ep_expo.txtStart time  6 #Finish Time: 97 GPU: 4 _ep: 484

455_ep_expo.txtStart time  32 #Finish Time: 98 GPU: 1 _ep: 2352

404_ep_expo.txtStart time  34 #Finish Time: 98 GPU: 1 _ep: 1621

413_ep_expo.txtStart time  34 #Finish Time: 98 GPU: 1 _ep: 1746

426_ep_expo.txtStart time  34 #Finish Time: 98 GPU: 1 _ep: 1850

346_ep_expo.txtStart time  30 #Finish Time: 98 GPU: 1 _ep: 1763

302_ep_expo.txtStart time  5 #Finish Time: 98 GPU: 1 _ep: 2085

361_ep_expo.txtStart time  13 #Finish Time: 98 GPU: 1 _ep: 1850

369_ep_expo.txtStart time  23 #Finish Time: 99 GPU: 1 _ep: 2017

256_ep_expo.txtStart time  22 #Finish Time: 100 GPU: 1 _ep: 1869

360_ep_expo.txtStart time  23 #Finish Time: 102 GPU: 1 _ep: 1793

267_ep_expo.txtStart time  33 #Finish Time: 102 GPU: 1 _ep: 1721

337_ep_expo.txtStart time  30 #Finish Time: 102 GPU: 1 _ep: 2055

323_ep_expo.txtStart time  31 #Finish Time: 102 GPU: 1 _ep: 2183

433_ep_expo.txtStart time  29 #Finish Time: 102 GPU: 1 _ep: 2271

467_ep_expo.txtStart time  34 #Finish Time: 102 GPU: 1 _ep: 2076

241_ep_expo.txtStart time  3 #Finish Time: 102 GPU: 1 _ep: 2652

345_ep_expo.txtStart time  30 #Finish Time: 102 GPU: 1 _ep: 1689

289_ep_expo.txtStart time  31 #Finish Time: 102 GPU: 1 _ep: 2277

291_ep_expo.txtStart time  31 #Finish Time: 102 GPU: 1 _ep: 1574

362_ep_expo.txtStart time  13 #Finish Time: 103 GPU: 1 _ep: 1927

475_ep_expo.txtStart time  33 #Finish Time: 104 GPU: 1 _ep: 2059

271_ep_expo.txtStart time  28 #Finish Time: 104 GPU: 1 _ep: 2263

279_ep_expo.txtStart time  34 #Finish Time: 104 GPU: 1 _ep: 2459

463_ep_expo.txtStart time  32 #Finish Time: 104 GPU: 1 _ep: 1963

44_ep_expo.txtStart time  28 #Finish Time: 104 GPU: 3 _ep: 653

46_ep_expo.txtStart time  28 #Finish Time: 104 GPU: 3 _ep: 649

274_ep_expo.txtStart time  10 #Finish Time: 105 GPU: 1 _ep: 2352

282_ep_expo.txtStart time  34 #Finish Time: 105 GPU: 1 _ep: 2141

321_ep_expo.txtStart time  31 #Finish Time: 105 GPU: 1 _ep: 2481

398_ep_expo.txtStart time  34 #Finish Time: 105 GPU: 1 _ep: 2058

273_ep_expo.txtStart time  34 #Finish Time: 105 GPU: 1 _ep: 2530

474_ep_expo.txtStart time  33 #Finish Time: 105 GPU: 1 _ep: 2341

419_ep_expo.txtStart time  21 #Finish Time: 105 GPU: 1 _ep: 2627

441_ep_expo.txtStart time  32 #Finish Time: 105 GPU: 1 _ep: 1914

75_ep_expo.txtStart time  4 #Finish Time: 105 GPU: 4 _ep: 833

340_ep_expo.txtStart time  30 #Finish Time: 106 GPU: 1 _ep: 2281

276_ep_expo.txtStart time  34 #Finish Time: 106 GPU: 1 _ep: 1990

399_ep_expo.txtStart time  34 #Finish Time: 106 GPU: 1 _ep: 2589

407_ep_expo.txtStart time  34 #Finish Time: 106 GPU: 1 _ep: 2181

468_ep_expo.txtStart time  34 #Finish Time: 106 GPU: 1 _ep: 2847

134_ep_expo.txtStart time  9 #Finish Time: 106 GPU: 8 _ep: 132

138_ep_expo.txtStart time  9 #Finish Time: 107 GPU: 8 _ep: 267

126_ep_expo.txtStart time  8 #Finish Time: 107 GPU: 8 _ep: 297

339_ep_expo.txtStart time  30 #Finish Time: 109 GPU: 1 _ep: 2076

157_ep_expo.txtStart time  12 #Finish Time: 110 GPU: 8 _ep: 336

29_ep_expo.txtStart time  2 #Finish Time: 111 GPU: 2 _ep: 1024

355_ep_expo.txtStart time  25 #Finish Time: 113 GPU: 1 _ep: 2689

205_ep_expo.txtStart time  19 #Finish Time: 116 GPU: 8 _ep: 254

224_ep_expo.txtStart time  25 #Finish Time: 119 GPU: 16 _ep: 78

358_ep_expo.txtStart time  30 #Finish Time: 119 GPU: 1 _ep: 2907

412_ep_expo.txtStart time  34 #Finish Time: 123 GPU: 1 _ep: 2386

299_ep_expo.txtStart time  31 #Finish Time: 125 GPU: 1 _ep: 2231

87_ep_expo.txtStart time  4 #Finish Time: 125 GPU: 4 _ep: 644

97_ep_expo.txtStart time  5 #Finish Time: 125 GPU: 4 _ep: 726

371_ep_expo.txtStart time  23 #Finish Time: 125 GPU: 1 _ep: 2441

341_ep_expo.txtStart time  30 #Finish Time: 126 GPU: 1 _ep: 2458

98_ep_expo.txtStart time  5 #Finish Time: 126 GPU: 4 _ep: 666

101_ep_expo.txtStart time  5 #Finish Time: 126 GPU: 4 _ep: 546

88_ep_expo.txtStart time  5 #Finish Time: 127 GPU: 4 _ep: 594

348_ep_expo.txtStart time  25 #Finish Time: 127 GPU: 1 _ep: 2736

445_ep_expo.txtStart time  32 #Finish Time: 128 GPU: 1 _ep: 2599

255_ep_expo.txtStart time  22 #Finish Time: 128 GPU: 1 _ep: 2574

19_ep_expo.txtStart time  2 #Finish Time: 128 GPU: 2 _ep: 1307

395_ep_expo.txtStart time  34 #Finish Time: 129 GPU: 1 _ep: 2714

393_ep_expo.txtStart time  34 #Finish Time: 129 GPU: 1 _ep: 2615

424_ep_expo.txtStart time  34 #Finish Time: 129 GPU: 1 _ep: 2577

266_ep_expo.txtStart time  33 #Finish Time: 130 GPU: 1 _ep: 2905

335_ep_expo.txtStart time  30 #Finish Time: 130 GPU: 1 _ep: 2427

350_ep_expo.txtStart time  7 #Finish Time: 130 GPU: 1 _ep: 2472

432_ep_expo.txtStart time  29 #Finish Time: 130 GPU: 1 _ep: 3259

411_ep_expo.txtStart time  9 #Finish Time: 130 GPU: 1 _ep: 2703

353_ep_expo.txtStart time  25 #Finish Time: 130 GPU: 1 _ep: 2222

30_ep_expo.txtStart time  33 #Finish Time: 130 GPU: 2 _ep: 1798

37_ep_expo.txtStart time  26 #Finish Time: 130 GPU: 2 _ep: 1469

0_ep_expo.txtStart time  2 #Finish Time: 131 GPU: 2 _ep: 1507

92_ep_expo.txtStart time  5 #Finish Time: 131 GPU: 4 _ep: 724

95_ep_expo.txtStart time  5 #Finish Time: 132 GPU: 4 _ep: 907

73_ep_expo.txtStart time  3 #Finish Time: 133 GPU: 4 _ep: 880

69_ep_expo.txtStart time  3 #Finish Time: 134 GPU: 4 _ep: 765

301_ep_expo.txtStart time  4 #Finish Time: 134 GPU: 1 _ep: 2999

290_ep_expo.txtStart time  31 #Finish Time: 134 GPU: 1 _ep: 2899

378_ep_expo.txtStart time  30 #Finish Time: 134 GPU: 1 _ep: 2926

43_ep_expo.txtStart time  28 #Finish Time: 134 GPU: 3 _ep: 1023

45_ep_expo.txtStart time  28 #Finish Time: 134 GPU: 3 _ep: 1258

47_ep_expo.txtStart time  28 #Finish Time: 135 GPU: 3 _ep: 817

268_ep_expo.txtStart time  33 #Finish Time: 135 GPU: 1 _ep: 2775

39_ep_expo.txtStart time  26 #Finish Time: 135 GPU: 2 _ep: 1426

27_ep_expo.txtStart time  2 #Finish Time: 135 GPU: 2 _ep: 1514

265_ep_expo.txtStart time  33 #Finish Time: 136 GPU: 1 _ep: 3577

244_ep_expo.txtStart time  26 #Finish Time: 136 GPU: 1 _ep: 3462

453_ep_expo.txtStart time  15 #Finish Time: 136 GPU: 1 _ep: 3054

20_ep_expo.txtStart time  2 #Finish Time: 136 GPU: 2 _ep: 2168

23_ep_expo.txtStart time  2 #Finish Time: 136 GPU: 2 _ep: 1734

451_ep_expo.txtStart time  32 #Finish Time: 137 GPU: 1 _ep: 2677

78_ep_expo.txtStart time  4 #Finish Time: 137 GPU: 4 _ep: 929

81_ep_expo.txtStart time  4 #Finish Time: 137 GPU: 4 _ep: 762

86_ep_expo.txtStart time  4 #Finish Time: 137 GPU: 4 _ep: 809

66_ep_expo.txtStart time  3 #Finish Time: 138 GPU: 4 _ep: 835

80_ep_expo.txtStart time  4 #Finish Time: 138 GPU: 4 _ep: 970

129_ep_expo.txtStart time  8 #Finish Time: 139 GPU: 8 _ep: 552

415_ep_expo.txtStart time  21 #Finish Time: 143 GPU: 1 _ep: 3416

179_ep_expo.txtStart time  15 #Finish Time: 143 GPU: 8 _ep: 778

391_ep_expo.txtStart time  34 #Finish Time: 145 GPU: 1 _ep: 4290

59_ep_expo.txtStart time  20 #Finish Time: 146 GPU: 3 _ep: 1124

151_ep_expo.txtStart time  11 #Finish Time: 147 GPU: 8 _ep: 366

56_ep_expo.txtStart time  18 #Finish Time: 148 GPU: 3 _ep: 1354

133_ep_expo.txtStart time  9 #Finish Time: 148 GPU: 8 _ep: 402

140_ep_expo.txtStart time  10 #Finish Time: 149 GPU: 8 _ep: 468

52_ep_expo.txtStart time  29 #Finish Time: 149 GPU: 3 _ep: 867

94_ep_expo.txtStart time  5 #Finish Time: 150 GPU: 4 _ep: 955

28_ep_expo.txtStart time  2 #Finish Time: 150 GPU: 2 _ep: 1742

26_ep_expo.txtStart time  2 #Finish Time: 151 GPU: 2 _ep: 1815

54_ep_expo.txtStart time  29 #Finish Time: 151 GPU: 3 _ep: 1409

93_ep_expo.txtStart time  5 #Finish Time: 151 GPU: 4 _ep: 875

65_ep_expo.txtStart time  3 #Finish Time: 152 GPU: 4 _ep: 1065

96_ep_expo.txtStart time  5 #Finish Time: 152 GPU: 4 _ep: 1075

112_ep_expo.txtStart time  6 #Finish Time: 153 GPU: 4 _ep: 1019

36_ep_expo.txtStart time  26 #Finish Time: 154 GPU: 2 _ep: 2098

48_ep_expo.txtStart time  28 #Finish Time: 154 GPU: 3 _ep: 1691

49_ep_expo.txtStart time  28 #Finish Time: 154 GPU: 3 _ep: 1354

35_ep_expo.txtStart time  24 #Finish Time: 154 GPU: 2 _ep: 2317

5_ep_expo.txtStart time  2 #Finish Time: 155 GPU: 2 _ep: 1943

15_ep_expo.txtStart time  2 #Finish Time: 155 GPU: 2 _ep: 2566

31_ep_expo.txtStart time  24 #Finish Time: 155 GPU: 2 _ep: 2500

11_ep_expo.txtStart time  2 #Finish Time: 155 GPU: 2 _ep: 2034

85_ep_expo.txtStart time  4 #Finish Time: 156 GPU: 4 _ep: 1132

104_ep_expo.txtStart time  6 #Finish Time: 156 GPU: 4 _ep: 1200

106_ep_expo.txtStart time  6 #Finish Time: 156 GPU: 4 _ep: 1225

89_ep_expo.txtStart time  5 #Finish Time: 156 GPU: 4 _ep: 1260

67_ep_expo.txtStart time  3 #Finish Time: 156 GPU: 4 _ep: 1061

118_ep_expo.txtStart time  7 #Finish Time: 157 GPU: 4 _ep: 1297

132_ep_expo.txtStart time  9 #Finish Time: 158 GPU: 8 _ep: 677

139_ep_expo.txtStart time  10 #Finish Time: 159 GPU: 8 _ep: 809

180_ep_expo.txtStart time  15 #Finish Time: 161 GPU: 8 _ep: 476

57_ep_expo.txtStart time  20 #Finish Time: 165 GPU: 3 _ep: 1602

222_ep_expo.txtStart time  24 #Finish Time: 167 GPU: 16 _ep: 200

207_ep_expo.txtStart time  19 #Finish Time: 167 GPU: 8 _ep: 809

227_ep_expo.txtStart time  26 #Finish Time: 168 GPU: 16 _ep: 413

7_ep_expo.txtStart time  2 #Finish Time: 169 GPU: 2 _ep: 2681

38_ep_expo.txtStart time  26 #Finish Time: 174 GPU: 2 _ep: 2809

214_ep_expo.txtStart time  21 #Finish Time: 175 GPU: 16 _ep: 515

116_ep_expo.txtStart time  7 #Finish Time: 176 GPU: 4 _ep: 1413

82_ep_expo.txtStart time  4 #Finish Time: 177 GPU: 4 _ep: 1263

74_ep_expo.txtStart time  4 #Finish Time: 178 GPU: 4 _ep: 1149

13_ep_expo.txtStart time  2 #Finish Time: 178 GPU: 2 _ep: 2831

114_ep_expo.txtStart time  6 #Finish Time: 179 GPU: 4 _ep: 1971

99_ep_expo.txtStart time  5 #Finish Time: 179 GPU: 4 _ep: 1432

108_ep_expo.txtStart time  6 #Finish Time: 179 GPU: 4 _ep: 1565

119_ep_expo.txtStart time  7 #Finish Time: 179 GPU: 4 _ep: 1461

202_ep_expo.txtStart time  19 #Finish Time: 181 GPU: 8 _ep: 816

204_ep_expo.txtStart time  19 #Finish Time: 181 GPU: 8 _ep: 742

197_ep_expo.txtStart time  18 #Finish Time: 182 GPU: 8 _ep: 1007

24_ep_expo.txtStart time  2 #Finish Time: 183 GPU: 2 _ep: 3625

190_ep_expo.txtStart time  17 #Finish Time: 183 GPU: 8 _ep: 897

177_ep_expo.txtStart time  15 #Finish Time: 183 GPU: 8 _ep: 857

169_ep_expo.txtStart time  14 #Finish Time: 185 GPU: 8 _ep: 804

165_ep_expo.txtStart time  13 #Finish Time: 186 GPU: 8 _ep: 846

167_ep_expo.txtStart time  14 #Finish Time: 186 GPU: 8 _ep: 951

18_ep_expo.txtStart time  2 #Finish Time: 186 GPU: 2 _ep: 3511

142_ep_expo.txtStart time  10 #Finish Time: 188 GPU: 8 _ep: 804

68_ep_expo.txtStart time  3 #Finish Time: 189 GPU: 4 _ep: 1668

107_ep_expo.txtStart time  6 #Finish Time: 190 GPU: 4 _ep: 1427

113_ep_expo.txtStart time  6 #Finish Time: 190 GPU: 4 _ep: 1796

62_ep_expo.txtStart time  3 #Finish Time: 190 GPU: 4 _ep: 1945

63_ep_expo.txtStart time  3 #Finish Time: 190 GPU: 4 _ep: 1633

84_ep_expo.txtStart time  4 #Finish Time: 191 GPU: 4 _ep: 1901

103_ep_expo.txtStart time  6 #Finish Time: 191 GPU: 4 _ep: 1677

141_ep_expo.txtStart time  10 #Finish Time: 195 GPU: 8 _ep: 912

187_ep_expo.txtStart time  16 #Finish Time: 196 GPU: 8 _ep: 1416

168_ep_expo.txtStart time  14 #Finish Time: 197 GPU: 8 _ep: 944

186_ep_expo.txtStart time  16 #Finish Time: 197 GPU: 8 _ep: 683

189_ep_expo.txtStart time  17 #Finish Time: 198 GPU: 8 _ep: 892

208_ep_expo.txtStart time  19 #Finish Time: 199 GPU: 8 _ep: 645

83_ep_expo.txtStart time  4 #Finish Time: 203 GPU: 4 _ep: 2012

117_ep_expo.txtStart time  7 #Finish Time: 203 GPU: 4 _ep: 1868

226_ep_expo.txtStart time  25 #Finish Time: 205 GPU: 16 _ep: 515

91_ep_expo.txtStart time  5 #Finish Time: 207 GPU: 4 _ep: 1984

58_ep_expo.txtStart time  20 #Finish Time: 207 GPU: 3 _ep: 3103

41_ep_expo.txtStart time  27 #Finish Time: 207 GPU: 3 _ep: 3028

176_ep_expo.txtStart time  15 #Finish Time: 211 GPU: 8 _ep: 975

42_ep_expo.txtStart time  27 #Finish Time: 212 GPU: 3 _ep: 2900

163_ep_expo.txtStart time  13 #Finish Time: 212 GPU: 8 _ep: 1046

172_ep_expo.txtStart time  14 #Finish Time: 212 GPU: 8 _ep: 1197

173_ep_expo.txtStart time  14 #Finish Time: 213 GPU: 8 _ep: 890

166_ep_expo.txtStart time  13 #Finish Time: 213 GPU: 8 _ep: 1039

111_ep_expo.txtStart time  6 #Finish Time: 215 GPU: 4 _ep: 2073

71_ep_expo.txtStart time  3 #Finish Time: 215 GPU: 4 _ep: 2070

100_ep_expo.txtStart time  5 #Finish Time: 216 GPU: 4 _ep: 2211

143_ep_expo.txtStart time  10 #Finish Time: 217 GPU: 8 _ep: 1201

79_ep_expo.txtStart time  4 #Finish Time: 218 GPU: 4 _ep: 2286

188_ep_expo.txtStart time  17 #Finish Time: 219 GPU: 8 _ep: 1079

195_ep_expo.txtStart time  18 #Finish Time: 220 GPU: 8 _ep: 1173

124_ep_expo.txtStart time  7 #Finish Time: 222 GPU: 8 _ep: 1035

135_ep_expo.txtStart time  9 #Finish Time: 222 GPU: 8 _ep: 1190

64_ep_expo.txtStart time  3 #Finish Time: 223 GPU: 4 _ep: 2435

61_ep_expo.txtStart time  3 #Finish Time: 224 GPU: 4 _ep: 2596

210_ep_expo.txtStart time  20 #Finish Time: 227 GPU: 16 _ep: 602

70_ep_expo.txtStart time  3 #Finish Time: 230 GPU: 4 _ep: 2384

200_ep_expo.txtStart time  18 #Finish Time: 230 GPU: 8 _ep: 1290

196_ep_expo.txtStart time  18 #Finish Time: 230 GPU: 8 _ep: 1626

131_ep_expo.txtStart time  8 #Finish Time: 232 GPU: 8 _ep: 1254

191_ep_expo.txtStart time  17 #Finish Time: 233 GPU: 8 _ep: 1231

148_ep_expo.txtStart time  11 #Finish Time: 235 GPU: 8 _ep: 1585

147_ep_expo.txtStart time  11 #Finish Time: 236 GPU: 8 _ep: 1236

125_ep_expo.txtStart time  8 #Finish Time: 236 GPU: 8 _ep: 1182

50_ep_expo.txtStart time  28 #Finish Time: 237 GPU: 3 _ep: 4243

127_ep_expo.txtStart time  8 #Finish Time: 237 GPU: 8 _ep: 1140

122_ep_expo.txtStart time  7 #Finish Time: 237 GPU: 8 _ep: 1294

150_ep_expo.txtStart time  11 #Finish Time: 238 GPU: 8 _ep: 1354

154_ep_expo.txtStart time  12 #Finish Time: 239 GPU: 8 _ep: 1252

194_ep_expo.txtStart time  17 #Finish Time: 241 GPU: 8 _ep: 1305

181_ep_expo.txtStart time  16 #Finish Time: 241 GPU: 8 _ep: 1173

192_ep_expo.txtStart time  17 #Finish Time: 241 GPU: 8 _ep: 1224

199_ep_expo.txtStart time  18 #Finish Time: 242 GPU: 8 _ep: 1576

206_ep_expo.txtStart time  19 #Finish Time: 242 GPU: 8 _ep: 1679

211_ep_expo.txtStart time  20 #Finish Time: 243 GPU: 16 _ep: 975

231_ep_expo.txtStart time  27 #Finish Time: 245 GPU: 16 _ep: 388

221_ep_expo.txtStart time  24 #Finish Time: 247 GPU: 16 _ep: 711

170_ep_expo.txtStart time  14 #Finish Time: 248 GPU: 8 _ep: 1569

156_ep_expo.txtStart time  12 #Finish Time: 248 GPU: 8 _ep: 1348

158_ep_expo.txtStart time  12 #Finish Time: 248 GPU: 8 _ep: 1549

209_ep_expo.txtStart time  20 #Finish Time: 249 GPU: 8 _ep: 1173

152_ep_expo.txtStart time  11 #Finish Time: 249 GPU: 8 _ep: 1870

121_ep_expo.txtStart time  7 #Finish Time: 250 GPU: 8 _ep: 1399

72_ep_expo.txtStart time  3 #Finish Time: 251 GPU: 4 _ep: 3515

145_ep_expo.txtStart time  10 #Finish Time: 251 GPU: 8 _ep: 1659

153_ep_expo.txtStart time  12 #Finish Time: 251 GPU: 8 _ep: 2023

183_ep_expo.txtStart time  16 #Finish Time: 251 GPU: 8 _ep: 2071

160_ep_expo.txtStart time  13 #Finish Time: 252 GPU: 8 _ep: 2468

123_ep_expo.txtStart time  7 #Finish Time: 252 GPU: 8 _ep: 2006

232_ep_expo.txtStart time  27 #Finish Time: 256 GPU: 16 _ep: 1006

201_ep_expo.txtStart time  18 #Finish Time: 259 GPU: 8 _ep: 1591

137_ep_expo.txtStart time  9 #Finish Time: 264 GPU: 8 _ep: 2003

220_ep_expo.txtStart time  23 #Finish Time: 267 GPU: 16 _ep: 879

184_ep_expo.txtStart time  16 #Finish Time: 271 GPU: 8 _ep: 1800

175_ep_expo.txtStart time  15 #Finish Time: 274 GPU: 8 _ep: 2308

225_ep_expo.txtStart time  25 #Finish Time: 275 GPU: 16 _ep: 960

203_ep_expo.txtStart time  19 #Finish Time: 281 GPU: 8 _ep: 2386

130_ep_expo.txtStart time  8 #Finish Time: 281 GPU: 8 _ep: 2194

193_ep_expo.txtStart time  17 #Finish Time: 283 GPU: 8 _ep: 2743

120_ep_expo.txtStart time  7 #Finish Time: 283 GPU: 8 _ep: 2141

155_ep_expo.txtStart time  12 #Finish Time: 284 GPU: 8 _ep: 2502

164_ep_expo.txtStart time  13 #Finish Time: 284 GPU: 8 _ep: 2725

233_ep_expo.txtStart time  28 #Finish Time: 285 GPU: 16 _ep: 1363

161_ep_expo.txtStart time  13 #Finish Time: 288 GPU: 8 _ep: 2516

185_ep_expo.txtStart time  16 #Finish Time: 289 GPU: 8 _ep: 2701

217_ep_expo.txtStart time  22 #Finish Time: 292 GPU: 16 _ep: 1415

128_ep_expo.txtStart time  8 #Finish Time: 295 GPU: 8 _ep: 3137

178_ep_expo.txtStart time  15 #Finish Time: 297 GPU: 8 _ep: 2930

234_ep_expo.txtStart time  28 #Finish Time: 302 GPU: 16 _ep: 2033

215_ep_expo.txtStart time  22 #Finish Time: 305 GPU: 16 _ep: 1762

219_ep_expo.txtStart time  23 #Finish Time: 312 GPU: 16 _ep: 2051

216_ep_expo.txtStart time  22 #Finish Time: 313 GPU: 16 _ep: 1873

230_ep_expo.txtStart time  27 #Finish Time: 318 GPU: 16 _ep: 2064

218_ep_expo.txtStart time  23 #Finish Time: 326 GPU: 16 _ep: 1875

238_ep_expo.txtStart time  32 #Finish Time: 336 GPU: 32 _ep: 1184

229_ep_expo.txtStart time  26 #Finish Time: 339 GPU: 16 _ep: 2534

212_ep_expo.txtStart time  21 #Finish Time: 347 GPU: 16 _ep: 3244

237_ep_expo.txtStart time  31 #Finish Time: 349 GPU: 32 _ep: 1682

223_ep_expo.txtStart time  24 #Finish Time: 352 GPU: 16 _ep: 2896

236_ep_expo.txtStart time  30 #Finish Time: 359 GPU: 32 _ep: 2222

235_ep_expo.txtStart time  29 #Finish Time: 360 GPU: 32 _ep: 2144

