1_ep_expo.txtStart time  2 #Finish Time: 6 GPU: 2 _ep: 3

1_ep_expo.txtStart time  2 #Finish Time: 14 GPU: 2 _ep: 3

0_ep_expo.txtStart time  2 #Finish Time: 14 GPU: 2 _ep: 1507

0_ep_expo.txtStart time  2 #Finish Time: 17 GPU: 2 _ep: 1507

2_ep_expo.txtStart time  2 #Finish Time: 17 GPU: 2 _ep: 312

2_ep_expo.txtStart time  2 #Finish Time: 17 GPU: 2 _ep: 312

3_ep_expo.txtStart time  4 #Finish Time: 19 GPU: 2 _ep: 305

3_ep_expo.txtStart time  4 #Finish Time: 19 GPU: 2 _ep: 305

4_ep_expo.txtStart time  17 #Finish Time: 23 GPU: 2 _ep: 586

4_ep_expo.txtStart time  17 #Finish Time: 23 GPU: 2 _ep: 586

5_ep_expo.txtStart time  18 #Finish Time: 40 GPU: 2 _ep: 1943

5_ep_expo.txtStart time  18 #Finish Time: 40 GPU: 2 _ep: 1943

6_ep_expo.txtStart time  19 #Finish Time: 45 GPU: 2 _ep: 917

6_ep_expo.txtStart time  19 #Finish Time: 45 GPU: 2 _ep: 917

7_ep_expo.txtStart time  23 #Finish Time: 64 GPU: 2 _ep: 2681

7_ep_expo.txtStart time  23 #Finish Time: 64 GPU: 2 _ep: 2681

8_ep_expo.txtStart time  41 #Finish Time: 71 GPU: 2 _ep: 663

8_ep_expo.txtStart time  41 #Finish Time: 71 GPU: 2 _ep: 663

9_ep_expo.txtStart time  45 #Finish Time: 75 GPU: 2 _ep: 751

9_ep_expo.txtStart time  45 #Finish Time: 75 GPU: 2 _ep: 751

10_ep_expo.txtStart time  64 #Finish Time: 81 GPU: 2 _ep: 675

10_ep_expo.txtStart time  64 #Finish Time: 81 GPU: 2 _ep: 675

12_ep_expo.txtStart time  75 #Finish Time: 102 GPU: 2 _ep: 950

12_ep_expo.txtStart time  75 #Finish Time: 105 GPU: 2 _ep: 950

11_ep_expo.txtStart time  66 #Finish Time: 105 GPU: 2 _ep: 2034

11_ep_expo.txtStart time  66 #Finish Time: 105 GPU: 2 _ep: 2034

13_ep_expo.txtStart time  81 #Finish Time: 125 GPU: 2 _ep: 2831

13_ep_expo.txtStart time  81 #Finish Time: 125 GPU: 2 _ep: 2831

14_ep_expo.txtStart time  82 #Finish Time: 131 GPU: 2 _ep: 816

14_ep_expo.txtStart time  82 #Finish Time: 131 GPU: 2 _ep: 816

15_ep_expo.txtStart time  105 #Finish Time: 148 GPU: 2 _ep: 2566

15_ep_expo.txtStart time  105 #Finish Time: 148 GPU: 2 _ep: 2566

16_ep_expo.txtStart time  126 #Finish Time: 152 GPU: 2 _ep: 402

16_ep_expo.txtStart time  126 #Finish Time: 152 GPU: 2 _ep: 402

17_ep_expo.txtStart time  131 #Finish Time: 156 GPU: 2 _ep: 434

17_ep_expo.txtStart time  131 #Finish Time: 156 GPU: 2 _ep: 434

18_ep_expo.txtStart time  148 #Finish Time: 183 GPU: 2 _ep: 3511

18_ep_expo.txtStart time  148 #Finish Time: 183 GPU: 2 _ep: 3511

19_ep_expo.txtStart time  153 #Finish Time: 193 GPU: 2 _ep: 1307

19_ep_expo.txtStart time  153 #Finish Time: 193 GPU: 2 _ep: 1307

20_ep_expo.txtStart time  156 #Finish Time: 206 GPU: 2 _ep: 2168

20_ep_expo.txtStart time  156 #Finish Time: 206 GPU: 2 _ep: 2168

21_ep_expo.txtStart time  183 #Finish Time: 213 GPU: 2 _ep: 845

21_ep_expo.txtStart time  183 #Finish Time: 213 GPU: 2 _ep: 845

22_ep_expo.txtStart time  206 #Finish Time: 218 GPU: 2 _ep: 670

22_ep_expo.txtStart time  206 #Finish Time: 218 GPU: 2 _ep: 670

23_ep_expo.txtStart time  206 #Finish Time: 231 GPU: 2 _ep: 1734

23_ep_expo.txtStart time  206 #Finish Time: 231 GPU: 2 _ep: 1734

24_ep_expo.txtStart time  218 #Finish Time: 254 GPU: 2 _ep: 3625

24_ep_expo.txtStart time  218 #Finish Time: 254 GPU: 2 _ep: 3625

25_ep_expo.txtStart time  219 #Finish Time: 255 GPU: 2 _ep: 61

25_ep_expo.txtStart time  219 #Finish Time: 255 GPU: 2 _ep: 61

26_ep_expo.txtStart time  232 #Finish Time: 270 GPU: 2 _ep: 1815

26_ep_expo.txtStart time  232 #Finish Time: 270 GPU: 2 _ep: 1815

27_ep_expo.txtStart time  254 #Finish Time: 282 GPU: 2 _ep: 1514

27_ep_expo.txtStart time  254 #Finish Time: 282 GPU: 2 _ep: 1514

28_ep_expo.txtStart time  255 #Finish Time: 296 GPU: 2 _ep: 1742

28_ep_expo.txtStart time  255 #Finish Time: 296 GPU: 2 _ep: 1742

29_ep_expo.txtStart time  270 #Finish Time: 305 GPU: 2 _ep: 1024

29_ep_expo.txtStart time  270 #Finish Time: 305 GPU: 2 _ep: 1024

30_ep_expo.txtStart time  305 #Finish Time: 316 GPU: 2 _ep: 1798

30_ep_expo.txtStart time  305 #Finish Time: 316 GPU: 2 _ep: 1798

31_ep_expo.txtStart time  305 #Finish Time: 333 GPU: 2 _ep: 2500

31_ep_expo.txtStart time  305 #Finish Time: 333 GPU: 2 _ep: 2500

32_ep_expo.txtStart time  306 #Finish Time: 337 GPU: 2 _ep: 501

32_ep_expo.txtStart time  306 #Finish Time: 337 GPU: 2 _ep: 501

33_ep_expo.txtStart time  317 #Finish Time: 344 GPU: 2 _ep: 852

33_ep_expo.txtStart time  317 #Finish Time: 344 GPU: 2 _ep: 852

34_ep_expo.txtStart time  334 #Finish Time: 350 GPU: 2 _ep: 936

34_ep_expo.txtStart time  334 #Finish Time: 350 GPU: 2 _ep: 936

35_ep_expo.txtStart time  339 #Finish Time: 366 GPU: 2 _ep: 2317

35_ep_expo.txtStart time  339 #Finish Time: 366 GPU: 2 _ep: 2317

36_ep_expo.txtStart time  345 #Finish Time: 382 GPU: 2 _ep: 2098

36_ep_expo.txtStart time  345 #Finish Time: 382 GPU: 2 _ep: 2098

37_ep_expo.txtStart time  351 #Finish Time: 393 GPU: 2 _ep: 1469

37_ep_expo.txtStart time  351 #Finish Time: 393 GPU: 2 _ep: 1469

38_ep_expo.txtStart time  367 #Finish Time: 412 GPU: 2 _ep: 2809

38_ep_expo.txtStart time  367 #Finish Time: 412 GPU: 2 _ep: 2809

39_ep_expo.txtStart time  387 #Finish Time: 424 GPU: 2 _ep: 1426

39_ep_expo.txtStart time  387 #Finish Time: 424 GPU: 2 _ep: 1426

40_ep_expo.txtStart time  394 #Finish Time: 428 GPU: 3 _ep: 530

40_ep_expo.txtStart time  394 #Finish Time: 428 GPU: 3 _ep: 530

41_ep_expo.txtStart time  412 #Finish Time: 447 GPU: 3 _ep: 3028

41_ep_expo.txtStart time  412 #Finish Time: 447 GPU: 3 _ep: 3028

42_ep_expo.txtStart time  425 #Finish Time: 468 GPU: 3 _ep: 2900

42_ep_expo.txtStart time  425 #Finish Time: 468 GPU: 3 _ep: 2900

43_ep_expo.txtStart time  438 #Finish Time: 476 GPU: 3 _ep: 1023

43_ep_expo.txtStart time  438 #Finish Time: 476 GPU: 3 _ep: 1023

44_ep_expo.txtStart time  448 #Finish Time: 482 GPU: 3 _ep: 653

44_ep_expo.txtStart time  448 #Finish Time: 482 GPU: 3 _ep: 653

45_ep_expo.txtStart time  468 #Finish Time: 490 GPU: 3 _ep: 1258

45_ep_expo.txtStart time  468 #Finish Time: 490 GPU: 3 _ep: 1258

46_ep_expo.txtStart time  476 #Finish Time: 496 GPU: 3 _ep: 649

46_ep_expo.txtStart time  476 #Finish Time: 496 GPU: 3 _ep: 649

47_ep_expo.txtStart time  483 #Finish Time: 504 GPU: 3 _ep: 817

47_ep_expo.txtStart time  483 #Finish Time: 504 GPU: 3 _ep: 817

48_ep_expo.txtStart time  490 #Finish Time: 515 GPU: 3 _ep: 1691

48_ep_expo.txtStart time  490 #Finish Time: 515 GPU: 3 _ep: 1691

49_ep_expo.txtStart time  497 #Finish Time: 526 GPU: 3 _ep: 1354

49_ep_expo.txtStart time  497 #Finish Time: 526 GPU: 3 _ep: 1354

50_ep_expo.txtStart time  505 #Finish Time: 554 GPU: 3 _ep: 4243

50_ep_expo.txtStart time  505 #Finish Time: 554 GPU: 3 _ep: 4243

51_ep_expo.txtStart time  516 #Finish Time: 557 GPU: 3 _ep: 378

51_ep_expo.txtStart time  516 #Finish Time: 557 GPU: 3 _ep: 378

240_ep_expo.txtStart time  553 #Finish Time: 569 GPU: 1 _ep: 1397

240_ep_expo.txtStart time  553 #Finish Time: 569 GPU: 1 _ep: 1397

241_ep_expo.txtStart time  557 #Finish Time: 584 GPU: 1 _ep: 2652

241_ep_expo.txtStart time  557 #Finish Time: 584 GPU: 1 _ep: 2652

52_ep_expo.txtStart time  584 #Finish Time: 593 GPU: 3 _ep: 867

52_ep_expo.txtStart time  584 #Finish Time: 593 GPU: 3 _ep: 867

53_ep_expo.txtStart time  584 #Finish Time: 596 GPU: 3 _ep: 360

53_ep_expo.txtStart time  584 #Finish Time: 596 GPU: 3 _ep: 360

54_ep_expo.txtStart time  585 #Finish Time: 606 GPU: 3 _ep: 1409

54_ep_expo.txtStart time  585 #Finish Time: 606 GPU: 3 _ep: 1409

55_ep_expo.txtStart time  594 #Finish Time: 609 GPU: 3 _ep: 429

55_ep_expo.txtStart time  594 #Finish Time: 609 GPU: 3 _ep: 429

56_ep_expo.txtStart time  597 #Finish Time: 618 GPU: 3 _ep: 1354

56_ep_expo.txtStart time  597 #Finish Time: 618 GPU: 3 _ep: 1354

57_ep_expo.txtStart time  607 #Finish Time: 630 GPU: 3 _ep: 1602

57_ep_expo.txtStart time  607 #Finish Time: 630 GPU: 3 _ep: 1602

58_ep_expo.txtStart time  610 #Finish Time: 649 GPU: 3 _ep: 3103

58_ep_expo.txtStart time  610 #Finish Time: 649 GPU: 3 _ep: 3103

59_ep_expo.txtStart time  619 #Finish Time: 658 GPU: 3 _ep: 1124

59_ep_expo.txtStart time  619 #Finish Time: 658 GPU: 3 _ep: 1124

60_ep_expo.txtStart time  631 #Finish Time: 661 GPU: 4 _ep: 358

60_ep_expo.txtStart time  631 #Finish Time: 661 GPU: 4 _ep: 358

61_ep_expo.txtStart time  650 #Finish Time: 679 GPU: 4 _ep: 2596

61_ep_expo.txtStart time  650 #Finish Time: 679 GPU: 4 _ep: 2596

62_ep_expo.txtStart time  658 #Finish Time: 691 GPU: 4 _ep: 1945

62_ep_expo.txtStart time  658 #Finish Time: 691 GPU: 4 _ep: 1945

63_ep_expo.txtStart time  662 #Finish Time: 703 GPU: 4 _ep: 1633

63_ep_expo.txtStart time  662 #Finish Time: 703 GPU: 4 _ep: 1633

64_ep_expo.txtStart time  679 #Finish Time: 721 GPU: 4 _ep: 2435

64_ep_expo.txtStart time  679 #Finish Time: 721 GPU: 4 _ep: 2435

65_ep_expo.txtStart time  703 #Finish Time: 729 GPU: 4 _ep: 1065

65_ep_expo.txtStart time  703 #Finish Time: 729 GPU: 4 _ep: 1065

66_ep_expo.txtStart time  704 #Finish Time: 736 GPU: 4 _ep: 835

66_ep_expo.txtStart time  704 #Finish Time: 736 GPU: 4 _ep: 835

67_ep_expo.txtStart time  722 #Finish Time: 745 GPU: 4 _ep: 1061

67_ep_expo.txtStart time  722 #Finish Time: 745 GPU: 4 _ep: 1061

242_ep_expo.txtStart time  736 #Finish Time: 746 GPU: 1 _ep: 35

242_ep_expo.txtStart time  736 #Finish Time: 746 GPU: 1 _ep: 35

243_ep_expo.txtStart time  745 #Finish Time: 752 GPU: 1 _ep: 756

243_ep_expo.txtStart time  745 #Finish Time: 752 GPU: 1 _ep: 756

68_ep_expo.txtStart time  752 #Finish Time: 764 GPU: 4 _ep: 1668

68_ep_expo.txtStart time  752 #Finish Time: 764 GPU: 4 _ep: 1668

69_ep_expo.txtStart time  752 #Finish Time: 770 GPU: 4 _ep: 765

69_ep_expo.txtStart time  752 #Finish Time: 770 GPU: 4 _ep: 765

70_ep_expo.txtStart time  753 #Finish Time: 790 GPU: 4 _ep: 2384

70_ep_expo.txtStart time  753 #Finish Time: 790 GPU: 4 _ep: 2384

71_ep_expo.txtStart time  764 #Finish Time: 806 GPU: 4 _ep: 2070

71_ep_expo.txtStart time  764 #Finish Time: 806 GPU: 4 _ep: 2070

72_ep_expo.txtStart time  770 #Finish Time: 834 GPU: 4 _ep: 3515

72_ep_expo.txtStart time  770 #Finish Time: 834 GPU: 4 _ep: 3515

73_ep_expo.txtStart time  796 #Finish Time: 840 GPU: 4 _ep: 880

73_ep_expo.txtStart time  796 #Finish Time: 840 GPU: 4 _ep: 880

74_ep_expo.txtStart time  806 #Finish Time: 850 GPU: 4 _ep: 1149

74_ep_expo.txtStart time  806 #Finish Time: 850 GPU: 4 _ep: 1149

75_ep_expo.txtStart time  835 #Finish Time: 855 GPU: 4 _ep: 833

75_ep_expo.txtStart time  835 #Finish Time: 855 GPU: 4 _ep: 833

76_ep_expo.txtStart time  841 #Finish Time: 858 GPU: 4 _ep: 251

76_ep_expo.txtStart time  841 #Finish Time: 858 GPU: 4 _ep: 251

77_ep_expo.txtStart time  851 #Finish Time: 860 GPU: 4 _ep: 373

77_ep_expo.txtStart time  851 #Finish Time: 860 GPU: 4 _ep: 373

78_ep_expo.txtStart time  855 #Finish Time: 867 GPU: 4 _ep: 929

78_ep_expo.txtStart time  855 #Finish Time: 867 GPU: 4 _ep: 929

79_ep_expo.txtStart time  859 #Finish Time: 885 GPU: 4 _ep: 2286

79_ep_expo.txtStart time  859 #Finish Time: 885 GPU: 4 _ep: 2286

80_ep_expo.txtStart time  861 #Finish Time: 892 GPU: 4 _ep: 970

80_ep_expo.txtStart time  861 #Finish Time: 892 GPU: 4 _ep: 970

81_ep_expo.txtStart time  867 #Finish Time: 899 GPU: 4 _ep: 762

81_ep_expo.txtStart time  867 #Finish Time: 899 GPU: 4 _ep: 762

244_ep_expo.txtStart time  892 #Finish Time: 923 GPU: 1 _ep: 3462

244_ep_expo.txtStart time  892 #Finish Time: 923 GPU: 1 _ep: 3462

245_ep_expo.txtStart time  899 #Finish Time: 927 GPU: 1 _ep: 591

245_ep_expo.txtStart time  899 #Finish Time: 927 GPU: 1 _ep: 591

82_ep_expo.txtStart time  927 #Finish Time: 937 GPU: 4 _ep: 1263

82_ep_expo.txtStart time  927 #Finish Time: 937 GPU: 4 _ep: 1263

83_ep_expo.txtStart time  927 #Finish Time: 951 GPU: 4 _ep: 2012

83_ep_expo.txtStart time  927 #Finish Time: 951 GPU: 4 _ep: 2012

84_ep_expo.txtStart time  927 #Finish Time: 964 GPU: 4 _ep: 1901

84_ep_expo.txtStart time  927 #Finish Time: 964 GPU: 4 _ep: 1901

85_ep_expo.txtStart time  937 #Finish Time: 973 GPU: 4 _ep: 1132

85_ep_expo.txtStart time  937 #Finish Time: 973 GPU: 4 _ep: 1132

86_ep_expo.txtStart time  957 #Finish Time: 980 GPU: 4 _ep: 809

86_ep_expo.txtStart time  957 #Finish Time: 980 GPU: 4 _ep: 809

87_ep_expo.txtStart time  965 #Finish Time: 985 GPU: 4 _ep: 644

87_ep_expo.txtStart time  965 #Finish Time: 985 GPU: 4 _ep: 644

88_ep_expo.txtStart time  973 #Finish Time: 990 GPU: 4 _ep: 594

88_ep_expo.txtStart time  973 #Finish Time: 990 GPU: 4 _ep: 594

89_ep_expo.txtStart time  985 #Finish Time: 999 GPU: 4 _ep: 1260

89_ep_expo.txtStart time  985 #Finish Time: 999 GPU: 4 _ep: 1260

90_ep_expo.txtStart time  986 #Finish Time: 1002 GPU: 4 _ep: 218

90_ep_expo.txtStart time  986 #Finish Time: 1002 GPU: 4 _ep: 218

91_ep_expo.txtStart time  991 #Finish Time: 1016 GPU: 4 _ep: 1984

91_ep_expo.txtStart time  991 #Finish Time: 1016 GPU: 4 _ep: 1984

92_ep_expo.txtStart time  1000 #Finish Time: 1022 GPU: 4 _ep: 724

92_ep_expo.txtStart time  1000 #Finish Time: 1022 GPU: 4 _ep: 724

93_ep_expo.txtStart time  1006 #Finish Time: 1030 GPU: 4 _ep: 875

93_ep_expo.txtStart time  1006 #Finish Time: 1030 GPU: 4 _ep: 875

94_ep_expo.txtStart time  1016 #Finish Time: 1037 GPU: 4 _ep: 955

94_ep_expo.txtStart time  1016 #Finish Time: 1037 GPU: 4 _ep: 955

95_ep_expo.txtStart time  1023 #Finish Time: 1043 GPU: 4 _ep: 907

95_ep_expo.txtStart time  1023 #Finish Time: 1043 GPU: 4 _ep: 907

246_ep_expo.txtStart time  1037 #Finish Time: 1050 GPU: 1 _ep: 831

246_ep_expo.txtStart time  1037 #Finish Time: 1050 GPU: 1 _ep: 831

247_ep_expo.txtStart time  1043 #Finish Time: 1059 GPU: 1 _ep: 996

247_ep_expo.txtStart time  1043 #Finish Time: 1059 GPU: 1 _ep: 996

96_ep_expo.txtStart time  1059 #Finish Time: 1067 GPU: 4 _ep: 1075

96_ep_expo.txtStart time  1059 #Finish Time: 1067 GPU: 4 _ep: 1075

97_ep_expo.txtStart time  1059 #Finish Time: 1072 GPU: 4 _ep: 726

97_ep_expo.txtStart time  1059 #Finish Time: 1072 GPU: 4 _ep: 726

98_ep_expo.txtStart time  1059 #Finish Time: 1077 GPU: 4 _ep: 666

98_ep_expo.txtStart time  1059 #Finish Time: 1077 GPU: 4 _ep: 666

99_ep_expo.txtStart time  1068 #Finish Time: 1088 GPU: 4 _ep: 1432

99_ep_expo.txtStart time  1068 #Finish Time: 1088 GPU: 4 _ep: 1432

100_ep_expo.txtStart time  1072 #Finish Time: 1105 GPU: 4 _ep: 2211

100_ep_expo.txtStart time  1072 #Finish Time: 1105 GPU: 4 _ep: 2211

101_ep_expo.txtStart time  1077 #Finish Time: 1110 GPU: 4 _ep: 546

101_ep_expo.txtStart time  1077 #Finish Time: 1110 GPU: 4 _ep: 546

102_ep_expo.txtStart time  1089 #Finish Time: 1113 GPU: 4 _ep: 463

102_ep_expo.txtStart time  1089 #Finish Time: 1113 GPU: 4 _ep: 463

103_ep_expo.txtStart time  1106 #Finish Time: 1126 GPU: 4 _ep: 1677

103_ep_expo.txtStart time  1106 #Finish Time: 1126 GPU: 4 _ep: 1677

104_ep_expo.txtStart time  1113 #Finish Time: 1135 GPU: 4 _ep: 1200

104_ep_expo.txtStart time  1113 #Finish Time: 1135 GPU: 4 _ep: 1200

105_ep_expo.txtStart time  1113 #Finish Time: 1138 GPU: 4 _ep: 496

105_ep_expo.txtStart time  1113 #Finish Time: 1138 GPU: 4 _ep: 496

106_ep_expo.txtStart time  1127 #Finish Time: 1147 GPU: 4 _ep: 1225

106_ep_expo.txtStart time  1127 #Finish Time: 1147 GPU: 4 _ep: 1225

107_ep_expo.txtStart time  1136 #Finish Time: 1159 GPU: 4 _ep: 1427

107_ep_expo.txtStart time  1136 #Finish Time: 1159 GPU: 4 _ep: 1427

108_ep_expo.txtStart time  1139 #Finish Time: 1170 GPU: 4 _ep: 1565

108_ep_expo.txtStart time  1139 #Finish Time: 1170 GPU: 4 _ep: 1565

109_ep_expo.txtStart time  1155 #Finish Time: 1172 GPU: 4 _ep: 308

109_ep_expo.txtStart time  1155 #Finish Time: 1172 GPU: 4 _ep: 308

248_ep_expo.txtStart time  1170 #Finish Time: 1184 GPU: 1 _ep: 1862

248_ep_expo.txtStart time  1170 #Finish Time: 1184 GPU: 1 _ep: 1862

249_ep_expo.txtStart time  1172 #Finish Time: 1186 GPU: 1 _ep: 111

249_ep_expo.txtStart time  1172 #Finish Time: 1186 GPU: 1 _ep: 111

110_ep_expo.txtStart time  1186 #Finish Time: 1189 GPU: 4 _ep: 416

110_ep_expo.txtStart time  1186 #Finish Time: 1189 GPU: 4 _ep: 416

111_ep_expo.txtStart time  1186 #Finish Time: 1205 GPU: 4 _ep: 2073

111_ep_expo.txtStart time  1186 #Finish Time: 1205 GPU: 4 _ep: 2073

112_ep_expo.txtStart time  1187 #Finish Time: 1213 GPU: 4 _ep: 1019

112_ep_expo.txtStart time  1187 #Finish Time: 1213 GPU: 4 _ep: 1019

113_ep_expo.txtStart time  1190 #Finish Time: 1225 GPU: 4 _ep: 1796

113_ep_expo.txtStart time  1190 #Finish Time: 1225 GPU: 4 _ep: 1796

114_ep_expo.txtStart time  1213 #Finish Time: 1236 GPU: 4 _ep: 1971

114_ep_expo.txtStart time  1213 #Finish Time: 1236 GPU: 4 _ep: 1971

115_ep_expo.txtStart time  1214 #Finish Time: 1240 GPU: 4 _ep: 484

115_ep_expo.txtStart time  1214 #Finish Time: 1240 GPU: 4 _ep: 484

116_ep_expo.txtStart time  1226 #Finish Time: 1250 GPU: 4 _ep: 1413

116_ep_expo.txtStart time  1226 #Finish Time: 1250 GPU: 4 _ep: 1413

117_ep_expo.txtStart time  1237 #Finish Time: 1264 GPU: 4 _ep: 1868

117_ep_expo.txtStart time  1237 #Finish Time: 1264 GPU: 4 _ep: 1868

118_ep_expo.txtStart time  1241 #Finish Time: 1273 GPU: 4 _ep: 1297

118_ep_expo.txtStart time  1241 #Finish Time: 1273 GPU: 4 _ep: 1297

119_ep_expo.txtStart time  1251 #Finish Time: 1284 GPU: 4 _ep: 1461

119_ep_expo.txtStart time  1251 #Finish Time: 1284 GPU: 4 _ep: 1461

120_ep_expo.txtStart time  1265 #Finish Time: 1302 GPU: 8 _ep: 2141

120_ep_expo.txtStart time  1265 #Finish Time: 1302 GPU: 8 _ep: 2141

121_ep_expo.txtStart time  1273 #Finish Time: 1314 GPU: 8 _ep: 1399

121_ep_expo.txtStart time  1273 #Finish Time: 1314 GPU: 8 _ep: 1399

250_ep_expo.txtStart time  1303 #Finish Time: 1323 GPU: 1 _ep: 1116

250_ep_expo.txtStart time  1303 #Finish Time: 1323 GPU: 1 _ep: 1116

251_ep_expo.txtStart time  1314 #Finish Time: 1328 GPU: 1 _ep: 736

251_ep_expo.txtStart time  1314 #Finish Time: 1328 GPU: 1 _ep: 736

122_ep_expo.txtStart time  1328 #Finish Time: 1339 GPU: 8 _ep: 1294

122_ep_expo.txtStart time  1328 #Finish Time: 1340 GPU: 8 _ep: 1294

123_ep_expo.txtStart time  1328 #Finish Time: 1352 GPU: 8 _ep: 2006

123_ep_expo.txtStart time  1328 #Finish Time: 1352 GPU: 8 _ep: 2006

124_ep_expo.txtStart time  1328 #Finish Time: 1361 GPU: 8 _ep: 1035

124_ep_expo.txtStart time  1328 #Finish Time: 1361 GPU: 8 _ep: 1035

125_ep_expo.txtStart time  1339 #Finish Time: 1371 GPU: 8 _ep: 1182

125_ep_expo.txtStart time  1339 #Finish Time: 1371 GPU: 8 _ep: 1182

126_ep_expo.txtStart time  1352 #Finish Time: 1374 GPU: 8 _ep: 297

126_ep_expo.txtStart time  1352 #Finish Time: 1374 GPU: 8 _ep: 297

127_ep_expo.txtStart time  1361 #Finish Time: 1384 GPU: 8 _ep: 1140

127_ep_expo.txtStart time  1361 #Finish Time: 1384 GPU: 8 _ep: 1140

128_ep_expo.txtStart time  1374 #Finish Time: 1407 GPU: 8 _ep: 3137

128_ep_expo.txtStart time  1374 #Finish Time: 1407 GPU: 8 _ep: 3137

252_ep_expo.txtStart time  1384 #Finish Time: 1409 GPU: 1 _ep: 125

252_ep_expo.txtStart time  1384 #Finish Time: 1409 GPU: 1 _ep: 125

253_ep_expo.txtStart time  1407 #Finish Time: 1418 GPU: 1 _ep: 1229

253_ep_expo.txtStart time  1407 #Finish Time: 1418 GPU: 1 _ep: 1229

129_ep_expo.txtStart time  1409 #Finish Time: 1422 GPU: 8 _ep: 552

129_ep_expo.txtStart time  1409 #Finish Time: 1422 GPU: 8 _ep: 552

130_ep_expo.txtStart time  1418 #Finish Time: 1440 GPU: 8 _ep: 2194

130_ep_expo.txtStart time  1418 #Finish Time: 1440 GPU: 8 _ep: 2194

131_ep_expo.txtStart time  1419 #Finish Time: 1450 GPU: 8 _ep: 1254

131_ep_expo.txtStart time  1419 #Finish Time: 1450 GPU: 8 _ep: 1254

132_ep_expo.txtStart time  1422 #Finish Time: 1455 GPU: 8 _ep: 677

132_ep_expo.txtStart time  1422 #Finish Time: 1455 GPU: 8 _ep: 677

133_ep_expo.txtStart time  1441 #Finish Time: 1459 GPU: 8 _ep: 402

133_ep_expo.txtStart time  1441 #Finish Time: 1459 GPU: 8 _ep: 402

134_ep_expo.txtStart time  1451 #Finish Time: 1462 GPU: 8 _ep: 132

134_ep_expo.txtStart time  1451 #Finish Time: 1462 GPU: 8 _ep: 132

135_ep_expo.txtStart time  1455 #Finish Time: 1471 GPU: 8 _ep: 1190

135_ep_expo.txtStart time  1455 #Finish Time: 1471 GPU: 8 _ep: 1190

254_ep_expo.txtStart time  1462 #Finish Time: 1474 GPU: 1 _ep: 620

254_ep_expo.txtStart time  1462 #Finish Time: 1474 GPU: 1 _ep: 620

255_ep_expo.txtStart time  1471 #Finish Time: 1493 GPU: 1 _ep: 2574

255_ep_expo.txtStart time  1471 #Finish Time: 1493 GPU: 1 _ep: 2574

136_ep_expo.txtStart time  1474 #Finish Time: 1494 GPU: 8 _ep: 138

136_ep_expo.txtStart time  1474 #Finish Time: 1494 GPU: 8 _ep: 138

137_ep_expo.txtStart time  1488 #Finish Time: 1508 GPU: 8 _ep: 2003

137_ep_expo.txtStart time  1488 #Finish Time: 1508 GPU: 8 _ep: 2003

138_ep_expo.txtStart time  1494 #Finish Time: 1511 GPU: 8 _ep: 267

138_ep_expo.txtStart time  1494 #Finish Time: 1511 GPU: 8 _ep: 267

139_ep_expo.txtStart time  1495 #Finish Time: 1516 GPU: 8 _ep: 809

139_ep_expo.txtStart time  1495 #Finish Time: 1516 GPU: 8 _ep: 809

140_ep_expo.txtStart time  1509 #Finish Time: 1520 GPU: 8 _ep: 468

140_ep_expo.txtStart time  1509 #Finish Time: 1520 GPU: 8 _ep: 468

141_ep_expo.txtStart time  1512 #Finish Time: 1527 GPU: 8 _ep: 912

141_ep_expo.txtStart time  1512 #Finish Time: 1527 GPU: 8 _ep: 912

142_ep_expo.txtStart time  1520 #Finish Time: 1533 GPU: 8 _ep: 804

142_ep_expo.txtStart time  1520 #Finish Time: 1533 GPU: 8 _ep: 804

256_ep_expo.txtStart time  1524 #Finish Time: 1548 GPU: 1 _ep: 1869

256_ep_expo.txtStart time  1524 #Finish Time: 1548 GPU: 1 _ep: 1869

257_ep_expo.txtStart time  1533 #Finish Time: 1552 GPU: 1 _ep: 934

257_ep_expo.txtStart time  1533 #Finish Time: 1552 GPU: 1 _ep: 934

143_ep_expo.txtStart time  1546 #Finish Time: 1561 GPU: 8 _ep: 1201

143_ep_expo.txtStart time  1546 #Finish Time: 1561 GPU: 8 _ep: 1201

144_ep_expo.txtStart time  1552 #Finish Time: 1562 GPU: 8 _ep: 113

144_ep_expo.txtStart time  1552 #Finish Time: 1562 GPU: 8 _ep: 113

145_ep_expo.txtStart time  1561 #Finish Time: 1574 GPU: 8 _ep: 1659

145_ep_expo.txtStart time  1561 #Finish Time: 1574 GPU: 8 _ep: 1659

146_ep_expo.txtStart time  1561 #Finish Time: 1575 GPU: 8 _ep: 34

146_ep_expo.txtStart time  1561 #Finish Time: 1575 GPU: 8 _ep: 34

147_ep_expo.txtStart time  1562 #Finish Time: 1585 GPU: 8 _ep: 1236

147_ep_expo.txtStart time  1562 #Finish Time: 1585 GPU: 8 _ep: 1236

148_ep_expo.txtStart time  1574 #Finish Time: 1595 GPU: 8 _ep: 1585

148_ep_expo.txtStart time  1574 #Finish Time: 1595 GPU: 8 _ep: 1585

149_ep_expo.txtStart time  1576 #Finish Time: 1597 GPU: 8 _ep: 137

149_ep_expo.txtStart time  1576 #Finish Time: 1597 GPU: 8 _ep: 137

258_ep_expo.txtStart time  1595 #Finish Time: 1599 GPU: 1 _ep: 380

258_ep_expo.txtStart time  1595 #Finish Time: 1599 GPU: 1 _ep: 380

259_ep_expo.txtStart time  1597 #Finish Time: 1611 GPU: 1 _ep: 1609

259_ep_expo.txtStart time  1597 #Finish Time: 1611 GPU: 1 _ep: 1609

150_ep_expo.txtStart time  1599 #Finish Time: 1622 GPU: 8 _ep: 1354

150_ep_expo.txtStart time  1599 #Finish Time: 1622 GPU: 8 _ep: 1354

151_ep_expo.txtStart time  1611 #Finish Time: 1626 GPU: 8 _ep: 366

151_ep_expo.txtStart time  1611 #Finish Time: 1626 GPU: 8 _ep: 366

152_ep_expo.txtStart time  1611 #Finish Time: 1638 GPU: 8 _ep: 1870

152_ep_expo.txtStart time  1611 #Finish Time: 1638 GPU: 8 _ep: 1870

153_ep_expo.txtStart time  1622 #Finish Time: 1651 GPU: 8 _ep: 2023

153_ep_expo.txtStart time  1622 #Finish Time: 1651 GPU: 8 _ep: 2023

154_ep_expo.txtStart time  1627 #Finish Time: 1662 GPU: 8 _ep: 1252

154_ep_expo.txtStart time  1627 #Finish Time: 1662 GPU: 8 _ep: 1252

155_ep_expo.txtStart time  1638 #Finish Time: 1681 GPU: 8 _ep: 2502

155_ep_expo.txtStart time  1638 #Finish Time: 1681 GPU: 8 _ep: 2502

156_ep_expo.txtStart time  1652 #Finish Time: 1693 GPU: 8 _ep: 1348

156_ep_expo.txtStart time  1652 #Finish Time: 1693 GPU: 8 _ep: 1348

260_ep_expo.txtStart time  1681 #Finish Time: 1703 GPU: 1 _ep: 1349

260_ep_expo.txtStart time  1681 #Finish Time: 1703 GPU: 1 _ep: 1349

261_ep_expo.txtStart time  1693 #Finish Time: 1711 GPU: 1 _ep: 1195

261_ep_expo.txtStart time  1693 #Finish Time: 1711 GPU: 1 _ep: 1195

157_ep_expo.txtStart time  1703 #Finish Time: 1714 GPU: 8 _ep: 336

157_ep_expo.txtStart time  1703 #Finish Time: 1714 GPU: 8 _ep: 336

158_ep_expo.txtStart time  1711 #Finish Time: 1726 GPU: 8 _ep: 1549

158_ep_expo.txtStart time  1711 #Finish Time: 1726 GPU: 8 _ep: 1549

159_ep_expo.txtStart time  1712 #Finish Time: 1727 GPU: 8 _ep: 17

159_ep_expo.txtStart time  1712 #Finish Time: 1727 GPU: 8 _ep: 17

160_ep_expo.txtStart time  1714 #Finish Time: 1757 GPU: 8 _ep: 2468

160_ep_expo.txtStart time  1714 #Finish Time: 1760 GPU: 8 _ep: 2468

161_ep_expo.txtStart time  1726 #Finish Time: 1760 GPU: 8 _ep: 2516

161_ep_expo.txtStart time  1726 #Finish Time: 1761 GPU: 8 _ep: 2516

162_ep_expo.txtStart time  1728 #Finish Time: 1762 GPU: 8 _ep: 280

162_ep_expo.txtStart time  1728 #Finish Time: 1762 GPU: 8 _ep: 280

163_ep_expo.txtStart time  1728 #Finish Time: 1770 GPU: 8 _ep: 1046

163_ep_expo.txtStart time  1728 #Finish Time: 1770 GPU: 8 _ep: 1046

262_ep_expo.txtStart time  1762 #Finish Time: 1783 GPU: 1 _ep: 1802

262_ep_expo.txtStart time  1762 #Finish Time: 1783 GPU: 1 _ep: 1802

263_ep_expo.txtStart time  1770 #Finish Time: 1794 GPU: 1 _ep: 1568

263_ep_expo.txtStart time  1770 #Finish Time: 1794 GPU: 1 _ep: 1568

164_ep_expo.txtStart time  1783 #Finish Time: 1813 GPU: 8 _ep: 2725

164_ep_expo.txtStart time  1783 #Finish Time: 1813 GPU: 8 _ep: 2725

165_ep_expo.txtStart time  1794 #Finish Time: 1819 GPU: 8 _ep: 846

165_ep_expo.txtStart time  1794 #Finish Time: 1819 GPU: 8 _ep: 846

166_ep_expo.txtStart time  1795 #Finish Time: 1827 GPU: 8 _ep: 1039

166_ep_expo.txtStart time  1795 #Finish Time: 1827 GPU: 8 _ep: 1039

167_ep_expo.txtStart time  1813 #Finish Time: 1833 GPU: 8 _ep: 951

167_ep_expo.txtStart time  1813 #Finish Time: 1833 GPU: 8 _ep: 951

168_ep_expo.txtStart time  1823 #Finish Time: 1840 GPU: 8 _ep: 944

168_ep_expo.txtStart time  1823 #Finish Time: 1840 GPU: 8 _ep: 944

169_ep_expo.txtStart time  1827 #Finish Time: 1846 GPU: 8 _ep: 804

169_ep_expo.txtStart time  1827 #Finish Time: 1846 GPU: 8 _ep: 804

170_ep_expo.txtStart time  1836 #Finish Time: 1858 GPU: 8 _ep: 1569

170_ep_expo.txtStart time  1836 #Finish Time: 1858 GPU: 8 _ep: 1569

264_ep_expo.txtStart time  1846 #Finish Time: 1870 GPU: 1 _ep: 1497

264_ep_expo.txtStart time  1846 #Finish Time: 1870 GPU: 1 _ep: 1497

265_ep_expo.txtStart time  1847 #Finish Time: 1894 GPU: 1 _ep: 3577

265_ep_expo.txtStart time  1847 #Finish Time: 1894 GPU: 1 _ep: 3577

171_ep_expo.txtStart time  1871 #Finish Time: 1896 GPU: 8 _ep: 180

171_ep_expo.txtStart time  1871 #Finish Time: 1896 GPU: 8 _ep: 180

172_ep_expo.txtStart time  1894 #Finish Time: 1904 GPU: 8 _ep: 1197

172_ep_expo.txtStart time  1894 #Finish Time: 1904 GPU: 8 _ep: 1197

173_ep_expo.txtStart time  1895 #Finish Time: 1912 GPU: 8 _ep: 890

173_ep_expo.txtStart time  1895 #Finish Time: 1912 GPU: 8 _ep: 890

174_ep_expo.txtStart time  1897 #Finish Time: 1914 GPU: 8 _ep: 271

174_ep_expo.txtStart time  1897 #Finish Time: 1914 GPU: 8 _ep: 271

175_ep_expo.txtStart time  1904 #Finish Time: 1931 GPU: 8 _ep: 2308

175_ep_expo.txtStart time  1904 #Finish Time: 1931 GPU: 8 _ep: 2308

176_ep_expo.txtStart time  1913 #Finish Time: 1939 GPU: 8 _ep: 975

176_ep_expo.txtStart time  1913 #Finish Time: 1939 GPU: 8 _ep: 975

177_ep_expo.txtStart time  1915 #Finish Time: 1945 GPU: 8 _ep: 857

177_ep_expo.txtStart time  1915 #Finish Time: 1945 GPU: 8 _ep: 857

266_ep_expo.txtStart time  1939 #Finish Time: 1965 GPU: 1 _ep: 2905

266_ep_expo.txtStart time  1939 #Finish Time: 1965 GPU: 1 _ep: 2905

267_ep_expo.txtStart time  1944 #Finish Time: 1980 GPU: 1 _ep: 1721

267_ep_expo.txtStart time  1944 #Finish Time: 1980 GPU: 1 _ep: 1721

178_ep_expo.txtStart time  1965 #Finish Time: 2004 GPU: 8 _ep: 2930

179_ep_expo.txtStart time  1978 #Finish Time: 2008 GPU: 8 _ep: 778

180_ep_expo.txtStart time  1981 #Finish Time: 2013 GPU: 8 _ep: 476

181_ep_expo.txtStart time  2005 #Finish Time: 2024 GPU: 8 _ep: 1173

182_ep_expo.txtStart time  2009 #Finish Time: 2026 GPU: 8 _ep: 145

183_ep_expo.txtStart time  2014 #Finish Time: 2039 GPU: 8 _ep: 2071

182_ep_expo.txtStart time  2009 #Finish Time: 2026 GPU: 8 _ep: 145

178_ep_expo.txtStart time  1965 #Finish Time: 2008 GPU: 8 _ep: 2930

180_ep_expo.txtStart time  1981 #Finish Time: 2013 GPU: 8 _ep: 476

179_ep_expo.txtStart time  1978 #Finish Time: 2009 GPU: 8 _ep: 778

181_ep_expo.txtStart time  2005 #Finish Time: 2024 GPU: 8 _ep: 1173

183_ep_expo.txtStart time  2014 #Finish Time: 2039 GPU: 8 _ep: 2071

184_ep_expo.txtStart time  2025 #Finish Time: 2055 GPU: 8 _ep: 1800

184_ep_expo.txtStart time  2025 #Finish Time: 2055 GPU: 8 _ep: 1800

268_ep_expo.txtStart time  2039 #Finish Time: 2078 GPU: 1 _ep: 2775

268_ep_expo.txtStart time  2039 #Finish Time: 2078 GPU: 1 _ep: 2775

269_ep_expo.txtStart time  2055 #Finish Time: 2092 GPU: 1 _ep: 1863

269_ep_expo.txtStart time  2055 #Finish Time: 2092 GPU: 1 _ep: 1863

185_ep_expo.txtStart time  2079 #Finish Time: 2114 GPU: 8 _ep: 2701

185_ep_expo.txtStart time  2079 #Finish Time: 2114 GPU: 8 _ep: 2701

186_ep_expo.txtStart time  2088 #Finish Time: 2121 GPU: 8 _ep: 683

186_ep_expo.txtStart time  2088 #Finish Time: 2121 GPU: 8 _ep: 683

187_ep_expo.txtStart time  2092 #Finish Time: 2128 GPU: 8 _ep: 1416

187_ep_expo.txtStart time  2092 #Finish Time: 2128 GPU: 8 _ep: 1416

188_ep_expo.txtStart time  2114 #Finish Time: 2137 GPU: 8 _ep: 1079

188_ep_expo.txtStart time  2114 #Finish Time: 2137 GPU: 8 _ep: 1079

189_ep_expo.txtStart time  2121 #Finish Time: 2144 GPU: 8 _ep: 892

189_ep_expo.txtStart time  2121 #Finish Time: 2144 GPU: 8 _ep: 892

190_ep_expo.txtStart time  2129 #Finish Time: 2150 GPU: 8 _ep: 897

190_ep_expo.txtStart time  2129 #Finish Time: 2150 GPU: 8 _ep: 897

191_ep_expo.txtStart time  2137 #Finish Time: 2160 GPU: 8 _ep: 1231

191_ep_expo.txtStart time  2137 #Finish Time: 2160 GPU: 8 _ep: 1231

270_ep_expo.txtStart time  2150 #Finish Time: 2166 GPU: 1 _ep: 625

270_ep_expo.txtStart time  2150 #Finish Time: 2166 GPU: 1 _ep: 625

271_ep_expo.txtStart time  2160 #Finish Time: 2182 GPU: 1 _ep: 2263

271_ep_expo.txtStart time  2160 #Finish Time: 2182 GPU: 1 _ep: 2263

272_ep_expo.txtStart time  2161 #Finish Time: 2192 GPU: 1 _ep: 1413

272_ep_expo.txtStart time  2161 #Finish Time: 2192 GPU: 1 _ep: 1413

192_ep_expo.txtStart time  2182 #Finish Time: 2203 GPU: 8 _ep: 1224

192_ep_expo.txtStart time  2182 #Finish Time: 2203 GPU: 8 _ep: 1224

193_ep_expo.txtStart time  2192 #Finish Time: 2221 GPU: 8 _ep: 2743

193_ep_expo.txtStart time  2192 #Finish Time: 2221 GPU: 8 _ep: 2743

194_ep_expo.txtStart time  2192 #Finish Time: 2232 GPU: 8 _ep: 1305

194_ep_expo.txtStart time  2192 #Finish Time: 2232 GPU: 8 _ep: 1305

195_ep_expo.txtStart time  2203 #Finish Time: 2241 GPU: 8 _ep: 1173

195_ep_expo.txtStart time  2203 #Finish Time: 2241 GPU: 8 _ep: 1173

196_ep_expo.txtStart time  2222 #Finish Time: 2251 GPU: 8 _ep: 1626

196_ep_expo.txtStart time  2222 #Finish Time: 2251 GPU: 8 _ep: 1626

197_ep_expo.txtStart time  2233 #Finish Time: 2257 GPU: 8 _ep: 1007

197_ep_expo.txtStart time  2233 #Finish Time: 2257 GPU: 8 _ep: 1007

198_ep_expo.txtStart time  2241 #Finish Time: 2259 GPU: 8 _ep: 523

198_ep_expo.txtStart time  2241 #Finish Time: 2259 GPU: 8 _ep: 523

273_ep_expo.txtStart time  2257 #Finish Time: 2275 GPU: 1 _ep: 2530

273_ep_expo.txtStart time  2257 #Finish Time: 2275 GPU: 1 _ep: 2530

274_ep_expo.txtStart time  2259 #Finish Time: 2291 GPU: 1 _ep: 2352

274_ep_expo.txtStart time  2259 #Finish Time: 2291 GPU: 1 _ep: 2352

199_ep_expo.txtStart time  2275 #Finish Time: 2302 GPU: 8 _ep: 1576

199_ep_expo.txtStart time  2275 #Finish Time: 2302 GPU: 8 _ep: 1576

200_ep_expo.txtStart time  2291 #Finish Time: 2312 GPU: 8 _ep: 1290

200_ep_expo.txtStart time  2291 #Finish Time: 2312 GPU: 8 _ep: 1290

201_ep_expo.txtStart time  2292 #Finish Time: 2326 GPU: 8 _ep: 1591

201_ep_expo.txtStart time  2292 #Finish Time: 2326 GPU: 8 _ep: 1591

202_ep_expo.txtStart time  2303 #Finish Time: 2332 GPU: 8 _ep: 816

202_ep_expo.txtStart time  2303 #Finish Time: 2332 GPU: 8 _ep: 816

203_ep_expo.txtStart time  2313 #Finish Time: 2350 GPU: 8 _ep: 2386

203_ep_expo.txtStart time  2313 #Finish Time: 2350 GPU: 8 _ep: 2386

204_ep_expo.txtStart time  2326 #Finish Time: 2356 GPU: 8 _ep: 742

204_ep_expo.txtStart time  2326 #Finish Time: 2356 GPU: 8 _ep: 742

205_ep_expo.txtStart time  2333 #Finish Time: 2359 GPU: 8 _ep: 254

205_ep_expo.txtStart time  2333 #Finish Time: 2359 GPU: 8 _ep: 254

275_ep_expo.txtStart time  2356 #Finish Time: 2367 GPU: 1 _ep: 826

275_ep_expo.txtStart time  2356 #Finish Time: 2367 GPU: 1 _ep: 826

276_ep_expo.txtStart time  2359 #Finish Time: 2384 GPU: 1 _ep: 1990

276_ep_expo.txtStart time  2359 #Finish Time: 2384 GPU: 1 _ep: 1990

206_ep_expo.txtStart time  2367 #Finish Time: 2395 GPU: 8 _ep: 1679

206_ep_expo.txtStart time  2367 #Finish Time: 2395 GPU: 8 _ep: 1679

207_ep_expo.txtStart time  2384 #Finish Time: 2400 GPU: 8 _ep: 809

207_ep_expo.txtStart time  2384 #Finish Time: 2400 GPU: 8 _ep: 809

208_ep_expo.txtStart time  2385 #Finish Time: 2407 GPU: 8 _ep: 645

208_ep_expo.txtStart time  2385 #Finish Time: 2407 GPU: 8 _ep: 645

209_ep_expo.txtStart time  2395 #Finish Time: 2419 GPU: 8 _ep: 1173

209_ep_expo.txtStart time  2395 #Finish Time: 2419 GPU: 8 _ep: 1173

210_ep_expo.txtStart time  2401 #Finish Time: 2424 GPU: 16 _ep: 602

210_ep_expo.txtStart time  2401 #Finish Time: 2424 GPU: 16 _ep: 602

277_ep_expo.txtStart time  2408 #Finish Time: 2435 GPU: 1 _ep: 1530

277_ep_expo.txtStart time  2408 #Finish Time: 2435 GPU: 1 _ep: 1530

278_ep_expo.txtStart time  2420 #Finish Time: 2444 GPU: 1 _ep: 1107

278_ep_expo.txtStart time  2420 #Finish Time: 2444 GPU: 1 _ep: 1107

279_ep_expo.txtStart time  2425 #Finish Time: 2460 GPU: 1 _ep: 2459

279_ep_expo.txtStart time  2425 #Finish Time: 2460 GPU: 1 _ep: 2459

280_ep_expo.txtStart time  2436 #Finish Time: 2463 GPU: 1 _ep: 587

280_ep_expo.txtStart time  2436 #Finish Time: 2469 GPU: 1 _ep: 587

281_ep_expo.txtStart time  2444 #Finish Time: 2469 GPU: 1 _ep: 893

281_ep_expo.txtStart time  2444 #Finish Time: 2469 GPU: 1 _ep: 893

282_ep_expo.txtStart time  2460 #Finish Time: 2485 GPU: 1 _ep: 2141

282_ep_expo.txtStart time  2460 #Finish Time: 2485 GPU: 1 _ep: 2141

283_ep_expo.txtStart time  2463 #Finish Time: 2489 GPU: 1 _ep: 412

283_ep_expo.txtStart time  2463 #Finish Time: 2489 GPU: 1 _ep: 412

284_ep_expo.txtStart time  2470 #Finish Time: 2502 GPU: 1 _ep: 1877

284_ep_expo.txtStart time  2470 #Finish Time: 2502 GPU: 1 _ep: 1877

285_ep_expo.txtStart time  2489 #Finish Time: 2513 GPU: 1 _ep: 1488

285_ep_expo.txtStart time  2489 #Finish Time: 2513 GPU: 1 _ep: 1488

286_ep_expo.txtStart time  2490 #Finish Time: 2519 GPU: 1 _ep: 793

286_ep_expo.txtStart time  2490 #Finish Time: 2519 GPU: 1 _ep: 793

211_ep_expo.txtStart time  2513 #Finish Time: 2525 GPU: 16 _ep: 975

211_ep_expo.txtStart time  2513 #Finish Time: 2525 GPU: 16 _ep: 975

212_ep_expo.txtStart time  2519 #Finish Time: 2547 GPU: 16 _ep: 3244

212_ep_expo.txtStart time  2519 #Finish Time: 2547 GPU: 16 _ep: 3244

213_ep_expo.txtStart time  2519 #Finish Time: 2548 GPU: 16 _ep: 133

213_ep_expo.txtStart time  2519 #Finish Time: 2548 GPU: 16 _ep: 133

287_ep_expo.txtStart time  2547 #Finish Time: 2550 GPU: 1 _ep: 89

287_ep_expo.txtStart time  2547 #Finish Time: 2550 GPU: 1 _ep: 89

288_ep_expo.txtStart time  2548 #Finish Time: 2558 GPU: 1 _ep: 1395

288_ep_expo.txtStart time  2548 #Finish Time: 2558 GPU: 1 _ep: 1395

289_ep_expo.txtStart time  2549 #Finish Time: 2573 GPU: 1 _ep: 2277

289_ep_expo.txtStart time  2549 #Finish Time: 2573 GPU: 1 _ep: 2277

290_ep_expo.txtStart time  2551 #Finish Time: 2595 GPU: 1 _ep: 2899

290_ep_expo.txtStart time  2551 #Finish Time: 2595 GPU: 1 _ep: 2899

291_ep_expo.txtStart time  2558 #Finish Time: 2610 GPU: 1 _ep: 1574

291_ep_expo.txtStart time  2558 #Finish Time: 2610 GPU: 1 _ep: 1574

292_ep_expo.txtStart time  2574 #Finish Time: 2616 GPU: 1 _ep: 749

292_ep_expo.txtStart time  2574 #Finish Time: 2616 GPU: 1 _ep: 749

293_ep_expo.txtStart time  2595 #Finish Time: 2627 GPU: 1 _ep: 1353

293_ep_expo.txtStart time  2595 #Finish Time: 2628 GPU: 1 _ep: 1353

294_ep_expo.txtStart time  2610 #Finish Time: 2628 GPU: 1 _ep: 171

294_ep_expo.txtStart time  2610 #Finish Time: 2628 GPU: 1 _ep: 171

295_ep_expo.txtStart time  2617 #Finish Time: 2635 GPU: 1 _ep: 930

295_ep_expo.txtStart time  2617 #Finish Time: 2635 GPU: 1 _ep: 930

296_ep_expo.txtStart time  2628 #Finish Time: 2637 GPU: 1 _ep: 121

296_ep_expo.txtStart time  2628 #Finish Time: 2637 GPU: 1 _ep: 121

214_ep_expo.txtStart time  2636 #Finish Time: 2640 GPU: 16 _ep: 515

214_ep_expo.txtStart time  2636 #Finish Time: 2640 GPU: 16 _ep: 515

215_ep_expo.txtStart time  2637 #Finish Time: 2653 GPU: 16 _ep: 1762

215_ep_expo.txtStart time  2637 #Finish Time: 2653 GPU: 16 _ep: 1762

216_ep_expo.txtStart time  2640 #Finish Time: 2667 GPU: 16 _ep: 1873

216_ep_expo.txtStart time  2640 #Finish Time: 2667 GPU: 16 _ep: 1873

297_ep_expo.txtStart time  2667 #Finish Time: 2673 GPU: 1 _ep: 818

297_ep_expo.txtStart time  2667 #Finish Time: 2673 GPU: 1 _ep: 818

298_ep_expo.txtStart time  2667 #Finish Time: 2680 GPU: 1 _ep: 1197

298_ep_expo.txtStart time  2667 #Finish Time: 2680 GPU: 1 _ep: 1197

299_ep_expo.txtStart time  2673 #Finish Time: 2698 GPU: 1 _ep: 2231

299_ep_expo.txtStart time  2673 #Finish Time: 2698 GPU: 1 _ep: 2231

300_ep_expo.txtStart time  2680 #Finish Time: 2710 GPU: 1 _ep: 1599

300_ep_expo.txtStart time  2680 #Finish Time: 2710 GPU: 1 _ep: 1599

301_ep_expo.txtStart time  2698 #Finish Time: 2733 GPU: 1 _ep: 2999

301_ep_expo.txtStart time  2698 #Finish Time: 2735 GPU: 1 _ep: 2999

302_ep_expo.txtStart time  2710 #Finish Time: 2746 GPU: 1 _ep: 2085

302_ep_expo.txtStart time  2710 #Finish Time: 2746 GPU: 1 _ep: 2085

303_ep_expo.txtStart time  2711 #Finish Time: 2758 GPU: 1 _ep: 1625

303_ep_expo.txtStart time  2711 #Finish Time: 2758 GPU: 1 _ep: 1625

304_ep_expo.txtStart time  2746 #Finish Time: 2761 GPU: 1 _ep: 580

304_ep_expo.txtStart time  2746 #Finish Time: 2761 GPU: 1 _ep: 580

305_ep_expo.txtStart time  2758 #Finish Time: 2769 GPU: 1 _ep: 1393

305_ep_expo.txtStart time  2758 #Finish Time: 2769 GPU: 1 _ep: 1393

306_ep_expo.txtStart time  2761 #Finish Time: 2782 GPU: 1 _ep: 1775

306_ep_expo.txtStart time  2761 #Finish Time: 2782 GPU: 1 _ep: 1775

307_ep_expo.txtStart time  2769 #Finish Time: 2790 GPU: 1 _ep: 1195

307_ep_expo.txtStart time  2769 #Finish Time: 2790 GPU: 1 _ep: 1195

217_ep_expo.txtStart time  2787 #Finish Time: 2801 GPU: 16 _ep: 1415

217_ep_expo.txtStart time  2787 #Finish Time: 2801 GPU: 16 _ep: 1415

218_ep_expo.txtStart time  2790 #Finish Time: 2818 GPU: 16 _ep: 1875

218_ep_expo.txtStart time  2790 #Finish Time: 2818 GPU: 16 _ep: 1875

219_ep_expo.txtStart time  2801 #Finish Time: 2832 GPU: 16 _ep: 2051

219_ep_expo.txtStart time  2801 #Finish Time: 2832 GPU: 16 _ep: 2051

308_ep_expo.txtStart time  2832 #Finish Time: 2841 GPU: 1 _ep: 1207

308_ep_expo.txtStart time  2832 #Finish Time: 2841 GPU: 1 _ep: 1207

309_ep_expo.txtStart time  2832 #Finish Time: 2853 GPU: 1 _ep: 1757

309_ep_expo.txtStart time  2832 #Finish Time: 2853 GPU: 1 _ep: 1757

310_ep_expo.txtStart time  2841 #Finish Time: 2858 GPU: 1 _ep: 745

310_ep_expo.txtStart time  2841 #Finish Time: 2858 GPU: 1 _ep: 745

311_ep_expo.txtStart time  2853 #Finish Time: 2866 GPU: 1 _ep: 1278

311_ep_expo.txtStart time  2853 #Finish Time: 2866 GPU: 1 _ep: 1278

312_ep_expo.txtStart time  2858 #Finish Time: 2878 GPU: 1 _ep: 1877

312_ep_expo.txtStart time  2858 #Finish Time: 2878 GPU: 1 _ep: 1877

313_ep_expo.txtStart time  2866 #Finish Time: 2884 GPU: 1 _ep: 845

313_ep_expo.txtStart time  2866 #Finish Time: 2884 GPU: 1 _ep: 845

314_ep_expo.txtStart time  2878 #Finish Time: 2893 GPU: 1 _ep: 1009

314_ep_expo.txtStart time  2878 #Finish Time: 2893 GPU: 1 _ep: 1009

315_ep_expo.txtStart time  2884 #Finish Time: 2902 GPU: 1 _ep: 1046

315_ep_expo.txtStart time  2884 #Finish Time: 2902 GPU: 1 _ep: 1046

316_ep_expo.txtStart time  2893 #Finish Time: 2913 GPU: 1 _ep: 1557

316_ep_expo.txtStart time  2893 #Finish Time: 2913 GPU: 1 _ep: 1557

317_ep_expo.txtStart time  2902 #Finish Time: 2918 GPU: 1 _ep: 793

317_ep_expo.txtStart time  2902 #Finish Time: 2918 GPU: 1 _ep: 793

220_ep_expo.txtStart time  2914 #Finish Time: 2926 GPU: 16 _ep: 879

220_ep_expo.txtStart time  2914 #Finish Time: 2926 GPU: 16 _ep: 879

221_ep_expo.txtStart time  2918 #Finish Time: 2932 GPU: 16 _ep: 711

221_ep_expo.txtStart time  2918 #Finish Time: 2932 GPU: 16 _ep: 711

222_ep_expo.txtStart time  2926 #Finish Time: 2935 GPU: 16 _ep: 200

222_ep_expo.txtStart time  2926 #Finish Time: 2935 GPU: 16 _ep: 200

318_ep_expo.txtStart time  2935 #Finish Time: 2941 GPU: 1 _ep: 644

318_ep_expo.txtStart time  2935 #Finish Time: 2941 GPU: 1 _ep: 644

319_ep_expo.txtStart time  2935 #Finish Time: 2944 GPU: 1 _ep: 336

319_ep_expo.txtStart time  2935 #Finish Time: 2944 GPU: 1 _ep: 336

320_ep_expo.txtStart time  2941 #Finish Time: 2950 GPU: 1 _ep: 916

320_ep_expo.txtStart time  2941 #Finish Time: 2950 GPU: 1 _ep: 916

321_ep_expo.txtStart time  2944 #Finish Time: 2966 GPU: 1 _ep: 2481

321_ep_expo.txtStart time  2944 #Finish Time: 2966 GPU: 1 _ep: 2481

322_ep_expo.txtStart time  2950 #Finish Time: 2976 GPU: 1 _ep: 1209

322_ep_expo.txtStart time  2950 #Finish Time: 2976 GPU: 1 _ep: 1209

323_ep_expo.txtStart time  2966 #Finish Time: 2991 GPU: 1 _ep: 2183

323_ep_expo.txtStart time  2966 #Finish Time: 2991 GPU: 1 _ep: 2183

324_ep_expo.txtStart time  2976 #Finish Time: 3004 GPU: 1 _ep: 1526

324_ep_expo.txtStart time  2976 #Finish Time: 3004 GPU: 1 _ep: 1526

325_ep_expo.txtStart time  2991 #Finish Time: 3013 GPU: 1 _ep: 1324

325_ep_expo.txtStart time  2991 #Finish Time: 3013 GPU: 1 _ep: 1324

326_ep_expo.txtStart time  3004 #Finish Time: 3020 GPU: 1 _ep: 666

326_ep_expo.txtStart time  3004 #Finish Time: 3020 GPU: 1 _ep: 666

327_ep_expo.txtStart time  3013 #Finish Time: 3025 GPU: 1 _ep: 653

327_ep_expo.txtStart time  3013 #Finish Time: 3025 GPU: 1 _ep: 653

328_ep_expo.txtStart time  3020 #Finish Time: 3033 GPU: 1 _ep: 1012

328_ep_expo.txtStart time  3020 #Finish Time: 3033 GPU: 1 _ep: 1012

223_ep_expo.txtStart time  3026 #Finish Time: 3057 GPU: 16 _ep: 2896

223_ep_expo.txtStart time  3026 #Finish Time: 3057 GPU: 16 _ep: 2896

224_ep_expo.txtStart time  3033 #Finish Time: 3059 GPU: 16 _ep: 78

224_ep_expo.txtStart time  3033 #Finish Time: 3064 GPU: 16 _ep: 78

225_ep_expo.txtStart time  3057 #Finish Time: 3068 GPU: 16 _ep: 960

225_ep_expo.txtStart time  3057 #Finish Time: 3068 GPU: 16 _ep: 960

329_ep_expo.txtStart time  3068 #Finish Time: 3073 GPU: 1 _ep: 497

329_ep_expo.txtStart time  3068 #Finish Time: 3073 GPU: 1 _ep: 497

330_ep_expo.txtStart time  3068 #Finish Time: 3082 GPU: 1 _ep: 979

330_ep_expo.txtStart time  3068 #Finish Time: 3082 GPU: 1 _ep: 979

331_ep_expo.txtStart time  3073 #Finish Time: 3083 GPU: 1 _ep: 16

331_ep_expo.txtStart time  3073 #Finish Time: 3083 GPU: 1 _ep: 16

332_ep_expo.txtStart time  3082 #Finish Time: 3091 GPU: 1 _ep: 1262

332_ep_expo.txtStart time  3082 #Finish Time: 3091 GPU: 1 _ep: 1262

333_ep_expo.txtStart time  3083 #Finish Time: 3100 GPU: 1 _ep: 1418

333_ep_expo.txtStart time  3083 #Finish Time: 3100 GPU: 1 _ep: 1418

334_ep_expo.txtStart time  3091 #Finish Time: 3112 GPU: 1 _ep: 1565

334_ep_expo.txtStart time  3091 #Finish Time: 3112 GPU: 1 _ep: 1565

335_ep_expo.txtStart time  3100 #Finish Time: 3132 GPU: 1 _ep: 2427

335_ep_expo.txtStart time  3100 #Finish Time: 3132 GPU: 1 _ep: 2427

336_ep_expo.txtStart time  3112 #Finish Time: 3137 GPU: 1 _ep: 636

336_ep_expo.txtStart time  3112 #Finish Time: 3137 GPU: 1 _ep: 636

337_ep_expo.txtStart time  3132 #Finish Time: 3152 GPU: 1 _ep: 2055

337_ep_expo.txtStart time  3132 #Finish Time: 3152 GPU: 1 _ep: 2055

338_ep_expo.txtStart time  3137 #Finish Time: 3155 GPU: 1 _ep: 413

338_ep_expo.txtStart time  3137 #Finish Time: 3155 GPU: 1 _ep: 413

339_ep_expo.txtStart time  3152 #Finish Time: 3173 GPU: 1 _ep: 2076

339_ep_expo.txtStart time  3152 #Finish Time: 3173 GPU: 1 _ep: 2076

226_ep_expo.txtStart time  3173 #Finish Time: 3177 GPU: 16 _ep: 515

226_ep_expo.txtStart time  3173 #Finish Time: 3177 GPU: 16 _ep: 515

227_ep_expo.txtStart time  3173 #Finish Time: 3180 GPU: 16 _ep: 413

227_ep_expo.txtStart time  3173 #Finish Time: 3180 GPU: 16 _ep: 413

228_ep_expo.txtStart time  3177 #Finish Time: 3181 GPU: 16 _ep: 145

228_ep_expo.txtStart time  3177 #Finish Time: 3181 GPU: 16 _ep: 145

340_ep_expo.txtStart time  3181 #Finish Time: 3198 GPU: 1 _ep: 2281

340_ep_expo.txtStart time  3181 #Finish Time: 3198 GPU: 1 _ep: 2281

341_ep_expo.txtStart time  3181 #Finish Time: 3216 GPU: 1 _ep: 2458

341_ep_expo.txtStart time  3181 #Finish Time: 3216 GPU: 1 _ep: 2458

342_ep_expo.txtStart time  3198 #Finish Time: 3219 GPU: 1 _ep: 386

342_ep_expo.txtStart time  3198 #Finish Time: 3219 GPU: 1 _ep: 386

343_ep_expo.txtStart time  3216 #Finish Time: 3224 GPU: 1 _ep: 705

343_ep_expo.txtStart time  3216 #Finish Time: 3224 GPU: 1 _ep: 705

344_ep_expo.txtStart time  3219 #Finish Time: 3229 GPU: 1 _ep: 653

344_ep_expo.txtStart time  3219 #Finish Time: 3229 GPU: 1 _ep: 653

345_ep_expo.txtStart time  3224 #Finish Time: 3244 GPU: 1 _ep: 1689

345_ep_expo.txtStart time  3224 #Finish Time: 3244 GPU: 1 _ep: 1689

346_ep_expo.txtStart time  3229 #Finish Time: 3258 GPU: 1 _ep: 1763

346_ep_expo.txtStart time  3229 #Finish Time: 3258 GPU: 1 _ep: 1763

347_ep_expo.txtStart time  3244 #Finish Time: 3268 GPU: 1 _ep: 1441

347_ep_expo.txtStart time  3244 #Finish Time: 3268 GPU: 1 _ep: 1441

348_ep_expo.txtStart time  3258 #Finish Time: 3287 GPU: 1 _ep: 2736

348_ep_expo.txtStart time  3258 #Finish Time: 3287 GPU: 1 _ep: 2736

349_ep_expo.txtStart time  3268 #Finish Time: 3293 GPU: 1 _ep: 860

349_ep_expo.txtStart time  3268 #Finish Time: 3293 GPU: 1 _ep: 860

350_ep_expo.txtStart time  3287 #Finish Time: 3313 GPU: 1 _ep: 2472

350_ep_expo.txtStart time  3287 #Finish Time: 3313 GPU: 1 _ep: 2472

229_ep_expo.txtStart time  3294 #Finish Time: 3333 GPU: 16 _ep: 2534

229_ep_expo.txtStart time  3294 #Finish Time: 3333 GPU: 16 _ep: 2534

230_ep_expo.txtStart time  3313 #Finish Time: 3348 GPU: 16 _ep: 2064

230_ep_expo.txtStart time  3313 #Finish Time: 3348 GPU: 16 _ep: 2064

231_ep_expo.txtStart time  3333 #Finish Time: 3354 GPU: 16 _ep: 388

231_ep_expo.txtStart time  3333 #Finish Time: 3354 GPU: 16 _ep: 388

351_ep_expo.txtStart time  3354 #Finish Time: 3362 GPU: 1 _ep: 1016

351_ep_expo.txtStart time  3354 #Finish Time: 3362 GPU: 1 _ep: 1016

352_ep_expo.txtStart time  3354 #Finish Time: 3374 GPU: 1 _ep: 1482

352_ep_expo.txtStart time  3354 #Finish Time: 3374 GPU: 1 _ep: 1482

353_ep_expo.txtStart time  3362 #Finish Time: 3395 GPU: 1 _ep: 2222

353_ep_expo.txtStart time  3362 #Finish Time: 3395 GPU: 1 _ep: 2222

354_ep_expo.txtStart time  3374 #Finish Time: 3404 GPU: 1 _ep: 951

354_ep_expo.txtStart time  3374 #Finish Time: 3404 GPU: 1 _ep: 951

355_ep_expo.txtStart time  3387 #Finish Time: 3423 GPU: 1 _ep: 2689

355_ep_expo.txtStart time  3387 #Finish Time: 3423 GPU: 1 _ep: 2689

356_ep_expo.txtStart time  3404 #Finish Time: 3426 GPU: 1 _ep: 341

356_ep_expo.txtStart time  3404 #Finish Time: 3426 GPU: 1 _ep: 341

357_ep_expo.txtStart time  3423 #Finish Time: 3436 GPU: 1 _ep: 1000

357_ep_expo.txtStart time  3423 #Finish Time: 3436 GPU: 1 _ep: 1000

358_ep_expo.txtStart time  3426 #Finish Time: 3455 GPU: 1 _ep: 2907

358_ep_expo.txtStart time  3426 #Finish Time: 3455 GPU: 1 _ep: 2907

359_ep_expo.txtStart time  3436 #Finish Time: 3458 GPU: 1 _ep: 259

359_ep_expo.txtStart time  3436 #Finish Time: 3458 GPU: 1 _ep: 259

360_ep_expo.txtStart time  3455 #Finish Time: 3472 GPU: 1 _ep: 1793

360_ep_expo.txtStart time  3455 #Finish Time: 3472 GPU: 1 _ep: 1793

361_ep_expo.txtStart time  3458 #Finish Time: 3486 GPU: 1 _ep: 1850

361_ep_expo.txtStart time  3458 #Finish Time: 3486 GPU: 1 _ep: 1850

232_ep_expo.txtStart time  3473 #Finish Time: 3493 GPU: 16 _ep: 1006

232_ep_expo.txtStart time  3473 #Finish Time: 3493 GPU: 16 _ep: 1006

233_ep_expo.txtStart time  3486 #Finish Time: 3503 GPU: 16 _ep: 1363

233_ep_expo.txtStart time  3486 #Finish Time: 3503 GPU: 16 _ep: 1363

234_ep_expo.txtStart time  3493 #Finish Time: 3516 GPU: 16 _ep: 2033

234_ep_expo.txtStart time  3493 #Finish Time: 3516 GPU: 16 _ep: 2033

362_ep_expo.txtStart time  3516 #Finish Time: 3531 GPU: 1 _ep: 1927

362_ep_expo.txtStart time  3516 #Finish Time: 3531 GPU: 1 _ep: 1927

363_ep_expo.txtStart time  3516 #Finish Time: 3537 GPU: 1 _ep: 842

363_ep_expo.txtStart time  3516 #Finish Time: 3537 GPU: 1 _ep: 842

364_ep_expo.txtStart time  3531 #Finish Time: 3538 GPU: 1 _ep: 61

364_ep_expo.txtStart time  3531 #Finish Time: 3538 GPU: 1 _ep: 61

365_ep_expo.txtStart time  3537 #Finish Time: 3540 GPU: 1 _ep: 153

365_ep_expo.txtStart time  3537 #Finish Time: 3540 GPU: 1 _ep: 153

366_ep_expo.txtStart time  3538 #Finish Time: 3541 GPU: 1 _ep: 80

366_ep_expo.txtStart time  3538 #Finish Time: 3541 GPU: 1 _ep: 80

367_ep_expo.txtStart time  3540 #Finish Time: 3547 GPU: 1 _ep: 984

367_ep_expo.txtStart time  3540 #Finish Time: 3547 GPU: 1 _ep: 984

368_ep_expo.txtStart time  3541 #Finish Time: 3549 GPU: 1 _ep: 388

368_ep_expo.txtStart time  3541 #Finish Time: 3549 GPU: 1 _ep: 388

369_ep_expo.txtStart time  3547 #Finish Time: 3563 GPU: 1 _ep: 2017

369_ep_expo.txtStart time  3547 #Finish Time: 3563 GPU: 1 _ep: 2017

370_ep_expo.txtStart time  3549 #Finish Time: 3576 GPU: 1 _ep: 1833

370_ep_expo.txtStart time  3549 #Finish Time: 3576 GPU: 1 _ep: 1833

371_ep_expo.txtStart time  3563 #Finish Time: 3594 GPU: 1 _ep: 2441

371_ep_expo.txtStart time  3563 #Finish Time: 3594 GPU: 1 _ep: 2441

372_ep_expo.txtStart time  3576 #Finish Time: 3604 GPU: 1 _ep: 1138

372_ep_expo.txtStart time  3576 #Finish Time: 3604 GPU: 1 _ep: 1138

235_ep_expo.txtStart time  3595 #Finish Time: 3620 GPU: 32 _ep: 2144

235_ep_expo.txtStart time  3595 #Finish Time: 3620 GPU: 32 _ep: 2144

373_ep_expo.txtStart time  3620 #Finish Time: 3631 GPU: 1 _ep: 1837

373_ep_expo.txtStart time  3620 #Finish Time: 3631 GPU: 1 _ep: 1837

374_ep_expo.txtStart time  3620 #Finish Time: 3636 GPU: 1 _ep: 341

374_ep_expo.txtStart time  3620 #Finish Time: 3636 GPU: 1 _ep: 341

375_ep_expo.txtStart time  3631 #Finish Time: 3645 GPU: 1 _ep: 1374

375_ep_expo.txtStart time  3631 #Finish Time: 3645 GPU: 1 _ep: 1374

376_ep_expo.txtStart time  3636 #Finish Time: 3655 GPU: 1 _ep: 1157

376_ep_expo.txtStart time  3636 #Finish Time: 3655 GPU: 1 _ep: 1157

377_ep_expo.txtStart time  3645 #Finish Time: 3658 GPU: 1 _ep: 546

377_ep_expo.txtStart time  3645 #Finish Time: 3658 GPU: 1 _ep: 546

378_ep_expo.txtStart time  3655 #Finish Time: 3680 GPU: 1 _ep: 2926

378_ep_expo.txtStart time  3655 #Finish Time: 3680 GPU: 1 _ep: 2926

379_ep_expo.txtStart time  3658 #Finish Time: 3691 GPU: 1 _ep: 1811

379_ep_expo.txtStart time  3658 #Finish Time: 3691 GPU: 1 _ep: 1811

380_ep_expo.txtStart time  3673 #Finish Time: 3694 GPU: 1 _ep: 249

380_ep_expo.txtStart time  3673 #Finish Time: 3694 GPU: 1 _ep: 249

381_ep_expo.txtStart time  3691 #Finish Time: 3704 GPU: 1 _ep: 1482

381_ep_expo.txtStart time  3691 #Finish Time: 3704 GPU: 1 _ep: 1482

382_ep_expo.txtStart time  3694 #Finish Time: 3712 GPU: 1 _ep: 1118

382_ep_expo.txtStart time  3694 #Finish Time: 3712 GPU: 1 _ep: 1118

383_ep_expo.txtStart time  3704 #Finish Time: 3721 GPU: 1 _ep: 1224

383_ep_expo.txtStart time  3704 #Finish Time: 3721 GPU: 1 _ep: 1224

384_ep_expo.txtStart time  3712 #Finish Time: 3729 GPU: 1 _ep: 1044

384_ep_expo.txtStart time  3712 #Finish Time: 3729 GPU: 1 _ep: 1044

385_ep_expo.txtStart time  3721 #Finish Time: 3738 GPU: 1 _ep: 1076

385_ep_expo.txtStart time  3721 #Finish Time: 3738 GPU: 1 _ep: 1076

386_ep_expo.txtStart time  3729 #Finish Time: 3751 GPU: 1 _ep: 1397

386_ep_expo.txtStart time  3729 #Finish Time: 3751 GPU: 1 _ep: 1397

387_ep_expo.txtStart time  3738 #Finish Time: 3759 GPU: 1 _ep: 1348

387_ep_expo.txtStart time  3738 #Finish Time: 3759 GPU: 1 _ep: 1348

388_ep_expo.txtStart time  3751 #Finish Time: 3772 GPU: 1 _ep: 1344

388_ep_expo.txtStart time  3751 #Finish Time: 3772 GPU: 1 _ep: 1344

389_ep_expo.txtStart time  3759 #Finish Time: 3782 GPU: 1 _ep: 1294

389_ep_expo.txtStart time  3759 #Finish Time: 3782 GPU: 1 _ep: 1294

390_ep_expo.txtStart time  3772 #Finish Time: 3785 GPU: 1 _ep: 466

390_ep_expo.txtStart time  3772 #Finish Time: 3785 GPU: 1 _ep: 466

391_ep_expo.txtStart time  3782 #Finish Time: 3813 GPU: 1 _ep: 4290

391_ep_expo.txtStart time  3782 #Finish Time: 3813 GPU: 1 _ep: 4290

392_ep_expo.txtStart time  3785 #Finish Time: 3826 GPU: 1 _ep: 1512

392_ep_expo.txtStart time  3785 #Finish Time: 3826 GPU: 1 _ep: 1512

393_ep_expo.txtStart time  3813 #Finish Time: 3845 GPU: 1 _ep: 2615

393_ep_expo.txtStart time  3813 #Finish Time: 3845 GPU: 1 _ep: 2615

394_ep_expo.txtStart time  3826 #Finish Time: 3851 GPU: 1 _ep: 1174

394_ep_expo.txtStart time  3826 #Finish Time: 3851 GPU: 1 _ep: 1174

395_ep_expo.txtStart time  3845 #Finish Time: 3870 GPU: 1 _ep: 2714

395_ep_expo.txtStart time  3845 #Finish Time: 3870 GPU: 1 _ep: 2714

396_ep_expo.txtStart time  3851 #Finish Time: 3879 GPU: 1 _ep: 1675

396_ep_expo.txtStart time  3851 #Finish Time: 3879 GPU: 1 _ep: 1675

397_ep_expo.txtStart time  3870 #Finish Time: 3882 GPU: 1 _ep: 248

397_ep_expo.txtStart time  3870 #Finish Time: 3882 GPU: 1 _ep: 248

398_ep_expo.txtStart time  3879 #Finish Time: 3898 GPU: 1 _ep: 2058

398_ep_expo.txtStart time  3879 #Finish Time: 3898 GPU: 1 _ep: 2058

399_ep_expo.txtStart time  3882 #Finish Time: 3915 GPU: 1 _ep: 2589

399_ep_expo.txtStart time  3882 #Finish Time: 3915 GPU: 1 _ep: 2589

236_ep_expo.txtStart time  3899 #Finish Time: 3931 GPU: 32 _ep: 2222

236_ep_expo.txtStart time  3899 #Finish Time: 3931 GPU: 32 _ep: 2222

400_ep_expo.txtStart time  3931 #Finish Time: 3939 GPU: 1 _ep: 1280

400_ep_expo.txtStart time  3931 #Finish Time: 3939 GPU: 1 _ep: 1280

401_ep_expo.txtStart time  3931 #Finish Time: 3947 GPU: 1 _ep: 1211

401_ep_expo.txtStart time  3931 #Finish Time: 3947 GPU: 1 _ep: 1211

402_ep_expo.txtStart time  3939 #Finish Time: 3953 GPU: 1 _ep: 931

402_ep_expo.txtStart time  3939 #Finish Time: 3953 GPU: 1 _ep: 931

403_ep_expo.txtStart time  3945 #Finish Time: 3959 GPU: 1 _ep: 815

403_ep_expo.txtStart time  3945 #Finish Time: 3959 GPU: 1 _ep: 815

404_ep_expo.txtStart time  3953 #Finish Time: 3973 GPU: 1 _ep: 1621

404_ep_expo.txtStart time  3953 #Finish Time: 3973 GPU: 1 _ep: 1621

405_ep_expo.txtStart time  3959 #Finish Time: 3982 GPU: 1 _ep: 1052

405_ep_expo.txtStart time  3959 #Finish Time: 3982 GPU: 1 _ep: 1052

406_ep_expo.txtStart time  3973 #Finish Time: 3993 GPU: 1 _ep: 1731

406_ep_expo.txtStart time  3973 #Finish Time: 3993 GPU: 1 _ep: 1731

407_ep_expo.txtStart time  3982 #Finish Time: 4010 GPU: 1 _ep: 2181

407_ep_expo.txtStart time  3982 #Finish Time: 4010 GPU: 1 _ep: 2181

408_ep_expo.txtStart time  3993 #Finish Time: 4015 GPU: 1 _ep: 1012

408_ep_expo.txtStart time  3993 #Finish Time: 4015 GPU: 1 _ep: 1012

409_ep_expo.txtStart time  4010 #Finish Time: 4023 GPU: 1 _ep: 1101

409_ep_expo.txtStart time  4010 #Finish Time: 4023 GPU: 1 _ep: 1101

410_ep_expo.txtStart time  4015 #Finish Time: 4034 GPU: 1 _ep: 1904

410_ep_expo.txtStart time  4015 #Finish Time: 4034 GPU: 1 _ep: 1904

411_ep_expo.txtStart time  4023 #Finish Time: 4054 GPU: 1 _ep: 2703

411_ep_expo.txtStart time  4023 #Finish Time: 4054 GPU: 1 _ep: 2703

412_ep_expo.txtStart time  4034 #Finish Time: 4072 GPU: 1 _ep: 2386

412_ep_expo.txtStart time  4034 #Finish Time: 4072 GPU: 1 _ep: 2386

413_ep_expo.txtStart time  4040 #Finish Time: 4086 GPU: 1 _ep: 1746

413_ep_expo.txtStart time  4040 #Finish Time: 4086 GPU: 1 _ep: 1746

414_ep_expo.txtStart time  4072 #Finish Time: 4094 GPU: 1 _ep: 1047

414_ep_expo.txtStart time  4072 #Finish Time: 4094 GPU: 1 _ep: 1047

415_ep_expo.txtStart time  4086 #Finish Time: 4121 GPU: 1 _ep: 3416

415_ep_expo.txtStart time  4086 #Finish Time: 4121 GPU: 1 _ep: 3416

416_ep_expo.txtStart time  4094 #Finish Time: 4126 GPU: 1 _ep: 421

416_ep_expo.txtStart time  4094 #Finish Time: 4126 GPU: 1 _ep: 421

417_ep_expo.txtStart time  4121 #Finish Time: 4137 GPU: 1 _ep: 1155

417_ep_expo.txtStart time  4121 #Finish Time: 4137 GPU: 1 _ep: 1155

418_ep_expo.txtStart time  4126 #Finish Time: 4144 GPU: 1 _ep: 1094

418_ep_expo.txtStart time  4126 #Finish Time: 4144 GPU: 1 _ep: 1094

419_ep_expo.txtStart time  4137 #Finish Time: 4161 GPU: 1 _ep: 2627

419_ep_expo.txtStart time  4137 #Finish Time: 4161 GPU: 1 _ep: 2627

420_ep_expo.txtStart time  4144 #Finish Time: 4167 GPU: 1 _ep: 701

420_ep_expo.txtStart time  4144 #Finish Time: 4167 GPU: 1 _ep: 701

421_ep_expo.txtStart time  4161 #Finish Time: 4173 GPU: 1 _ep: 625

421_ep_expo.txtStart time  4161 #Finish Time: 4173 GPU: 1 _ep: 625

422_ep_expo.txtStart time  4167 #Finish Time: 4186 GPU: 1 _ep: 1902

422_ep_expo.txtStart time  4167 #Finish Time: 4186 GPU: 1 _ep: 1902

423_ep_expo.txtStart time  4173 #Finish Time: 4197 GPU: 1 _ep: 1534

423_ep_expo.txtStart time  4173 #Finish Time: 4197 GPU: 1 _ep: 1534

424_ep_expo.txtStart time  4186 #Finish Time: 4217 GPU: 1 _ep: 2577

424_ep_expo.txtStart time  4186 #Finish Time: 4217 GPU: 1 _ep: 2577

425_ep_expo.txtStart time  4197 #Finish Time: 4221 GPU: 1 _ep: 451

425_ep_expo.txtStart time  4197 #Finish Time: 4221 GPU: 1 _ep: 451

426_ep_expo.txtStart time  4217 #Finish Time: 4235 GPU: 1 _ep: 1850

426_ep_expo.txtStart time  4217 #Finish Time: 4235 GPU: 1 _ep: 1850

237_ep_expo.txtStart time  4228 #Finish Time: 4247 GPU: 32 _ep: 1682

237_ep_expo.txtStart time  4228 #Finish Time: 4247 GPU: 32 _ep: 1682

427_ep_expo.txtStart time  4247 #Finish Time: 4253 GPU: 1 _ep: 925

427_ep_expo.txtStart time  4247 #Finish Time: 4253 GPU: 1 _ep: 925

428_ep_expo.txtStart time  4247 #Finish Time: 4257 GPU: 1 _ep: 393

428_ep_expo.txtStart time  4247 #Finish Time: 4257 GPU: 1 _ep: 393

429_ep_expo.txtStart time  4253 #Finish Time: 4262 GPU: 1 _ep: 506

429_ep_expo.txtStart time  4253 #Finish Time: 4262 GPU: 1 _ep: 506

430_ep_expo.txtStart time  4257 #Finish Time: 4273 GPU: 1 _ep: 1296

430_ep_expo.txtStart time  4257 #Finish Time: 4273 GPU: 1 _ep: 1296

431_ep_expo.txtStart time  4262 #Finish Time: 4283 GPU: 1 _ep: 885

431_ep_expo.txtStart time  4262 #Finish Time: 4283 GPU: 1 _ep: 885

432_ep_expo.txtStart time  4273 #Finish Time: 4303 GPU: 1 _ep: 3259

432_ep_expo.txtStart time  4273 #Finish Time: 4303 GPU: 1 _ep: 3259

433_ep_expo.txtStart time  4283 #Finish Time: 4318 GPU: 1 _ep: 2271

433_ep_expo.txtStart time  4283 #Finish Time: 4318 GPU: 1 _ep: 2271

434_ep_expo.txtStart time  4298 #Finish Time: 4325 GPU: 1 _ep: 822

434_ep_expo.txtStart time  4298 #Finish Time: 4325 GPU: 1 _ep: 822

435_ep_expo.txtStart time  4318 #Finish Time: 4335 GPU: 1 _ep: 1528

435_ep_expo.txtStart time  4318 #Finish Time: 4335 GPU: 1 _ep: 1528

436_ep_expo.txtStart time  4325 #Finish Time: 4345 GPU: 1 _ep: 1408

436_ep_expo.txtStart time  4325 #Finish Time: 4345 GPU: 1 _ep: 1408

437_ep_expo.txtStart time  433