1_ep_norm.txtStart time  2 #Finish Time: 2 GPU: 2 _ep: 3

25_ep_norm.txtStart time  2 #Finish Time: 2 GPU: 2 _ep: 61

242_ep_norm.txtStart time  4 #Finish Time: 4 GPU: 1 _ep: 35

364_ep_norm.txtStart time  7 #Finish Time: 7 GPU: 1 _ep: 61

144_ep_norm.txtStart time  11 #Finish Time: 11 GPU: 8 _ep: 113

146_ep_norm.txtStart time  11 #Finish Time: 11 GPU: 8 _ep: 34

159_ep_norm.txtStart time  13 #Finish Time: 13 GPU: 8 _ep: 17

249_ep_norm.txtStart time  15 #Finish Time: 15 GPU: 1 _ep: 111

331_ep_norm.txtStart time  22 #Finish Time: 22 GPU: 1 _ep: 16

224_ep_norm.txtStart time  24 #Finish Time: 24 GPU: 16 _ep: 78

239_ep_norm.txtStart time  32 #Finish Time: 32 GPU: 32 _ep: 48

287_ep_norm.txtStart time  34 #Finish Time: 34 GPU: 1 _ep: 89

296_ep_norm.txtStart time  34 #Finish Time: 34 GPU: 1 _ep: 121

366_ep_norm.txtStart time  35 #Finish Time: 35 GPU: 1 _ep: 80

294_ep_norm.txtStart time  34 #Finish Time: 35 GPU: 1 _ep: 171

359_ep_norm.txtStart time  35 #Finish Time: 36 GPU: 1 _ep: 259

365_ep_norm.txtStart time  35 #Finish Time: 36 GPU: 1 _ep: 153

380_ep_norm.txtStart time  35 #Finish Time: 36 GPU: 1 _ep: 249

252_ep_norm.txtStart time  33 #Finish Time: 36 GPU: 1 _ep: 125

461_ep_norm.txtStart time  31 #Finish Time: 37 GPU: 1 _ep: 132

397_ep_norm.txtStart time  29 #Finish Time: 37 GPU: 1 _ep: 248

469_ep_norm.txtStart time  19 #Finish Time: 38 GPU: 1 _ep: 155

428_ep_norm.txtStart time  25 #Finish Time: 39 GPU: 1 _ep: 393

443_ep_norm.txtStart time  23 #Finish Time: 39 GPU: 1 _ep: 295

465_ep_norm.txtStart time  19 #Finish Time: 39 GPU: 1 _ep: 281

470_ep_norm.txtStart time  19 #Finish Time: 39 GPU: 1 _ep: 287

258_ep_norm.txtStart time  26 #Finish Time: 40 GPU: 1 _ep: 380

471_ep_norm.txtStart time  19 #Finish Time: 40 GPU: 1 _ep: 309

452_ep_norm.txtStart time  31 #Finish Time: 40 GPU: 1 _ep: 377

368_ep_norm.txtStart time  27 #Finish Time: 41 GPU: 1 _ep: 388

374_ep_norm.txtStart time  27 #Finish Time: 41 GPU: 1 _ep: 341

356_ep_norm.txtStart time  35 #Finish Time: 41 GPU: 1 _ep: 341

342_ep_norm.txtStart time  34 #Finish Time: 42 GPU: 1 _ep: 386

283_ep_norm.txtStart time  34 #Finish Time: 42 GPU: 1 _ep: 412

319_ep_norm.txtStart time  34 #Finish Time: 42 GPU: 1 _ep: 336

338_ep_norm.txtStart time  34 #Finish Time: 43 GPU: 1 _ep: 413

377_ep_norm.txtStart time  35 #Finish Time: 46 GPU: 1 _ep: 546

390_ep_norm.txtStart time  35 #Finish Time: 46 GPU: 1 _ep: 466

329_ep_norm.txtStart time  6 #Finish Time: 46 GPU: 1 _ep: 497

425_ep_norm.txtStart time  16 #Finish Time: 46 GPU: 1 _ep: 451

416_ep_norm.txtStart time  13 #Finish Time: 46 GPU: 1 _ep: 421

456_ep_norm.txtStart time  31 #Finish Time: 47 GPU: 1 _ep: 422

462_ep_norm.txtStart time  31 #Finish Time: 47 GPU: 1 _ep: 501

429_ep_norm.txtStart time  25 #Finish Time: 47 GPU: 1 _ep: 506

344_ep_norm.txtStart time  34 #Finish Time: 49 GPU: 1 _ep: 653

460_ep_norm.txtStart time  31 #Finish Time: 49 GPU: 1 _ep: 578

420_ep_norm.txtStart time  25 #Finish Time: 49 GPU: 1 _ep: 701

421_ep_norm.txtStart time  25 #Finish Time: 49 GPU: 1 _ep: 625

304_ep_norm.txtStart time  24 #Finish Time: 49 GPU: 1 _ep: 580

336_ep_norm.txtStart time  34 #Finish Time: 50 GPU: 1 _ep: 636

327_ep_norm.txtStart time  6 #Finish Time: 50 GPU: 1 _ep: 653

245_ep_norm.txtStart time  5 #Finish Time: 50 GPU: 1 _ep: 591

280_ep_norm.txtStart time  33 #Finish Time: 50 GPU: 1 _ep: 587

318_ep_norm.txtStart time  34 #Finish Time: 51 GPU: 1 _ep: 644

17_ep_norm.txtStart time  2 #Finish Time: 51 GPU: 2 _ep: 434

16_ep_norm.txtStart time  2 #Finish Time: 51 GPU: 2 _ep: 402

326_ep_norm.txtStart time  34 #Finish Time: 52 GPU: 1 _ep: 666

478_ep_norm.txtStart time  33 #Finish Time: 52 GPU: 1 _ep: 666

254_ep_norm.txtStart time  33 #Finish Time: 52 GPU: 1 _ep: 620

270_ep_norm.txtStart time  33 #Finish Time: 52 GPU: 1 _ep: 625

2_ep_norm.txtStart time  2 #Finish Time: 53 GPU: 2 _ep: 312

3_ep_norm.txtStart time  2 #Finish Time: 53 GPU: 2 _ep: 305

90_ep_norm.txtStart time  5 #Finish Time: 55 GPU: 4 _ep: 218

76_ep_norm.txtStart time  4 #Finish Time: 56 GPU: 4 _ep: 251

313_ep_norm.txtStart time  34 #Finish Time: 57 GPU: 1 _ep: 845

310_ep_norm.txtStart time  34 #Finish Time: 57 GPU: 1 _ep: 745

297_ep_norm.txtStart time  34 #Finish Time: 57 GPU: 1 _ep: 818

251_ep_norm.txtStart time  33 #Finish Time: 58 GPU: 1 _ep: 736

275_ep_norm.txtStart time  33 #Finish Time: 58 GPU: 1 _ep: 826

286_ep_norm.txtStart time  34 #Finish Time: 58 GPU: 1 _ep: 793

317_ep_norm.txtStart time  34 #Finish Time: 58 GPU: 1 _ep: 793

403_ep_norm.txtStart time  29 #Finish Time: 58 GPU: 1 _ep: 815

349_ep_norm.txtStart time  34 #Finish Time: 59 GPU: 1 _ep: 860

243_ep_norm.txtStart time  4 #Finish Time: 59 GPU: 1 _ep: 756

434_ep_norm.txtStart time  32 #Finish Time: 60 GPU: 1 _ep: 822

292_ep_norm.txtStart time  34 #Finish Time: 60 GPU: 1 _ep: 749

343_ep_norm.txtStart time  34 #Finish Time: 60 GPU: 1 _ep: 705

446_ep_norm.txtStart time  23 #Finish Time: 60 GPU: 1 _ep: 758

457_ep_norm.txtStart time  31 #Finish Time: 61 GPU: 1 _ep: 960

427_ep_norm.txtStart time  25 #Finish Time: 61 GPU: 1 _ep: 925

442_ep_norm.txtStart time  23 #Finish Time: 61 GPU: 1 _ep: 904

472_ep_norm.txtStart time  19 #Finish Time: 61 GPU: 1 _ep: 929

367_ep_norm.txtStart time  27 #Finish Time: 61 GPU: 1 _ep: 984

363_ep_norm.txtStart time  7 #Finish Time: 62 GPU: 1 _ep: 842

328_ep_norm.txtStart time  6 #Finish Time: 62 GPU: 1 _ep: 1012

247_ep_norm.txtStart time  5 #Finish Time: 62 GPU: 1 _ep: 996

246_ep_norm.txtStart time  5 #Finish Time: 62 GPU: 1 _ep: 831

257_ep_norm.txtStart time  26 #Finish Time: 62 GPU: 1 _ep: 934

476_ep_norm.txtStart time  9 #Finish Time: 62 GPU: 1 _ep: 898

330_ep_norm.txtStart time  34 #Finish Time: 62 GPU: 1 _ep: 979

281_ep_norm.txtStart time  33 #Finish Time: 62 GPU: 1 _ep: 893

351_ep_norm.txtStart time  34 #Finish Time: 62 GPU: 1 _ep: 1016

295_ep_norm.txtStart time  34 #Finish Time: 63 GPU: 1 _ep: 930

320_ep_norm.txtStart time  34 #Finish Time: 63 GPU: 1 _ep: 916

402_ep_norm.txtStart time  29 #Finish Time: 63 GPU: 1 _ep: 931

314_ep_norm.txtStart time  34 #Finish Time: 63 GPU: 1 _ep: 1009

32_ep_norm.txtStart time  26 #Finish Time: 64 GPU: 2 _ep: 501

53_ep_norm.txtStart time  20 #Finish Time: 65 GPU: 3 _ep: 360

51_ep_norm.txtStart time  18 #Finish Time: 65 GPU: 3 _ep: 378

431_ep_norm.txtStart time  25 #Finish Time: 65 GPU: 1 _ep: 885

354_ep_norm.txtStart time  35 #Finish Time: 66 GPU: 1 _ep: 951

372_ep_norm.txtStart time  27 #Finish Time: 66 GPU: 1 _ep: 1138

315_ep_norm.txtStart time  34 #Finish Time: 66 GPU: 1 _ep: 1046

405_ep_norm.txtStart time  29 #Finish Time: 66 GPU: 1 _ep: 1052

408_ep_norm.txtStart time  29 #Finish Time: 66 GPU: 1 _ep: 1012

409_ep_norm.txtStart time  29 #Finish Time: 66 GPU: 1 _ep: 1101

384_ep_norm.txtStart time  35 #Finish Time: 66 GPU: 1 _ep: 1044

357_ep_norm.txtStart time  35 #Finish Time: 67 GPU: 1 _ep: 1000

382_ep_norm.txtStart time  35 #Finish Time: 67 GPU: 1 _ep: 1118

414_ep_norm.txtStart time  35 #Finish Time: 67 GPU: 1 _ep: 1047

376_ep_norm.txtStart time  27 #Finish Time: 67 GPU: 1 _ep: 1157

250_ep_norm.txtStart time  17 #Finish Time: 67 GPU: 1 _ep: 1116

418_ep_norm.txtStart time  13 #Finish Time: 67 GPU: 1 _ep: 1094

438_ep_norm.txtStart time  33 #Finish Time: 67 GPU: 1 _ep: 1159

278_ep_norm.txtStart time  33 #Finish Time: 67 GPU: 1 _ep: 1107

459_ep_norm.txtStart time  31 #Finish Time: 68 GPU: 1 _ep: 1164

449_ep_norm.txtStart time  23 #Finish Time: 68 GPU: 1 _ep: 1136

466_ep_norm.txtStart time  19 #Finish Time: 68 GPU: 1 _ep: 1109

385_ep_norm.txtStart time  35 #Finish Time: 68 GPU: 1 _ep: 1076

383_ep_norm.txtStart time  35 #Finish Time: 68 GPU: 1 _ep: 1224

261_ep_norm.txtStart time  30 #Finish Time: 69 GPU: 1 _ep: 1195

430_ep_norm.txtStart time  25 #Finish Time: 69 GPU: 1 _ep: 1296

307_ep_norm.txtStart time  24 #Finish Time: 69 GPU: 1 _ep: 1195

308_ep_norm.txtStart time  24 #Finish Time: 69 GPU: 1 _ep: 1207

332_ep_norm.txtStart time  22 #Finish Time: 69 GPU: 1 _ep: 1262

464_ep_norm.txtStart time  19 #Finish Time: 69 GPU: 1 _ep: 1184

473_ep_norm.txtStart time  8 #Finish Time: 69 GPU: 1 _ep: 1174

417_ep_norm.txtStart time  13 #Finish Time: 69 GPU: 1 _ep: 1155

437_ep_norm.txtStart time  33 #Finish Time: 70 GPU: 1 _ep: 1202

253_ep_norm.txtStart time  33 #Finish Time: 70 GPU: 1 _ep: 1229

322_ep_norm.txtStart time  34 #Finish Time: 70 GPU: 1 _ep: 1209

394_ep_norm.txtStart time  29 #Finish Time: 70 GPU: 1 _ep: 1174

400_ep_norm.txtStart time  29 #Finish Time: 70 GPU: 1 _ep: 1280

401_ep_norm.txtStart time  29 #Finish Time: 70 GPU: 1 _ep: 1211

298_ep_norm.txtStart time  34 #Finish Time: 70 GPU: 1 _ep: 1197

311_ep_norm.txtStart time  34 #Finish Time: 70 GPU: 1 _ep: 1278

4_ep_norm.txtStart time  2 #Finish Time: 70 GPU: 2 _ep: 586

8_ep_norm.txtStart time  2 #Finish Time: 71 GPU: 2 _ep: 663

10_ep_norm.txtStart time  2 #Finish Time: 71 GPU: 2 _ep: 675

22_ep_norm.txtStart time  2 #Finish Time: 71 GPU: 2 _ep: 670

77_ep_norm.txtStart time  4 #Finish Time: 72 GPU: 4 _ep: 373

60_ep_norm.txtStart time  3 #Finish Time: 72 GPU: 4 _ep: 358

109_ep_norm.txtStart time  6 #Finish Time: 74 GPU: 4 _ep: 308

325_ep_norm.txtStart time  34 #Finish Time: 76 GPU: 1 _ep: 1324

387_ep_norm.txtStart time  12 #Finish Time: 77 GPU: 1 _ep: 1348

182_ep_norm.txtStart time  16 #Finish Time: 80 GPU: 8 _ep: 145

171_ep_norm.txtStart time  15 #Finish Time: 80 GPU: 8 _ep: 180

293_ep_norm.txtStart time  34 #Finish Time: 80 GPU: 1 _ep: 1353

288_ep_norm.txtStart time  34 #Finish Time: 82 GPU: 1 _ep: 1395

162_ep_norm.txtStart time  13 #Finish Time: 83 GPU: 8 _ep: 280

149_ep_norm.txtStart time  11 #Finish Time: 85 GPU: 8 _ep: 137

136_ep_norm.txtStart time  10 #Finish Time: 85 GPU: 8 _ep: 138

138_ep_norm.txtStart time  10 #Finish Time: 85 GPU: 8 _ep: 267

134_ep_norm.txtStart time  9 #Finish Time: 87 GPU: 8 _ep: 132

447_ep_norm.txtStart time  23 #Finish Time: 87 GPU: 1 _ep: 1442

386_ep_norm.txtStart time  12 #Finish Time: 88 GPU: 1 _ep: 1397

436_ep_norm.txtStart time  33 #Finish Time: 88 GPU: 1 _ep: 1408

40_ep_norm.txtStart time  28 #Finish Time: 89 GPU: 3 _ep: 530

55_ep_norm.txtStart time  21 #Finish Time: 89 GPU: 3 _ep: 429

388_ep_norm.txtStart time  35 #Finish Time: 89 GPU: 1 _ep: 1344

389_ep_norm.txtStart time  35 #Finish Time: 89 GPU: 1 _ep: 1294

240_ep_norm.txtStart time  3 #Finish Time: 89 GPU: 1 _ep: 1397

375_ep_norm.txtStart time  27 #Finish Time: 90 GPU: 1 _ep: 1374

272_ep_norm.txtStart time  33 #Finish Time: 90 GPU: 1 _ep: 1413

347_ep_norm.txtStart time  34 #Finish Time: 90 GPU: 1 _ep: 1441

260_ep_norm.txtStart time  30 #Finish Time: 90 GPU: 1 _ep: 1349

305_ep_norm.txtStart time  24 #Finish Time: 90 GPU: 1 _ep: 1393

333_ep_norm.txtStart time  22 #Finish Time: 90 GPU: 1 _ep: 1418

381_ep_norm.txtStart time  35 #Finish Time: 91 GPU: 1 _ep: 1482

316_ep_norm.txtStart time  34 #Finish Time: 91 GPU: 1 _ep: 1557

392_ep_norm.txtStart time  29 #Finish Time: 91 GPU: 1 _ep: 1512

477_ep_norm.txtStart time  31 #Finish Time: 91 GPU: 1 _ep: 1476

448_ep_norm.txtStart time  23 #Finish Time: 91 GPU: 1 _ep: 1437

454_ep_norm.txtStart time  14 #Finish Time: 91 GPU: 1 _ep: 1470

300_ep_norm.txtStart time  24 #Finish Time: 92 GPU: 1 _ep: 1599

423_ep_norm.txtStart time  25 #Finish Time: 92 GPU: 1 _ep: 1534

263_ep_norm.txtStart time  30 #Finish Time: 92 GPU: 1 _ep: 1568

264_ep_norm.txtStart time  30 #Finish Time: 92 GPU: 1 _ep: 1497

285_ep_norm.txtStart time  34 #Finish Time: 92 GPU: 1 _ep: 1488

277_ep_norm.txtStart time  33 #Finish Time: 92 GPU: 1 _ep: 1530

435_ep_norm.txtStart time  32 #Finish Time: 92 GPU: 1 _ep: 1528

352_ep_norm.txtStart time  34 #Finish Time: 92 GPU: 1 _ep: 1482

324_ep_norm.txtStart time  34 #Finish Time: 92 GPU: 1 _ep: 1526

9_ep_norm.txtStart time  2 #Finish Time: 92 GPU: 2 _ep: 751

33_ep_norm.txtStart time  26 #Finish Time: 93 GPU: 2 _ep: 852

14_ep_norm.txtStart time  2 #Finish Time: 93 GPU: 2 _ep: 816

21_ep_norm.txtStart time  2 #Finish Time: 93 GPU: 2 _ep: 845

444_ep_norm.txtStart time  23 #Finish Time: 93 GPU: 1 _ep: 1654

440_ep_norm.txtStart time  23 #Finish Time: 93 GPU: 1 _ep: 1697

309_ep_norm.txtStart time  24 #Finish Time: 93 GPU: 1 _ep: 1757

346_ep_norm.txtStart time  10 #Finish Time: 94 GPU: 1 _ep: 1763

345_ep_norm.txtStart time  10 #Finish Time: 94 GPU: 1 _ep: 1689

396_ep_norm.txtStart time  29 #Finish Time: 94 GPU: 1 _ep: 1675

404_ep_norm.txtStart time  29 #Finish Time: 94 GPU: 1 _ep: 1621

406_ep_norm.txtStart time  29 #Finish Time: 94 GPU: 1 _ep: 1731

291_ep_norm.txtStart time  34 #Finish Time: 94 GPU: 1 _ep: 1574

303_ep_norm.txtStart time  24 #Finish Time: 94 GPU: 1 _ep: 1625

334_ep_norm.txtStart time  22 #Finish Time: 94 GPU: 1 _ep: 1565

259_ep_norm.txtStart time  26 #Finish Time: 95 GPU: 1 _ep: 1609

479_ep_norm.txtStart time  17 #Finish Time: 95 GPU: 1 _ep: 1721

269_ep_norm.txtStart time  33 #Finish Time: 95 GPU: 1 _ep: 1863

361_ep_norm.txtStart time  11 #Finish Time: 95 GPU: 1 _ep: 1850

379_ep_norm.txtStart time  35 #Finish Time: 95 GPU: 1 _ep: 1811

373_ep_norm.txtStart time  27 #Finish Time: 95 GPU: 1 _ep: 1837

370_ep_norm.txtStart time  27 #Finish Time: 95 GPU: 1 _ep: 1833

267_ep_norm.txtStart time  30 #Finish Time: 95 GPU: 1 _ep: 1721

410_ep_norm.txtStart time  29 #Finish Time: 95 GPU: 1 _ep: 1904

312_ep_norm.txtStart time  34 #Finish Time: 95 GPU: 1 _ep: 1877

360_ep_norm.txtStart time  35 #Finish Time: 95 GPU: 1 _ep: 1793

284_ep_norm.txtStart time  20 #Finish Time: 96 GPU: 1 _ep: 1877

256_ep_norm.txtStart time  26 #Finish Time: 96 GPU: 1 _ep: 1869

248_ep_norm.txtStart time  15 #Finish Time: 96 GPU: 1 _ep: 1862

413_ep_norm.txtStart time  35 #Finish Time: 96 GPU: 1 _ep: 1746

306_ep_norm.txtStart time  24 #Finish Time: 96 GPU: 1 _ep: 1775

426_ep_norm.txtStart time  25 #Finish Time: 96 GPU: 1 _ep: 1850

262_ep_norm.txtStart time  30 #Finish Time: 96 GPU: 1 _ep: 1802

6_ep_norm.txtStart time  2 #Finish Time: 97 GPU: 2 _ep: 917

12_ep_norm.txtStart time  2 #Finish Time: 97 GPU: 2 _ep: 950

34_ep_norm.txtStart time  28 #Finish Time: 97 GPU: 2 _ep: 936

44_ep_norm.txtStart time  28 #Finish Time: 97 GPU: 3 _ep: 653

46_ep_norm.txtStart time  30 #Finish Time: 97 GPU: 3 _ep: 649

102_ep_norm.txtStart time  6 #Finish Time: 98 GPU: 4 _ep: 463

110_ep_norm.txtStart time  7 #Finish Time: 98 GPU: 4 _ep: 416

115_ep_norm.txtStart time  7 #Finish Time: 99 GPU: 4 _ep: 484

105_ep_norm.txtStart time  6 #Finish Time: 100 GPU: 4 _ep: 496

458_ep_norm.txtStart time  31 #Finish Time: 102 GPU: 1 _ep: 1902

463_ep_norm.txtStart time  31 #Finish Time: 102 GPU: 1 _ep: 1963

276_ep_norm.txtStart time  33 #Finish Time: 102 GPU: 1 _ep: 1990

337_ep_norm.txtStart time  34 #Finish Time: 102 GPU: 1 _ep: 2055

441_ep_norm.txtStart time  23 #Finish Time: 102 GPU: 1 _ep: 1914

422_ep_norm.txtStart time  25 #Finish Time: 102 GPU: 1 _ep: 1902

362_ep_norm.txtStart time  11 #Finish Time: 102 GPU: 1 _ep: 1927

450_ep_norm.txtStart time  33 #Finish Time: 102 GPU: 1 _ep: 2045

467_ep_norm.txtStart time  19 #Finish Time: 102 GPU: 1 _ep: 2076

339_ep_norm.txtStart time  34 #Finish Time: 102 GPU: 1 _ep: 2076

302_ep_norm.txtStart time  24 #Finish Time: 103 GPU: 1 _ep: 2085

475_ep_norm.txtStart time  9 #Finish Time: 103 GPU: 1 _ep: 2059

282_ep_norm.txtStart time  34 #Finish Time: 103 GPU: 1 _ep: 2141

439_ep_norm.txtStart time  33 #Finish Time: 103 GPU: 1 _ep: 2061

398_ep_norm.txtStart time  29 #Finish Time: 103 GPU: 1 _ep: 2058

323_ep_norm.txtStart time  34 #Finish Time: 103 GPU: 1 _ep: 2183

369_ep_norm.txtStart time  27 #Finish Time: 103 GPU: 1 _ep: 2017

29_ep_norm.txtStart time  2 #Finish Time: 104 GPU: 2 _ep: 1024

289_ep_norm.txtStart time  34 #Finish Time: 104 GPU: 1 _ep: 2277

353_ep_norm.txtStart time  34 #Finish Time: 104 GPU: 1 _ep: 2222

433_ep_norm.txtStart time  32 #Finish Time: 104 GPU: 1 _ep: 2271

271_ep_norm.txtStart time  33 #Finish Time: 104 GPU: 1 _ep: 2263

47_ep_norm.txtStart time  30 #Finish Time: 105 GPU: 3 _ep: 817

350_ep_norm.txtStart time  34 #Finish Time: 105 GPU: 1 _ep: 2472

407_ep_norm.txtStart time  29 #Finish Time: 105 GPU: 1 _ep: 2181

299_ep_norm.txtStart time  34 #Finish Time: 105 GPU: 1 _ep: 2231

340_ep_norm.txtStart time  34 #Finish Time: 105 GPU: 1 _ep: 2281

321_ep_norm.txtStart time  34 #Finish Time: 106 GPU: 1 _ep: 2481

412_ep_norm.txtStart time  29 #Finish Time: 106 GPU: 1 _ep: 2386

341_ep_norm.txtStart time  34 #Finish Time: 106 GPU: 1 _ep: 2458

455_ep_norm.txtStart time  31 #Finish Time: 106 GPU: 1 _ep: 2352

474_ep_norm.txtStart time  8 #Finish Time: 106 GPU: 1 _ep: 2341

274_ep_norm.txtStart time  33 #Finish Time: 106 GPU: 1 _ep: 2352

279_ep_norm.txtStart time  33 #Finish Time: 106 GPU: 1 _ep: 2459

335_ep_norm.txtStart time  34 #Finish Time: 107 GPU: 1 _ep: 2427

151_ep_norm.txtStart time  12 #Finish Time: 110 GPU: 8 _ep: 366

157_ep_norm.txtStart time  13 #Finish Time: 111 GPU: 8 _ep: 336

174_ep_norm.txtStart time  15 #Finish Time: 112 GPU: 8 _ep: 271

205_ep_norm.txtStart time  33 #Finish Time: 116 GPU: 8 _ep: 254

228_ep_norm.txtStart time  25 #Finish Time: 120 GPU: 16 _ep: 145

355_ep_norm.txtStart time  35 #Finish Time: 120 GPU: 1 _ep: 2689

255_ep_norm.txtStart time  33 #Finish Time: 120 GPU: 1 _ep: 2574

222_ep_norm.txtStart time  23 #Finish Time: 121 GPU: 16 _ep: 200

213_ep_norm.txtStart time  20 #Finish Time: 124 GPU: 16 _ep: 133

393_ep_norm.txtStart time  29 #Finish Time: 125 GPU: 1 _ep: 2615

399_ep_norm.txtStart time  29 #Finish Time: 125 GPU: 1 _ep: 2589

87_ep_norm.txtStart time  5 #Finish Time: 126 GPU: 4 _ep: 644

88_ep_norm.txtStart time  5 #Finish Time: 126 GPU: 4 _ep: 594

98_ep_norm.txtStart time  6 #Finish Time: 126 GPU: 4 _ep: 666

411_ep_norm.txtStart time  29 #Finish Time: 126 GPU: 1 _ep: 2703

371_ep_norm.txtStart time  27 #Finish Time: 126 GPU: 1 _ep: 2441

101_ep_norm.txtStart time  6 #Finish Time: 127 GPU: 4 _ep: 546

126_ep_norm.txtStart time  8 #Finish Time: 127 GPU: 8 _ep: 297

133_ep_norm.txtStart time  9 #Finish Time: 128 GPU: 8 _ep: 402

268_ep_norm.txtStart time  30 #Finish Time: 128 GPU: 1 _ep: 2775

424_ep_norm.txtStart time  16 #Finish Time: 128 GPU: 1 _ep: 2577

419_ep_norm.txtStart time  25 #Finish Time: 128 GPU: 1 _ep: 2627

445_ep_norm.txtStart time  23 #Finish Time: 129 GPU: 1 _ep: 2599

273_ep_norm.txtStart time  33 #Finish Time: 129 GPU: 1 _ep: 2530

241_ep_norm.txtStart time  3 #Finish Time: 129 GPU: 1 _ep: 2652

395_ep_norm.txtStart time  29 #Finish Time: 129 GPU: 1 _ep: 2714

451_ep_norm.txtStart time  33 #Finish Time: 129 GPU: 1 _ep: 2677

39_ep_norm.txtStart time  28 #Finish Time: 129 GPU: 2 _ep: 1426

19_ep_norm.txtStart time  2 #Finish Time: 129 GPU: 2 _ep: 1307

43_ep_norm.txtStart time  28 #Finish Time: 129 GPU: 3 _ep: 1023

52_ep_norm.txtStart time  20 #Finish Time: 130 GPU: 3 _ep: 867

348_ep_norm.txtStart time  34 #Finish Time: 130 GPU: 1 _ep: 2736

468_ep_norm.txtStart time  19 #Finish Time: 130 GPU: 1 _ep: 2847

358_ep_norm.txtStart time  35 #Finish Time: 130 GPU: 1 _ep: 2907

378_ep_norm.txtStart time  35 #Finish Time: 130 GPU: 1 _ep: 2926

290_ep_norm.txtStart time  34 #Finish Time: 130 GPU: 1 _ep: 2899

37_ep_norm.txtStart time  28 #Finish Time: 130 GPU: 2 _ep: 1469

27_ep_norm.txtStart time  2 #Finish Time: 130 GPU: 2 _ep: 1514

301_ep_norm.txtStart time  24 #Finish Time: 131 GPU: 1 _ep: 2999

266_ep_norm.txtStart time  30 #Finish Time: 131 GPU: 1 _ep: 2905

81_ep_norm.txtStart time  4 #Finish Time: 131 GPU: 4 _ep: 762

86_ep_norm.txtStart time  5 #Finish Time: 132 GPU: 4 _ep: 809

92_ep_norm.txtStart time  5 #Finish Time: 132 GPU: 4 _ep: 724

97_ep_norm.txtStart time  6 #Finish Time: 132 GPU: 4 _ep: 726

73_ep_norm.txtStart time  4 #Finish Time: 132 GPU: 4 _ep: 880

75_ep_norm.txtStart time  4 #Finish Time: 133 GPU: 4 _ep: 833

69_ep_norm.txtStart time  4 #Finish Time: 133 GPU: 4 _ep: 765

66_ep_norm.txtStart time  3 #Finish Time: 134 GPU: 4 _ep: 835

0_ep_norm.txtStart time  2 #Finish Time: 134 GPU: 2 _ep: 1507

453_ep_norm.txtStart time  14 #Finish Time: 134 GPU: 1 _ep: 3054

59_ep_norm.txtStart time  22 #Finish Time: 134 GPU: 3 _ep: 1124

432_ep_norm.txtStart time  35 #Finish Time: 135 GPU: 1 _ep: 3259

23_ep_norm.txtStart time  2 #Finish Time: 135 GPU: 2 _ep: 1734

415_ep_norm.txtStart time  35 #Finish Time: 136 GPU: 1 _ep: 3416

244_ep_norm.txtStart time  4 #Finish Time: 136 GPU: 1 _ep: 3462

26_ep_norm.txtStart time  2 #Finish Time: 136 GPU: 2 _ep: 1815

30_ep_norm.txtStart time  21 #Finish Time: 137 GPU: 2 _ep: 1798

265_ep_norm.txtStart time  30 #Finish Time: 137 GPU: 1 _ep: 3577

28_ep_norm.txtStart time  2 #Finish Time: 137 GPU: 2 _ep: 1742

93_ep_norm.txtStart time  5 #Finish Time: 137 GPU: 4 _ep: 875

78_ep_norm.txtStart time  4 #Finish Time: 138 GPU: 4 _ep: 929

94_ep_norm.txtStart time  5 #Finish Time: 138 GPU: 4 _ep: 955

95_ep_norm.txtStart time  5 #Finish Time: 138 GPU: 4 _ep: 907

80_ep_norm.txtStart time  4 #Finish Time: 138 GPU: 4 _ep: 970

140_ep_norm.txtStart time  10 #Finish Time: 140 GPU: 8 _ep: 468

129_ep_norm.txtStart time  9 #Finish Time: 141 GPU: 8 _ep: 552

198_ep_norm.txtStart time  18 #Finish Time: 142 GPU: 8 _ep: 523

180_ep_norm.txtStart time  16 #Finish Time: 145 GPU: 8 _ep: 476

20_ep_norm.txtStart time  2 #Finish Time: 146 GPU: 2 _ep: 2168

11_ep_norm.txtStart time  2 #Finish Time: 150 GPU: 2 _ep: 2034

5_ep_norm.txtStart time  2 #Finish Time: 150 GPU: 2 _ep: 1943

54_ep_norm.txtStart time  20 #Finish Time: 151 GPU: 3 _ep: 1409

45_ep_norm.txtStart time  30 #Finish Time: 151 GPU: 3 _ep: 1258

49_ep_norm.txtStart time  30 #Finish Time: 151 GPU: 3 _ep: 1354

56_ep_norm.txtStart time  21 #Finish Time: 151 GPU: 3 _ep: 1354

36_ep_norm.txtStart time  28 #Finish Time: 151 GPU: 2 _ep: 2098

35_ep_norm.txtStart time  28 #Finish Time: 151 GPU: 2 _ep: 2317

96_ep_norm.txtStart time  6 #Finish Time: 152 GPU: 4 _ep: 1075

57_ep_norm.txtStart time  34 #Finish Time: 153 GPU: 3 _ep: 1602

85_ep_norm.txtStart time  5 #Finish Time: 153 GPU: 4 _ep: 1132

67_ep_norm.txtStart time  3 #Finish Time: 153 GPU: 4 _ep: 1061

112_ep_norm.txtStart time  7 #Finish Time: 153 GPU: 4 _ep: 1019

65_ep_norm.txtStart time  3 #Finish Time: 153 GPU: 4 _ep: 1065

391_ep_norm.txtStart time  29 #Finish Time: 154 GPU: 1 _ep: 4290

82_ep_norm.txtStart time  5 #Finish Time: 154 GPU: 4 _ep: 1263

74_ep_norm.txtStart time  4 #Finish Time: 155 GPU: 4 _ep: 1149

118_ep_norm.txtStart time  7 #Finish Time: 155 GPU: 4 _ep: 1297

104_ep_norm.txtStart time  6 #Finish Time: 156 GPU: 4 _ep: 1200

106_ep_norm.txtStart time  6 #Finish Time: 156 GPU: 4 _ep: 1225

132_ep_norm.txtStart time  9 #Finish Time: 157 GPU: 8 _ep: 677

89_ep_norm.txtStart time  5 #Finish Time: 158 GPU: 4 _ep: 1260

186_ep_norm.txtStart time  17 #Finish Time: 162 GPU: 8 _ep: 683

208_ep_norm.txtStart time  19 #Finish Time: 165 GPU: 8 _ep: 645

15_ep_norm.txtStart time  2 #Finish Time: 170 GPU: 2 _ep: 2566

31_ep_norm.txtStart time  26 #Finish Time: 171 GPU: 2 _ep: 2500

7_ep_norm.txtStart time  2 #Finish Time: 172 GPU: 2 _ep: 2681

116_ep_norm.txtStart time  7 #Finish Time: 173 GPU: 4 _ep: 1413

231_ep_norm.txtStart time  26 #Finish Time: 175 GPU: 16 _ep: 388

227_ep_norm.txtStart time  25 #Finish Time: 175 GPU: 16 _ep: 413

13_ep_norm.txtStart time  2 #Finish Time: 177 GPU: 2 _ep: 2831

48_ep_norm.txtStart time  30 #Finish Time: 177 GPU: 3 _ep: 1691

107_ep_norm.txtStart time  6 #Finish Time: 177 GPU: 4 _ep: 1427

38_ep_norm.txtStart time  28 #Finish Time: 177 GPU: 2 _ep: 2809

119_ep_norm.txtStart time  7 #Finish Time: 178 GPU: 4 _ep: 1461

99_ep_norm.txtStart time  6 #Finish Time: 178 GPU: 4 _ep: 1432

108_ep_norm.txtStart time  6 #Finish Time: 179 GPU: 4 _ep: 1565

142_ep_norm.txtStart time  10 #Finish Time: 179 GPU: 8 _ep: 804

207_ep_norm.txtStart time  19 #Finish Time: 181 GPU: 8 _ep: 809

204_ep_norm.txtStart time  33 #Finish Time: 181 GPU: 8 _ep: 742

202_ep_norm.txtStart time  32 #Finish Time: 182 GPU: 8 _ep: 816

179_ep_norm.txtStart time  16 #Finish Time: 185 GPU: 8 _ep: 778

169_ep_norm.txtStart time  14 #Finish Time: 186 GPU: 8 _ep: 804

18_ep_norm.txtStart time  2 #Finish Time: 187 GPU: 2 _ep: 3511

165_ep_norm.txtStart time  14 #Finish Time: 187 GPU: 8 _ep: 846

24_ep_norm.txtStart time  2 #Finish Time: 188 GPU: 2 _ep: 3625

139_ep_norm.txtStart time  10 #Finish Time: 188 GPU: 8 _ep: 809

63_ep_norm.txtStart time  3 #Finish Time: 189 GPU: 4 _ep: 1633

103_ep_norm.txtStart time  6 #Finish Time: 189 GPU: 4 _ep: 1677

68_ep_norm.txtStart time  4 #Finish Time: 190 GPU: 4 _ep: 1668

117_ep_norm.txtStart time  7 #Finish Time: 191 GPU: 4 _ep: 1868

113_ep_norm.txtStart time  7 #Finish Time: 191 GPU: 4 _ep: 1796

84_ep_norm.txtStart time  5 #Finish Time: 191 GPU: 4 _ep: 1901

83_ep_norm.txtStart time  5 #Finish Time: 191 GPU: 4 _ep: 2012

176_ep_norm.txtStart time  15 #Finish Time: 195 GPU: 8 _ep: 975

177_ep_norm.txtStart time  15 #Finish Time: 195 GPU: 8 _ep: 857

167_ep_norm.txtStart time  14 #Finish Time: 195 GPU: 8 _ep: 951

168_ep_norm.txtStart time  14 #Finish Time: 195 GPU: 8 _ep: 944

173_ep_norm.txtStart time  15 #Finish Time: 196 GPU: 8 _ep: 890

189_ep_norm.txtStart time  17 #Finish Time: 198 GPU: 8 _ep: 892

190_ep_norm.txtStart time  17 #Finish Time: 198 GPU: 8 _ep: 897

141_ep_norm.txtStart time  10 #Finish Time: 199 GPU: 8 _ep: 912

62_ep_norm.txtStart time  3 #Finish Time: 200 GPU: 4 _ep: 1945

226_ep_norm.txtStart time  25 #Finish Time: 201 GPU: 16 _ep: 515

111_ep_norm.txtStart time  7 #Finish Time: 203 GPU: 4 _ep: 2073

114_ep_norm.txtStart time  7 #Finish Time: 204 GPU: 4 _ep: 1971

214_ep_norm.txtStart time  21 #Finish Time: 205 GPU: 16 _ep: 515

71_ep_norm.txtStart time  4 #Finish Time: 207 GPU: 4 _ep: 2070

91_ep_norm.txtStart time  5 #Finish Time: 207 GPU: 4 _ep: 1984

124_ep_norm.txtStart time  8 #Finish Time: 208 GPU: 8 _ep: 1035

127_ep_norm.txtStart time  8 #Finish Time: 209 GPU: 8 _ep: 1140

197_ep_norm.txtStart time  18 #Finish Time: 211 GPU: 8 _ep: 1007

188_ep_norm.txtStart time  17 #Finish Time: 211 GPU: 8 _ep: 1079

166_ep_norm.txtStart time  14 #Finish Time: 212 GPU: 8 _ep: 1039

163_ep_norm.txtStart time  13 #Finish Time: 213 GPU: 8 _ep: 1046

41_ep_norm.txtStart time  28 #Finish Time: 214 GPU: 3 _ep: 3028

42_ep_norm.txtStart time  28 #Finish Time: 215 GPU: 3 _ep: 2900

70_ep_norm.txtStart time  4 #Finish Time: 215 GPU: 4 _ep: 2384

79_ep_norm.txtStart time  4 #Finish Time: 215 GPU: 4 _ep: 2286

100_ep_norm.txtStart time  6 #Finish Time: 215 GPU: 4 _ep: 2211

58_ep_norm.txtStart time  34 #Finish Time: 216 GPU: 3 _ep: 3103

64_ep_norm.txtStart time  3 #Finish Time: 216 GPU: 4 _ep: 2435

156_ep_norm.txtStart time  12 #Finish Time: 216 GPU: 8 _ep: 1348

143_ep_norm.txtStart time  11 #Finish Time: 216 GPU: 8 _ep: 1201

131_ep_norm.txtStart time  9 #Finish Time: 217 GPU: 8 _ep: 1254

147_ep_norm.txtStart time  11 #Finish Time: 217 GPU: 8 _ep: 1236

154_ep_norm.txtStart time  12 #Finish Time: 218 GPU: 8 _ep: 1252

191_ep_norm.txtStart time  17 #Finish Time: 218 GPU: 8 _ep: 1231

172_ep_norm.txtStart time  15 #Finish Time: 219 GPU: 8 _ep: 1197

181_ep_norm.txtStart time  16 #Finish Time: 219 GPU: 8 _ep: 1173

209_ep_norm.txtStart time  19 #Finish Time: 220 GPU: 8 _ep: 1173

192_ep_norm.txtStart time  18 #Finish Time: 220 GPU: 8 _ep: 1224

122_ep_norm.txtStart time  8 #Finish Time: 221 GPU: 8 _ep: 1294

125_ep_norm.txtStart time  8 #Finish Time: 222 GPU: 8 _ep: 1182

195_ep_norm.txtStart time  18 #Finish Time: 222 GPU: 8 _ep: 1173

61_ep_norm.txtStart time  3 #Finish Time: 223 GPU: 4 _ep: 2596

135_ep_norm.txtStart time  9 #Finish Time: 223 GPU: 8 _ep: 1190

210_ep_norm.txtStart time  19 #Finish Time: 225 GPU: 16 _ep: 602

200_ep_norm.txtStart time  31 #Finish Time: 227 GPU: 8 _ep: 1290

221_ep_norm.txtStart time  23 #Finish Time: 228 GPU: 16 _ep: 711

121_ep_norm.txtStart time  7 #Finish Time: 228 GPU: 8 _ep: 1399

194_ep_norm.txtStart time  18 #Finish Time: 231 GPU: 8 _ep: 1305

50_ep_norm.txtStart time  30 #Finish Time: 234 GPU: 3 _ep: 4243

150_ep_norm.txtStart time  12 #Finish Time: 234 GPU: 8 _ep: 1354

148_ep_norm.txtStart time  11 #Finish Time: 236 GPU: 8 _ep: 1585

201_ep_norm.txtStart time  32 #Finish Time: 237 GPU: 8 _ep: 1591

170_ep_norm.txtStart time  14 #Finish Time: 237 GPU: 8 _ep: 1569

158_ep_norm.txtStart time  13 #Finish Time: 237 GPU: 8 _ep: 1549

187_ep_norm.txtStart time  17 #Finish Time: 238 GPU: 8 _ep: 1416

72_ep_norm.txtStart time  4 #Finish Time: 242 GPU: 4 _ep: 3515

206_ep_norm.txtStart time  33 #Finish Time: 243 GPU: 8 _ep: 1679

145_ep_norm.txtStart time  11 #Finish Time: 245 GPU: 8 _ep: 1659

196_ep_norm.txtStart time  18 #Finish Time: 245 GPU: 8 _ep: 1626

199_ep_norm.txtStart time  31 #Finish Time: 247 GPU: 8 _ep: 1576

152_ep_norm.txtStart time  12 #Finish Time: 248 GPU: 8 _ep: 1870

184_ep_norm.txtStart time  16 #Finish Time: 249 GPU: 8 _ep: 1800

220_ep_norm.txtStart time  23 #Finish Time: 252 GPU: 16 _ep: 879

225_ep_norm.txtStart time  24 #Finish Time: 254 GPU: 16 _ep: 960

211_ep_norm.txtStart time  20 #Finish Time: 254 GPU: 16 _ep: 975

123_ep_norm.txtStart time  8 #Finish Time: 257 GPU: 8 _ep: 2006

153_ep_norm.txtStart time  12 #Finish Time: 260 GPU: 8 _ep: 2023

137_ep_norm.txtStart time  10 #Finish Time: 261 GPU: 8 _ep: 2003

130_ep_norm.txtStart time  9 #Finish Time: 262 GPU: 8 _ep: 2194

183_ep_norm.txtStart time  16 #Finish Time: 262 GPU: 8 _ep: 2071

120_ep_norm.txtStart time  7 #Finish Time: 265 GPU: 8 _ep: 2141

232_ep_norm.txtStart time  27 #Finish Time: 267 GPU: 16 _ep: 1006

175_ep_norm.txtStart time  15 #Finish Time: 268 GPU: 8 _ep: 2308

160_ep_norm.txtStart time  13 #Finish Time: 270 GPU: 8 _ep: 2468

161_ep_norm.txtStart time  13 #Finish Time: 270 GPU: 8 _ep: 2516

203_ep_norm.txtStart time  33 #Finish Time: 271 GPU: 8 _ep: 2386

155_ep_norm.txtStart time  12 #Finish Time: 275 GPU: 8 _ep: 2502

193_ep_norm.txtStart time  18 #Finish Time: 277 GPU: 8 _ep: 2743

185_ep_norm.txtStart time  17 #Finish Time: 277 GPU: 8 _ep: 2701

164_ep_norm.txtStart time  14 #Finish Time: 278 GPU: 8 _ep: 2725

217_ep_norm.txtStart time  22 #Finish Time: 281 GPU: 16 _ep: 1415

233_ep_norm.txtStart time  27 #Finish Time: 282 GPU: 16 _ep: 1363

178_ep_norm.txtStart time  16 #Finish Time: 282 GPU: 8 _ep: 2930

128_ep_norm.txtStart time  8 #Finish Time: 285 GPU: 8 _ep: 3137

215_ep_norm.txtStart time  21 #Finish Time: 290 GPU: 16 _ep: 1762

216_ep_norm.txtStart time  21 #Finish Time: 299 GPU: 16 _ep: 1873

234_ep_norm.txtStart time  27 #Finish Time: 306 GPU: 16 _ep: 2033

218_ep_norm.txtStart time  22 #Finish Time: 308 GPU: 16 _ep: 1875

219_ep_norm.txtStart time  22 #Finish Time: 308 GPU: 16 _ep: 2051

230_ep_norm.txtStart time  26 #Finish Time: 309 GPU: 16 _ep: 2064

229_ep_norm.txtStart time  26 #Finish Time: 323 GPU: 16 _ep: 2534

238_ep_norm.txtStart time  31 #Finish Time: 326 GPU: 32 _ep: 1184

223_ep_norm.txtStart time  24 #Finish Time: 331 GPU: 16 _ep: 2896

212_ep_norm.txtStart time  20 #Finish Time: 335 GPU: 16 _ep: 3244

237_ep_norm.txtStart time  30 #Finish Time: 337 GPU: 32 _ep: 1682

236_ep_norm.txtStart time  29 #Finish Time: 345 GPU: 32 _ep: 2222

235_ep_norm.txtStart time  28 #Finish Time: 346 GPU: 32 _ep: 2144

