0----------------------14
0----------------------14
1----------------------14
1----------------------15
3----------------------20
3----------------------20
2----------------------21
2----------------------21
4----------------------25
4----------------------25
5----------------------39
5----------------------39
6----------------------46
6----------------------46
7----------------------65
7----------------------65
8----------------------70
8----------------------70
9----------------------76
9----------------------76
10----------------------81
10----------------------81
11----------------------95
11----------------------95
12----------------------102
12----------------------102
13----------------------122
13----------------------122
14----------------------128
14----------------------128
15----------------------146
15----------------------146
16----------------------149
16----------------------149
17----------------------152
17----------------------152
18----------------------177
18----------------------177
19----------------------187
19----------------------187
20----------------------202
20----------------------202
21----------------------208
21----------------------208
22----------------------213
22----------------------213
23----------------------225
23----------------------225
24----------------------251
24----------------------251
25----------------------252
25----------------------252
26----------------------265
26----------------------265
27----------------------276
27----------------------276
28----------------------289
28----------------------289
29----------------------297
29----------------------297
30----------------------310
30----------------------310
31----------------------328
31----------------------328
32----------------------332
32----------------------332
33----------------------338
33----------------------338
34----------------------345
34----------------------345
35----------------------361
35----------------------361
36----------------------376
36----------------------376
37----------------------387
37----------------------387
38----------------------407
38----------------------407
39----------------------417
39----------------------417
40----------------------421
40----------------------421
41----------------------442
41----------------------442
42----------------------463
42----------------------464
43----------------------470
43----------------------470
44----------------------475
44----------------------475
45----------------------485
45----------------------485
46----------------------490
46----------------------490
47----------------------496
47----------------------496
48----------------------509
48----------------------515
49----------------------519
49----------------------520
50----------------------548
50----------------------548
51----------------------551
51----------------------551
240----------------------561
240----------------------561
241----------------------580
241----------------------580
52----------------------587
52----------------------587
53----------------------590
53----------------------590
54----------------------600
54----------------------600
55----------------------604
55----------------------604
56----------------------614
56----------------------614
57----------------------625
57----------------------625
58----------------------647
58----------------------647
59----------------------655
59----------------------655
60----------------------658
60----------------------658
61----------------------676
61----------------------677
62----------------------690
62----------------------690
63----------------------702
63----------------------720
64----------------------719
64----------------------720
65----------------------727
65----------------------727
66----------------------733
66----------------------733
67----------------------741
67----------------------741
242----------------------742
242----------------------742
243----------------------748
243----------------------748
68----------------------760
68----------------------760
69----------------------766
69----------------------766
70----------------------782
70----------------------782
71----------------------798
71----------------------806
72----------------------822
72----------------------822
73----------------------828
73----------------------828
74----------------------837
74----------------------837
75----------------------843
75----------------------843
76----------------------845
76----------------------845
77----------------------848
77----------------------848
78----------------------855
78----------------------855
79----------------------871
79----------------------871
80----------------------878
80----------------------878
81----------------------884
81----------------------884
244----------------------908
244----------------------908
245----------------------913
245----------------------913
82----------------------923
82----------------------927
83----------------------936
83----------------------936
84----------------------949
84----------------------949
85----------------------957
85----------------------957
86----------------------963
86----------------------963
87----------------------968
87----------------------968
88----------------------973
88----------------------973
89----------------------982
89----------------------982
90----------------------984
90----------------------984
91----------------------998
91----------------------998
92----------------------1004
92----------------------1004
93----------------------1011
93----------------------1011
94----------------------1018
94----------------------1018
95----------------------1025
95----------------------1025
246----------------------1032
246----------------------1032
247----------------------1039
247----------------------1039
96----------------------1047
96----------------------1047
97----------------------1053
97----------------------1053
98----------------------1058
98----------------------1058
99----------------------1069
99----------------------1069
100----------------------1085
100----------------------1085
101----------------------1090
101----------------------1090
102----------------------1094
102----------------------1094
103----------------------1106
103----------------------1106
104----------------------1115
104----------------------1115
105----------------------1119
105----------------------1119
106----------------------1128
106----------------------1128
107----------------------1138
107----------------------1138
108----------------------1149
108----------------------1149
109----------------------1152
109----------------------1152
248----------------------1165
248----------------------1165
249----------------------1166
249----------------------1166
110----------------------1170
110----------------------1170
111----------------------1185
111----------------------1185
112----------------------1193
112----------------------1193
113----------------------1206
113----------------------1206
114----------------------1220
114----------------------1220
115----------------------1224
115----------------------1224
116----------------------1234
116----------------------1234
117----------------------1247
117----------------------1247
118----------------------1256
118----------------------1264
119----------------------1267
119----------------------1267
120----------------------1282
120----------------------1282
121----------------------1292
121----------------------1292
250----------------------1300
250----------------------1300
251----------------------1307
251----------------------1307
122----------------------1316
122----------------------1316
123----------------------1330
123----------------------1330
124----------------------1338
124----------------------1338
125----------------------1347
125----------------------1347
126----------------------1350
126----------------------1350
127----------------------1358
127----------------------1358
128----------------------1380
128----------------------1380
252----------------------1382
252----------------------1382
253----------------------1391
253----------------------1391
254----------------------1396
254----------------------1396
129----------------------1400
129----------------------1400
130----------------------1416
130----------------------1416
131----------------------1425
131----------------------1425
132----------------------1430
132----------------------1430
133----------------------1433
133----------------------1433
134----------------------1435
134----------------------1435
135----------------------1444
135----------------------1444
255----------------------1462
255----------------------1462
256----------------------1475
256----------------------1475
136----------------------1477
136----------------------1477
137----------------------1491
137----------------------1491
138----------------------1493
138----------------------1493
139----------------------1499
139----------------------1499
140----------------------1503
140----------------------1503
141----------------------1510
141----------------------1510
142----------------------1516
142----------------------1516
257----------------------1524
257----------------------1525
258----------------------1526
258----------------------1526
143----------------------1535
143----------------------1535
144----------------------1536
144----------------------1536
145----------------------1548
145----------------------1548
146----------------------1549
146----------------------1549
147----------------------1559
147----------------------1559
148----------------------1569
148----------------------1569
149----------------------1571
149----------------------1571
259----------------------1583
259----------------------1583
260----------------------1593
260----------------------1593
150----------------------1603
150----------------------1603
151----------------------1606
151----------------------1606
152----------------------1619
152----------------------1619
153----------------------1633
153----------------------1633
154----------------------1642
154----------------------1642
155----------------------1660
155----------------------1660
156----------------------1670
156----------------------1670
261----------------------1679
261----------------------1679
262----------------------1693
262----------------------1693
157----------------------1696
157----------------------1696
158----------------------1707
158----------------------1707
159----------------------1708
159----------------------1708
160----------------------1729
160----------------------1734
161----------------------1742
161----------------------1742
162----------------------1744
162----------------------1744
163----------------------1752
163----------------------1752
263----------------------1763
263----------------------1763
264----------------------1774
264----------------------1774
265----------------------1799
265----------------------1799
164----------------------1818
164----------------------1818
165----------------------1824
165----------------------1824
166----------------------1832
166----------------------1832
167----------------------1839
167----------------------1839
168----------------------1846
168----------------------1846
169----------------------1852
169----------------------1852
170----------------------1863
170----------------------1863
266----------------------1884
266----------------------1884
267----------------------1897
267----------------------1897
268----------------------1916
268----------------------1916
171----------------------1918
171----------------------1918
172----------------------1927
172----------------------1927
173----------------------1934
173----------------------1934
174----------------------1937
174----------------------1937
175----------------------1953
175----------------------1953
176----------------------1960
176----------------------1960
177----------------------1967
177----------------------1967
269----------------------1980
269----------------------1981
270----------------------1985
270----------------------1985
178----------------------2005
178----------------------2005
179----------------------2011
179----------------------2011
180----------------------2015
180----------------------2015
181----------------------2024
181----------------------2024
182----------------------2026
182----------------------2026
184----------------------2054
183----------------------2041
271----------------------2070
272----------------------2080
185----------------------2099
186----------------------2104
187----------------------2115
188----------------------2123
186----------------------2104
188----------------------2123
272----------------------2080
271----------------------2070
183----------------------2066
185----------------------2099
187----------------------2115
184----------------------2060
189----------------------2130
189----------------------2130
273----------------------2148
273----------------------2148
274----------------------2165
274----------------------2165
190----------------------2172
190----------------------2172
191----------------------2181
191----------------------2181
192----------------------2190
192----------------------2190
193----------------------2209
193----------------------2209
194----------------------2219
194----------------------2219
195----------------------2228
195----------------------2228
196----------------------2240
196----------------------2240
275----------------------2246
275----------------------2246
276----------------------2260
276----------------------2260
277----------------------2271
277----------------------2271
197----------------------2279
197----------------------2279
198----------------------2283
198----------------------2283
199----------------------2295
199----------------------2295
200----------------------2305
200----------------------2305
201----------------------2316
201----------------------2316
202----------------------2322
202----------------------2322
203----------------------2339
203----------------------2339
278----------------------2347
278----------------------2347
279----------------------2364
279----------------------2364
204----------------------2370
204----------------------2370
205----------------------2373
205----------------------2373
207----------------------2380
207----------------------2380
206----------------------2391
206----------------------2391
208----------------------2396
208----------------------2396
209----------------------2405
209----------------------2405
280----------------------2410
280----------------------2410
281----------------------2417
281----------------------2417
283----------------------2421
283----------------------2421
282----------------------2435
282----------------------2435
284----------------------2448
284----------------------2448
285----------------------2459
285----------------------2459
286----------------------2465
286----------------------2465
287----------------------2466
287----------------------2466
288----------------------2476
288----------------------2476
289----------------------2492
289----------------------2492
210----------------------2497
210----------------------2497
211----------------------2504
211----------------------2504
212----------------------2526
212----------------------2526
290----------------------2546
290----------------------2546
291----------------------2558
291----------------------2559
292----------------------2564
292----------------------2564
293----------------------2574
293----------------------2574
294----------------------2576
294----------------------2576
295----------------------2583
295----------------------2583
296----------------------2584
296----------------------2584
297----------------------2590
297----------------------2591
298----------------------2599
298----------------------2599
299----------------------2615
299----------------------2615
213----------------------2617
213----------------------2617
214----------------------2621
214----------------------2621
215----------------------2633
215----------------------2633
300----------------------2644
300----------------------2644
301----------------------2665
301----------------------2665
302----------------------2680
302----------------------2680
303----------------------2692
303----------------------2692
304----------------------2697
304----------------------2697
305----------------------2707
305----------------------2707
306----------------------2720
306----------------------2720
307----------------------2729
307----------------------2729
308----------------------2738
308----------------------2738
309----------------------2750
309----------------------2750
216----------------------2763
216----------------------2763
217----------------------2773
217----------------------2773
218----------------------2787
218----------------------2787
310----------------------2793
310----------------------2793
311----------------------2802
311----------------------2802
312----------------------2815
312----------------------2815
313----------------------2821
313----------------------2821
314----------------------2828
314----------------------2828
315----------------------2836
315----------------------2836
316----------------------2847
316----------------------2847
317----------------------2853
317----------------------2853
318----------------------2858
318----------------------2858
319----------------------2861
319----------------------2861
219----------------------2876
219----------------------2876
220----------------------2883
220----------------------2883
221----------------------2888
221----------------------2888
320----------------------2895
320----------------------2895
321----------------------2912
321----------------------2912
322----------------------2921
322----------------------2921
323----------------------2936
323----------------------2936
324----------------------2947
324----------------------2947
325----------------------2957
325----------------------2957
326----------------------2962
326----------------------2962
327----------------------2967
327----------------------2967
328----------------------2974
328----------------------2974
329----------------------2979
329----------------------2979
222----------------------2981
222----------------------2981
223----------------------3002
223----------------------3002
224----------------------3002
224----------------------3002
330----------------------3009
330----------------------3009
331----------------------3010
331----------------------3010
332----------------------3019
332----------------------3019
333----------------------3029
333----------------------3029
334----------------------3041
334----------------------3041
335----------------------3058
335----------------------3058
336----------------------3063
336----------------------3063
337----------------------3078
337----------------------3078
338----------------------3082
338----------------------3082
339----------------------3097
339----------------------3097
340----------------------3113
340----------------------3113
225----------------------3120
225----------------------3120
226----------------------3124
226----------------------3124
227----------------------3127
227----------------------3127
341----------------------3144
341----------------------3144
342----------------------3147
342----------------------3147
343----------------------3153
343----------------------3153
344----------------------3158
344----------------------3158
345----------------------3170
345----------------------3170
346----------------------3182
346----------------------3182
347----------------------3192
347----------------------3192
348----------------------3212
348----------------------3212
349----------------------3218
349----------------------3218
350----------------------3235
350----------------------3235
228----------------------3237
228----------------------3237
229----------------------3255
229----------------------3255
230----------------------3270
230----------------------3270
351----------------------3277
351----------------------3277
352----------------------3288
352----------------------3288
353----------------------3304
353----------------------3304
354----------------------3311
354----------------------3311
355----------------------3330
355----------------------3330
356----------------------3333
356----------------------3333
357----------------------3360
358----------------------3360
358----------------------3360
357----------------------3360
359----------------------3362
359----------------------3362
360----------------------3376
360----------------------3376
231----------------------3379
231----------------------3379
232----------------------3387
232----------------------3387
233----------------------3397
233----------------------3397
361----------------------3410
361----------------------3410
362----------------------3425
362----------------------3425
363----------------------3431
363----------------------3431
364----------------------3432
364----------------------3432
365----------------------3434
365----------------------3434
366----------------------3435
366----------------------3435
367----------------------3442
367----------------------3442
368----------------------3445
368----------------------3445
369----------------------3460
369----------------------3460
370----------------------3473
370----------------------3473
371----------------------3491
371----------------------3491
234----------------------3505
234----------------------3505
235----------------------3521
235----------------------3521
372----------------------3529
372----------------------3529
373----------------------3542
373----------------------3542
374----------------------3545
374----------------------3545
375----------------------3555
375----------------------3555
376----------------------3563
376----------------------3563
377----------------------3567
377----------------------3567
378----------------------3588
378----------------------3588
379----------------------3601
379----------------------3601
380----------------------3603
380----------------------3603
381----------------------3614
381----------------------3614
236----------------------3629
236----------------------3629
382----------------------3637
382----------------------3637
383----------------------3646
383----------------------3646
384----------------------3654
384----------------------3654
385----------------------3662
385----------------------3662
386----------------------3672
386----------------------3672
387----------------------3682
387----------------------3682
388----------------------3692
388----------------------3692
389----------------------3702
389----------------------3702
390----------------------3706
390----------------------3706
391----------------------3736
391----------------------3736
392----------------------3747
392----------------------3747
393----------------------3765
393----------------------3765
394----------------------3774
394----------------------3774
395----------------------3793
395----------------------3793
396----------------------3805
396----------------------3805
397----------------------3807
397----------------------3807
398----------------------3822
398----------------------3822
399----------------------3840
399----------------------3840
400----------------------3849
400----------------------3849
401----------------------3858
401----------------------3858
402----------------------3865
402----------------------3865
403----------------------3871
403----------------------3871
404----------------------3883
404----------------------3883
405----------------------3891
405----------------------3891
406----------------------3903
406----------------------3903
407----------------------3919
407----------------------3919
237----------------------3931
237----------------------3931
408----------------------3939
408----------------------3939
409----------------------3947
409----------------------3947
410----------------------3960
410----------------------3960
411----------------------3979
411----------------------3979
412----------------------3996
412----------------------3996
413----------------------4009
413----------------------4009
414----------------------4017
414----------------------4017
415----------------------4041
415----------------------4041
416----------------------4045
416----------------------4045
417----------------------4054
417----------------------4054
418----------------------4062
418----------------------4062
419----------------------4080
419----------------------4080
420----------------------4085
420----------------------4085
421----------------------4090
421----------------------4090
422----------------------4104
422----------------------4104
423----------------------4115
423----------------------4115
424----------------------4133
424----------------------4133
425----------------------4137
425----------------------4137
426----------------------4150
426----------------------4150
427----------------------4157
427----------------------4157
428----------------------4160
428----------------------4160
429----------------------4164
429----------------------4164
430----------------------4173
430----------------------4173
431----------------------4180
431----------------------4180
432----------------------4203
432----------------------4203
433----------------------4219
433----------------------4219
238----------------------4228
238----------------------4228
434----------------------4234
434----------------------4234
435----------------------4245
435----------------------4245
