1----------------------3
1----------------------3
25----------------------3
25----------------------3
146----------------------3
146----------------------3
144----------------------3
144----------------------3
159----------------------3
159----------------------3
224----------------------3
224----------------------3
242----------------------3
242----------------------3
249----------------------3
249----------------------3
287----------------------3
287----------------------3
296----------------------3
296----------------------3
331----------------------3
331----------------------3
364----------------------3
364----------------------3
366----------------------3
366----------------------3
76----------------------4
76----------------------4
90----------------------4
90----------------------4
252----------------------4
252----------------------4
239----------------------4
239----------------------4
134----------------------5
134----------------------5
136----------------------5
136----------------------5
138----------------------5
138----------------------5
294----------------------5
359----------------------5
294----------------------5
359----------------------5
365----------------------5
365----------------------5
149----------------------6
149----------------------6
162----------------------6
162----------------------6
171----------------------6
171----------------------6
182----------------------6
182----------------------6
213----------------------6
213----------------------6
380----------------------6
380----------------------6
397----------------------6
397----------------------6
461----------------------6
461----------------------6
469----------------------6
469----------------------6
2----------------------7
2----------------------7
3----------------------7
3----------------------7
258----------------------7
258----------------------7
222----------------------7
222----------------------7
228----------------------7
228----------------------7
16----------------------8
16----------------------8
17----------------------8
17----------------------8
51----------------------8
51----------------------8
53----------------------8
53----------------------8
60----------------------8
60----------------------8
77----------------------8
77----------------------8
109----------------------8
109----------------------8
283----------------------8
283----------------------8
319----------------------8
319----------------------8
342----------------------8
342----------------------8
126----------------------9
126----------------------9
133----------------------9
133----------------------9
151----------------------9
151----------------------9
157----------------------9
157----------------------9
174----------------------9
174----------------------9
205----------------------9
205----------------------9
356----------------------9
356----------------------9
368----------------------9
374----------------------9
368----------------------9
374----------------------9
428----------------------9
428----------------------9
443----------------------9
443----------------------9
452----------------------9
452----------------------9
465----------------------9
465----------------------9
470----------------------9
470----------------------9
471----------------------9
471----------------------9
329----------------------10
329----------------------10
227----------------------10
227----------------------10
231----------------------10
231----------------------10
32----------------------11
32----------------------11
40----------------------11
40----------------------11
55----------------------11
55----------------------11
102----------------------11
102----------------------11
110----------------------11
105----------------------11
110----------------------11
105----------------------11
115----------------------11
115----------------------11
338----------------------11
338----------------------11
377----------------------11
377----------------------11
129----------------------12
129----------------------12
140----------------------12
140----------------------12
180----------------------12
180----------------------12
198----------------------12
198----------------------12
214----------------------12
214----------------------12
390----------------------12
390----------------------12
416----------------------12
416----------------------12
425----------------------12
425----------------------12
429----------------------12
429----------------------12
456----------------------12
456----------------------12
462----------------------12
462----------------------12
4----------------------13
4----------------------13
8----------------------13
8----------------------13
245----------------------13
245----------------------13
226----------------------13
226----------------------13
10----------------------14
10----------------------14
22----------------------14
22----------------------14
44----------------------14
44----------------------14
46----------------------14
46----------------------14
87----------------------14
87----------------------14
88----------------------14
88----------------------14
98----------------------14
98----------------------14
101----------------------14
101----------------------14
132----------------------14
132----------------------14
186----------------------14
186----------------------14
254----------------------14
254----------------------14
208----------------------15
208----------------------15
210----------------------15
210----------------------15
221----------------------15
221----------------------15
270----------------------15
270----------------------15
280----------------------15
280----------------------15
304----------------------15
304----------------------15
318----------------------15
318----------------------15
336----------------------15
326----------------------15
327----------------------15
336----------------------15
326----------------------15
327----------------------15
344----------------------15
344----------------------15
420----------------------15
420----------------------15
421----------------------15
421----------------------15
460----------------------15
460----------------------15
478----------------------16
478----------------------16
9----------------------17
9----------------------17
14----------------------17
14----------------------17
21----------------------17
21----------------------17
33----------------------17
33----------------------17
47----------------------17
47----------------------17
66----------------------17
66----------------------17
69----------------------17
69----------------------17
73----------------------17
73----------------------17
75----------------------17
75----------------------17
81----------------------17
81----------------------17
86----------------------17
86----------------------17
92----------------------17
92----------------------17
97----------------------17
97----------------------17
139----------------------17
139----------------------17
243----------------------17
243----------------------17
251----------------------17
251----------------------17
275----------------------17
275----------------------17
286----------------------17
286----------------------17
292----------------------17
292----------------------17
297----------------------17
297----------------------17
142----------------------18
142----------------------18
165----------------------18
165----------------------18
169----------------------18
169----------------------18
179----------------------18
179----------------------18
202----------------------18
202----------------------18
204----------------------18
204----------------------18
207----------------------18
207----------------------18
310----------------------18
310----------------------18
313----------------------18
313----------------------18
317----------------------19
317----------------------19
343----------------------19
343----------------------19
349----------------------19
349----------------------19
403----------------------19
403----------------------19
434----------------------19
434----------------------19
446----------------------19
446----------------------19
6----------------------20
6----------------------20
12----------------------20
12----------------------20
34----------------------20
34----------------------20
43----------------------20
43----------------------20
52----------------------20
52----------------------20
78----------------------20
78----------------------20
80----------------------20
80----------------------20
93----------------------20
93----------------------20
94----------------------20
94----------------------20
95----------------------20
95----------------------20
141----------------------20
141----------------------20
167----------------------20
167----------------------20
246----------------------20
246----------------------20
247----------------------20
247----------------------20
257----------------------20
257----------------------20
281----------------------20
281----------------------20
168----------------------21
168----------------------21
173----------------------21
173----------------------21
176----------------------21
176----------------------21
177----------------------21
177----------------------21
189----------------------21
189----------------------21
190----------------------21
190----------------------21
295----------------------21
295----------------------21
314----------------------21
314----------------------21
320----------------------21
320----------------------21
328----------------------21
328----------------------21
330----------------------21
330----------------------21
351----------------------21
351----------------------21
354----------------------21
354----------------------21
363----------------------21
363----------------------21
367----------------------21
367----------------------21
402----------------------21
402----------------------21
211----------------------22
211----------------------22
220----------------------22
220----------------------22
225----------------------22
225----------------------22
427----------------------22
427----------------------22
431----------------------22
431----------------------22
442----------------------22
442----------------------22
457----------------------22
457----------------------22
472----------------------22
472----------------------22
476----------------------22
476----------------------22
29----------------------23
29----------------------23
250----------------------23
250----------------------23
278----------------------23
278----------------------23
59----------------------24
59----------------------24
65----------------------24
65----------------------24
67----------------------24
67----------------------24
85----------------------24
85----------------------24
96----------------------24
96----------------------24
112----------------------24
112----------------------24
124----------------------24
124----------------------24
127----------------------24
127----------------------24
163----------------------24
163----------------------24
166----------------------24
166----------------------24
315----------------------24
315----------------------24
357----------------------24
357----------------------24
372----------------------24
372----------------------24
188----------------------25
188----------------------25
197----------------------25
197----------------------25
232----------------------25
232----------------------25
376----------------------25
376----------------------25
382----------------------25
382----------------------25
384----------------------25
384----------------------25
385----------------------25
385----------------------25
405----------------------25
405----------------------25
408----------------------25
408----------------------25
409----------------------25
409----------------------25
414----------------------25
414----------------------25
418----------------------25
418----------------------25
438----------------------25
438----------------------25
449----------------------25
449----------------------25
459----------------------25
459----------------------25
466----------------------25
466----------------------25
74----------------------26
74----------------------26
82----------------------26
82----------------------26
89----------------------26
89----------------------26
253----------------------26
253----------------------26
104----------------------27
104----------------------27
106----------------------27
106----------------------27
118----------------------27
118----------------------27
122----------------------27
122----------------------27
125----------------------27
125----------------------27
131----------------------27
131----------------------27
135----------------------27
135----------------------27
143----------------------27
143----------------------27
261----------------------27
261----------------------27
298----------------------27
298----------------------27
307----------------------27
307----------------------27
147----------------------28
147----------------------28
154----------------------28
154----------------------28
172----------------------28
172----------------------28
181----------------------28
181----------------------28
191----------------------28
191----------------------28
192----------------------28
192----------------------28
195----------------------28
195----------------------28
308----------------------28
308----------------------28
311----------------------28
311----------------------28
209----------------------29
209----------------------29
238----------------------29
238----------------------29
322----------------------29
322----------------------29
332----------------------29
332----------------------29
383----------------------29
383----------------------29
394----------------------29
394----------------------29
400----------------------29
400----------------------29
401----------------------29
401----------------------29
417----------------------29
417----------------------29
430----------------------29
430----------------------29
437----------------------29
437----------------------29
464----------------------29
464----------------------29
473----------------------29
473----------------------29
19----------------------30
19----------------------30
39----------------------30
39----------------------30
45----------------------30
45----------------------30
49----------------------31
54----------------------31
56----------------------31
107----------------------31
116----------------------31
121----------------------31
116----------------------31
107----------------------31
150----------------------31
150----------------------31
56----------------------31
156----------------------31
49----------------------31
156----------------------31
121----------------------31
54----------------------31
194----------------------31
194----------------------31
240----------------------31
240----------------------31
260----------------------31
260----------------------31
272----------------------31
272----------------------31
288----------------------31
288----------------------31
293----------------------31
293----------------------31
305----------------------31
305----------------------31
200----------------------32
200----------------------32
217----------------------32
217----------------------32
233----------------------32
233----------------------32
325----------------------32
325----------------------32
333----------------------32
333----------------------32
347----------------------32
347----------------------32
375----------------------32
375----------------------32
386----------------------32
386----------------------32
387----------------------32
387----------------------32
388----------------------32
388----------------------32
389----------------------32
389----------------------32
436----------------------32
436----------------------32
447----------------------32
447----------------------32
0----------------------33
0----------------------33
27----------------------33
27----------------------33
37----------------------33
37----------------------33
263----------------------33
263----------------------33
264----------------------33
264----------------------33
57----------------------34
57----------------------34
99----------------------34
99----------------------34
108----------------------34
108----------------------34
119----------------------34
119----------------------34
148----------------------34
148----------------------34
158----------------------34
158----------------------34
170----------------------34
170----------------------34
187----------------------34
187----------------------34
201----------------------34
201----------------------34
277----------------------34
277----------------------34
285----------------------34
285----------------------34
300----------------------34
300----------------------34
316----------------------34
316----------------------34
324----------------------35
324----------------------35
352----------------------35
352----------------------35
381----------------------35
381----------------------35
392----------------------35
392----------------------35
423----------------------35
423----------------------35
435----------------------35
435----------------------35
448----------------------35
448----------------------35
454----------------------35
454----------------------35
477----------------------35
477----------------------35
23----------------------36
23----------------------36
63----------------------36
63----------------------36
68----------------------36
68----------------------36
103----------------------36
103----------------------36
145----------------------36
145----------------------36
196----------------------36
196----------------------36
199----------------------36
199----------------------36
206----------------------36
206----------------------36
259----------------------36
259----------------------36
291----------------------36
291----------------------36
303----------------------36
303----------------------36
215----------------------37
215----------------------37
237----------------------37
237----------------------37
309----------------------37
309----------------------37
334----------------------37
334----------------------37
345----------------------37
345----------------------37
346----------------------37
346----------------------37
396----------------------37
396----------------------37
404----------------------37
404----------------------37
406----------------------37
406----------------------37
440----------------------37
440----------------------37
444----------------------37
444----------------------37
479----------------------38
479----------------------38
26----------------------39
26----------------------39
28----------------------39
28----------------------39
30----------------------39
30----------------------39
48----------------------39
48----------------------39
84----------------------39
84----------------------39
113----------------------39
113----------------------39
117----------------------39
117----------------------39
152----------------------39
152----------------------39
184----------------------39
184----------------------39
216----------------------39
216----------------------39
248----------------------39
248----------------------39
256----------------------39
256----------------------39
262----------------------39
262----------------------39
267----------------------39
267----------------------39
269----------------------40
269----------------------40
284----------------------40
284----------------------40
306----------------------40
306----------------------40
312----------------------40
312----------------------40
360----------------------40
360----------------------40
361----------------------40
361----------------------40
370----------------------40
370----------------------40
373----------------------40
373----------------------40
379----------------------40
379----------------------40
410----------------------40
410----------------------40
413----------------------40
413----------------------40
426----------------------40
426----------------------40
5----------------------41
5----------------------41
11----------------------41
11----------------------41
62----------------------41
62----------------------41
83----------------------41
83----------------------41
91----------------------41
91----------------------41
114----------------------41
114----------------------41
123----------------------41
123----------------------41
137----------------------41
137----------------------41
153----------------------41
153----------------------41
276----------------------41
276----------------------41
362----------------------41
362----------------------41
218----------------------42
218----------------------42
234----------------------42
234----------------------42
422----------------------42
422----------------------42
441----------------------42
441----------------------42
450----------------------42
450----------------------42
458----------------------42
458----------------------42
463----------------------42
463----------------------42
20----------------------43
20----------------------43
36----------------------43
36----------------------43
71----------------------43
71----------------------43
111----------------------43
111----------------------43
120----------------------43
120----------------------43
282----------------------43
282----------------------43
183----------------------44
183----------------------44
219----------------------44
219----------------------44
230----------------------44
230----------------------44
302----------------------44
302----------------------44
323----------------------44
323----------------------44
337----------------------44
337----------------------44
339----------------------44
339----------------------44
369----------------------44
369----------------------44
398----------------------44
398----------------------44
439----------------------44
439----------------------44
467----------------------44
467----------------------44
475----------------------44
475----------------------44
35----------------------45
35----------------------45
236----------------------45
236----------------------45
70----------------------46
70----------------------46
79----------------------46
79----------------------46
100----------------------46
100----------------------46
130----------------------46
130----------------------46
271----------------------46
271----------------------46
289----------------------46
289----------------------46
299----------------------46
299----------------------46
340----------------------46
340----------------------46
353----------------------46
353----------------------46
175----------------------47
175----------------------47
235----------------------47
235----------------------47
407----------------------47
407----------------------47
433----------------------47
433----------------------47
64----------------------48
64----------------------48
160----------------------48
160----------------------48
274----------------------48
274----------------------48
279----------------------48
279----------------------48
321----------------------48
321----------------------48
335----------------------48
335----------------------48
161----------------------49
161----------------------49
203----------------------49
203----------------------49
341----------------------49
341----------------------49
350----------------------49
350----------------------49
412----------------------49
412----------------------49
455----------------------49
455----------------------49
474----------------------49
474----------------------49
15----------------------50
15----------------------50
31----------------------50
31----------------------50
61----------------------50
61----------------------50
155----------------------50
155----------------------50
229----------------------50
229----------------------50
255----------------------50
255----------------------50
273----------------------50
273----------------------50
371----------------------50
371----------------------50
393----------------------50
393----------------------50
399----------------------50
399----------------------50
419----------------------50
419----------------------50
424----------------------51
424----------------------51
445----------------------51
445----------------------51
7----------------------52
7----------------------52
164----------------------52
164----------------------52
185----------------------52
185----------------------52
193----------------------52
193----------------------52
241----------------------52
241----------------------52
268----------------------52
268----------------------52
355----------------------52
355----------------------52
395----------------------52
395----------------------52
411----------------------52
411----------------------52
451----------------------52
451----------------------52
13----------------------53
13----------------------53
38----------------------53
38----------------------53
178----------------------53
178----------------------53
290----------------------53
290----------------------53
348----------------------53
348----------------------53
358----------------------53
358----------------------53
468----------------------53
468----------------------53
41----------------------54
41----------------------54
