1----------------------2
25----------------------2
242----------------------4
364----------------------7
144----------------------11
146----------------------11
159----------------------13
249----------------------15
331----------------------22
224----------------------24
239----------------------32
287----------------------34
296----------------------34
366----------------------35
294----------------------35
359----------------------36
365----------------------36
380----------------------36
252----------------------36
461----------------------37
397----------------------37
469----------------------38
428----------------------39
443----------------------39
465----------------------39
470----------------------39
258----------------------40
471----------------------40
452----------------------40
368----------------------41
374----------------------41
356----------------------41
342----------------------42
283----------------------42
319----------------------42
338----------------------43
377----------------------46
390----------------------46
329----------------------46
425----------------------46
416----------------------46
456----------------------47
462----------------------47
429----------------------47
344----------------------49
460----------------------49
420----------------------49
421----------------------49
304----------------------49
336----------------------50
327----------------------50
245----------------------50
280----------------------50
318----------------------51
17----------------------51
16----------------------51
326----------------------52
478----------------------52
254----------------------52
270----------------------52
2----------------------53
3----------------------53
90----------------------55
76----------------------56
313----------------------57
310----------------------57
297----------------------57
251----------------------58
275----------------------58
286----------------------58
317----------------------58
403----------------------58
349----------------------59
243----------------------59
434----------------------60
292----------------------60
343----------------------60
446----------------------60
457----------------------61
427----------------------61
442----------------------61
472----------------------61
367----------------------61
363----------------------62
328----------------------62
247----------------------62
246----------------------62
257----------------------62
476----------------------62
330----------------------62
281----------------------62
351----------------------62
295----------------------63
320----------------------63
402----------------------63
314----------------------63
32----------------------64
53----------------------65
51----------------------65
431----------------------65
354----------------------66
372----------------------66
315----------------------66
405----------------------66
408----------------------66
409----------------------66
384----------------------66
357----------------------67
382----------------------67
414----------------------67
376----------------------67
250----------------------67
418----------------------67
438----------------------67
278----------------------67
459----------------------68
449----------------------68
466----------------------68
385----------------------68
383----------------------68
261----------------------69
430----------------------69
307----------------------69
308----------------------69
332----------------------69
464----------------------69
473----------------------69
417----------------------69
437----------------------70
253----------------------70
322----------------------70
394----------------------70
400----------------------70
401----------------------70
298----------------------70
311----------------------70
4----------------------70
8----------------------71
10----------------------71
22----------------------71
77----------------------72
60----------------------72
109----------------------74
325----------------------76
387----------------------77
182----------------------80
171----------------------80
293----------------------80
288----------------------82
162----------------------83
149----------------------85
136----------------------85
138----------------------85
134----------------------87
447----------------------87
386----------------------88
436----------------------88
40----------------------89
55----------------------89
388----------------------89
389----------------------89
240----------------------89
375----------------------90
272----------------------90
347----------------------90
260----------------------90
305----------------------90
333----------------------90
381----------------------91
316----------------------91
392----------------------91
477----------------------91
448----------------------91
454----------------------91
300----------------------92
423----------------------92
263----------------------92
264----------------------92
285----------------------92
277----------------------92
435----------------------92
352----------------------92
324----------------------92
9----------------------92
33----------------------93
14----------------------93
21----------------------93
444----------------------93
440----------------------93
309----------------------93
346----------------------94
345----------------------94
396----------------------94
404----------------------94
406----------------------94
291----------------------94
303----------------------94
334----------------------94
259----------------------95
479----------------------95
269----------------------95
361----------------------95
379----------------------95
373----------------------95
370----------------------95
267----------------------95
410----------------------95
312----------------------95
360----------------------95
284----------------------96
256----------------------96
248----------------------96
413----------------------96
306----------------------96
426----------------------96
262----------------------96
6----------------------97
12----------------------97
34----------------------97
44----------------------97
46----------------------97
102----------------------98
110----------------------98
115----------------------99
105----------------------100
458----------------------102
463----------------------102
276----------------------102
337----------------------102
441----------------------102
422----------------------102
362----------------------102
450----------------------102
467----------------------102
339----------------------102
302----------------------103
475----------------------103
282----------------------103
439----------------------103
398----------------------103
323----------------------103
369----------------------103
29----------------------104
289----------------------104
353----------------------104
433----------------------104
271----------------------104
47----------------------105
350----------------------105
407----------------------105
299----------------------105
340----------------------105
321----------------------106
412----------------------106
341----------------------106
455----------------------106
474----------------------106
274----------------------106
279----------------------106
335----------------------107
151----------------------110
157----------------------111
174----------------------112
205----------------------116
228----------------------120
355----------------------120
255----------------------120
222----------------------121
213----------------------124
393----------------------125
399----------------------125
87----------------------126
88----------------------126
98----------------------126
411----------------------126
371----------------------126
101----------------------127
126----------------------127
133----------------------128
268----------------------128
424----------------------128
419----------------------128
445----------------------129
273----------------------129
241----------------------129
395----------------------129
451----------------------129
39----------------------129
19----------------------129
43----------------------129
52----------------------130
348----------------------130
468----------------------130
358----------------------130
378----------------------130
290----------------------130
37----------------------130
27----------------------130
301----------------------131
266----------------------131
81----------------------131
86----------------------132
92----------------------132
97----------------------132
73----------------------132
75----------------------133
69----------------------133
66----------------------134
0----------------------134
453----------------------134
59----------------------134
432----------------------135
23----------------------135
415----------------------136
244----------------------136
26----------------------136
30----------------------137
265----------------------137
28----------------------137
93----------------------137
78----------------------138
94----------------------138
95----------------------138
80----------------------138
140----------------------140
129----------------------141
198----------------------142
180----------------------145
20----------------------146
11----------------------150
5----------------------150
54----------------------151
45----------------------151
49----------------------151
56----------------------151
36----------------------151
35----------------------151
96----------------------152
57----------------------153
85----------------------153
67----------------------153
112----------------------153
65----------------------153
391----------------------154
82----------------------154
74----------------------155
118----------------------155
104----------------------156
106----------------------156
132----------------------157
89----------------------158
186----------------------162
208----------------------165
15----------------------170
31----------------------171
7----------------------172
116----------------------173
231----------------------175
227----------------------175
13----------------------177
48----------------------177
107----------------------177
38----------------------177
119----------------------178
99----------------------178
108----------------------179
142----------------------179
207----------------------181
204----------------------181
202----------------------182
179----------------------185
169----------------------186
18----------------------187
165----------------------187
24----------------------188
139----------------------188
63----------------------189
103----------------------189
68----------------------190
117----------------------191
113----------------------191
84----------------------191
83----------------------191
176----------------------195
177----------------------195
167----------------------195
168----------------------195
173----------------------196
189----------------------198
190----------------------198
141----------------------199
62----------------------200
226----------------------201
111----------------------203
114----------------------204
214----------------------205
71----------------------207
91----------------------207
124----------------------208
127----------------------209
197----------------------211
188----------------------211
166----------------------212
163----------------------213
41----------------------214
42----------------------215
70----------------------215
79----------------------215
100----------------------215
58----------------------216
64----------------------216
156----------------------216
143----------------------216
131----------------------217
147----------------------217
154----------------------218
191----------------------218
172----------------------219
181----------------------219
209----------------------220
192----------------------220
122----------------------221
125----------------------222
195----------------------222
61----------------------223
135----------------------223
210----------------------225
200----------------------227
221----------------------228
121----------------------228
194----------------------231
50----------------------234
150----------------------234
148----------------------236
201----------------------237
170----------------------237
158----------------------237
187----------------------238
72----------------------242
206----------------------243
145----------------------245
196----------------------245
199----------------------247
152----------------------248
184----------------------249
220----------------------252
225----------------------254
211----------------------254
123----------------------257
153----------------------260
137----------------------261
130----------------------262
183----------------------262
120----------------------265
232----------------------267
175----------------------268
160----------------------270
161----------------------270
203----------------------271
155----------------------275
193----------------------277
185----------------------277
164----------------------278
217----------------------281
233----------------------282
178----------------------282
128----------------------285
215----------------------290
216----------------------299
234----------------------306
218----------------------308
219----------------------308
230----------------------309
229----------------------323
238----------------------326
223----------------------331
212----------------------335
237----------------------337
236----------------------345
235----------------------346
