242----------------------7
90----------------------9
1----------------------2
144----------------------20
51----------------------7
249----------------------17
252----------------------18
146----------------------20
25----------------------2
159----------------------23
331----------------------27
364----------------------29
366----------------------30
287----------------------36
224----------------------37
296----------------------38
359----------------------42
380----------------------42
397----------------------42
469----------------------44
461----------------------44
239----------------------45
3----------------------45
2----------------------45
365----------------------45
16----------------------45
17----------------------45
294----------------------45
53----------------------45
76----------------------45
319----------------------45
60----------------------45
356----------------------45
465----------------------46
374----------------------46
470----------------------46
443----------------------46
471----------------------46
342----------------------46
109----------------------46
452----------------------46
136----------------------46
55----------------------47
258----------------------47
338----------------------47
368----------------------47
77----------------------47
416----------------------47
329----------------------47
390----------------------47
283----------------------47
428----------------------47
425----------------------47
134----------------------47
4----------------------48
8----------------------48
32----------------------48
22----------------------48
10----------------------48
245----------------------48
40----------------------48
456----------------------48
149----------------------48
110----------------------48
9----------------------49
14----------------------49
21----------------------49
254----------------------49
377----------------------49
102----------------------49
115----------------------49
243----------------------50
46----------------------50
44----------------------50
344----------------------50
327----------------------50
429----------------------50
318----------------------50
270----------------------50
462----------------------50
105----------------------50
251----------------------51
12----------------------51
336----------------------51
280----------------------51
326----------------------51
88----------------------51
101----------------------51
6----------------------52
33----------------------52
421----------------------52
460----------------------52
182----------------------52
343----------------------53
47----------------------53
317----------------------53
87----------------------53
98----------------------53
171----------------------53
246----------------------54
34----------------------54
257----------------------54
247----------------------54
304----------------------54
313----------------------54
52----------------------54
81----------------------54
29----------------------55
66----------------------55
126----------------------55
138----------------------55
349----------------------56
250----------------------56
43----------------------56
363----------------------57
69----------------------57
86----------------------57
92----------------------57
75----------------------57
19----------------------58
286----------------------58
420----------------------59
73----------------------59
97----------------------59
240----------------------60
320----------------------60
310----------------------60
275----------------------60
162----------------------60
253----------------------61
292----------------------61
0----------------------61
59----------------------61
78----------------------61
446----------------------62
328----------------------62
403----------------------62
27----------------------62
65----------------------62
354----------------------63
281----------------------63
351----------------------63
314----------------------63
402----------------------63
295----------------------63
357----------------------64
315----------------------64
261----------------------64
39----------------------64
45----------------------64
80----------------------65
297----------------------66
478----------------------66
434----------------------66
49----------------------66
93----------------------66
330----------------------67
367----------------------67
37----------------------67
472----------------------67
23----------------------67
56----------------------67
95----------------------67
408----------------------68
457----------------------68
28----------------------68
67----------------------68
174----------------------68
431----------------------69
414----------------------69
476----------------------69
94----------------------69
427----------------------70
260----------------------70
384----------------------70
405----------------------70
442----------------------70
54----------------------70
157----------------------70
385----------------------71
418----------------------71
409----------------------71
26----------------------71
278----------------------72
133----------------------72
5----------------------73
85----------------------73
372----------------------74
376----------------------74
438----------------------74
459----------------------74
74----------------------74
394----------------------75
30----------------------75
263----------------------76
466----------------------76
96----------------------76
57----------------------76
82----------------------76
322----------------------77
325----------------------77
401----------------------77
264----------------------77
383----------------------77
449----------------------77
205----------------------77
11----------------------78
332----------------------79
112----------------------79
382----------------------80
259----------------------80
400----------------------80
347----------------------80
333----------------------80
473----------------------80
430----------------------80
311----------------------80
140----------------------80
89----------------------80
48----------------------80
464----------------------81
20----------------------81
389----------------------82
151----------------------82
417----------------------83
388----------------------83
387----------------------83
352----------------------83
129----------------------83
248----------------------84
375----------------------84
293----------------------84
36----------------------84
298----------------------85
307----------------------85
316----------------------85
324----------------------85
386----------------------85
256----------------------86
272----------------------86
213----------------------86
308----------------------87
437----------------------87
288----------------------87
63----------------------87
262----------------------88
106----------------------88
381----------------------89
392----------------------90
267----------------------90
104----------------------90
345----------------------91
35----------------------91
228----------------------91
346----------------------92
305----------------------92
334----------------------93
404----------------------93
15----------------------93
360----------------------94
436----------------------94
118----------------------94
99----------------------94
241----------------------95
361----------------------95
447----------------------95
454----------------------95
132----------------------95
448----------------------96
7----------------------96
285----------------------97
396----------------------97
269----------------------97
477----------------------97
107----------------------97
68----------------------97
277----------------------98
423----------------------98
435----------------------98
413----------------------98
180----------------------98
362----------------------99
379----------------------99
31----------------------99
13----------------------99
373----------------------100
291----------------------101
300----------------------101
370----------------------101
303----------------------103
337----------------------103
339----------------------103
410----------------------103
38----------------------103
116----------------------104
62----------------------104
108----------------------105
284----------------------106
323----------------------107
444----------------------107
103----------------------107
119----------------------107
440----------------------109
276----------------------109
255----------------------109
406----------------------110
479----------------------110
309----------------------111
353----------------------111
222----------------------111
369----------------------112
306----------------------112
398----------------------113
84----------------------113
340----------------------114
142----------------------114
426----------------------115
458----------------------115
335----------------------116
312----------------------116
407----------------------117
463----------------------117
422----------------------118
441----------------------118
450----------------------118
139----------------------118
198----------------------119
350----------------------120
321----------------------120
271----------------------120
83----------------------120
289----------------------121
113----------------------121
91----------------------121
467----------------------122
412----------------------123
302----------------------124
71----------------------124
274----------------------125
341----------------------126
439----------------------126
475----------------------126
279----------------------126
268----------------------128
141----------------------128
18----------------------128
282----------------------129
348----------------------129
273----------------------130
114----------------------130
124----------------------131
117----------------------132
24----------------------133
299----------------------134
244----------------------134
64----------------------134
399----------------------135
433----------------------136
393----------------------136
358----------------------136
455----------------------136
70----------------------136
266----------------------137
424----------------------137
419----------------------137
208----------------------137
42----------------------138
355----------------------139
395----------------------139
474----------------------139
411----------------------139
79----------------------139
111----------------------139
41----------------------140
371----------------------140
127----------------------140
169----------------------141
100----------------------141
186----------------------143
122----------------------144
165----------------------145
61----------------------145
445----------------------146
58----------------------146
177----------------------147
125----------------------147
451----------------------148
207----------------------148
378----------------------149
468----------------------150
204----------------------151
173----------------------151
265----------------------152
131----------------------152
135----------------------153
179----------------------156
168----------------------156
167----------------------157
121----------------------157
290----------------------159
189----------------------159
166----------------------159
301----------------------160
176----------------------160
143----------------------160
453----------------------161
432----------------------161
147----------------------161
202----------------------162
415----------------------165
163----------------------165
190----------------------166
188----------------------167
154----------------------167
231----------------------168
150----------------------170
227----------------------171
172----------------------171
197----------------------174
391----------------------175
214----------------------175
181----------------------176
210----------------------180
192----------------------180
156----------------------181
148----------------------184
195----------------------187
209----------------------187
145----------------------188
50----------------------188
191----------------------189
226----------------------191
72----------------------192
200----------------------194
158----------------------194
221----------------------197
187----------------------198
170----------------------199
194----------------------200
123----------------------200
120----------------------201
152----------------------205
196----------------------210
137----------------------210
201----------------------211
199----------------------211
130----------------------211
153----------------------216
206----------------------217
211----------------------218
184----------------------222
220----------------------232
183----------------------234
175----------------------234
160----------------------236
161----------------------241
225----------------------241
155----------------------241
232----------------------248
164----------------------248
203----------------------250
128----------------------251
193----------------------256
178----------------------256
185----------------------260
233----------------------264
217----------------------268
215----------------------271
218----------------------282
216----------------------284
219----------------------292
234----------------------299
230----------------------302
238----------------------316
229----------------------330
223----------------------340
212----------------------343
237----------------------351
236----------------------379
235----------------------380
