32
29
30
26
22
31
30
33
30
29
29
26
17
28
26
31
22
27
27
22
29
25
30
32
22
31
29
28
32
36
29
33
22
30
26
32
29
38
36
33
30
37
23
34
25
31
30
27
34
29
24
29
30
25
28
31
30
28
37
31
30
34
26
35
37
32
27
31
9
