36
37
28
30
26
24
30
24
35
37
37
29
32
37
23
33
30
25
24
35
22
31
28
24
32
24
21
35
32
29
30
30
25
35
27
27
30
29
29
33
29
36
23
27
32
31
40
37
32
34
31
31
36
34
37
40
24
28
35
29
24
28
27
25
28
28
27
32
25
32
31
29
25
30
25
28
23
35
33
31
25
32
27
32
29
28
27
20
25
24
31
28
29
36
30
11
