30
30
27
29
35
29
37
32
27
32
30
30
25
28
29
36
31
40
28
32
29
29
31
34
36
30
31
26
31
30
31
29
30
30
28
27
25
24
27
23
32
36
23
29
37
26
30
32
24
30
28
32
28
33
28
35
26
25
34
31
31
25
34
23
33
35
28
29
25
34
24
23
33
36
31
28
28
30
36
30
29
28
28
24
