28
26
28
31
30
25
32
38
29
27
25
25
31
32
24
26
31
30
27
23
34
25
34
34
25
32
29
28
25
32
28
38
26
29
29
32
31
38
24
24
37
28
31
29
26
27
33
28
29
39
30
27
27
27
24
28
35
35
28
26
33
35
21
31
23
32
28
29
27
24
26
31
25
20
27
24
30
27
36
30
29
31
26
28
31
5
