34
30
33
28
26
29
30
31
29
31
30
32
29
29
29
28
31
22
26
30
31
27
31
29
33
20
27
28
25
28
26
31
31
30
25
35
31
37
25
25
26
29
29
31
38
21
28
29
26
31
31
36
30
30
29
30
30
30
29
33
26
37
42
28
30
31
34
26
28
28
26
32
28
33
30
25
34
34
33
29
32
23
33
32
31
36
27
33
28
26
24
31
32
26
31
21
33
26
26
7
