29
27
32
23
29
20
32
32
26
25
35
31
29
37
34
19
33
34
24
35
26
29
29
31
38
25
35
24
33
33
32
35
28
25
36
23
29
30
28
23
36
27
31
33
30
29
30
29
32
34
28
25
29
32
35
25
32
31
27
28
33
26
30
30
34
26
31
31
19
24
29
27
22
31
35
23
37
32
28
25
25
23
26
27
18
33
28
30
29
27
27
33
21
