23
27
35
30
28
28
30
34
37
33
26
31
25
23
32
31
33
32
34
25
30
27
18
29
32
30
26
27
35
28
32
33
24
31
32
27
31
26
33
34
34
35
32
30
33
35
24
17
32
33
25
28
28
27
35
26
29
29
29
29
31
22
30
25
28
30
26
29
26
28
27
31
27
29
25
34
31
35
33
29
28
31
31
26
31
27
23
35
32
31
29
28
27
30
30
32
26
25
28
35
31
32
20
33
30
35
18
28
23
32
32
27
39
31
31
29
28
23
25
27
4
