23
29
32
26
30
35
26
28
32
26
30
27
29
28
25
28
26
30
30
29
28
25
31
34
24
29
27
26
31
30
28
29
34
28
23
25
29
25
29
31
29
27
28
37
26
30
29
29
31
25
31
29
25
33
34
26
31
38
23
35
28
33
25
23
27
27
25
31
28
40
28
30
28
33
31
24
31
28
31
29
32
29
14
