27
32
28
35
37
27
26
32
31
34
23
28
33
28
30
29
31
31
26
27
30
32
27
20
25
28
32
30
18
27
30
27
27
31
33
34
31
30
28
26
31
30
39
27
35
30
29
29
27
27
27
29
32
30
27
30
28
36
28
24
29
24
29
32
19
22
34
39
29
28
29
41
31
28
30
28
27
32
33
27
34
36
32
31
37
17
