19
31
21
32
28
30
31
26
21
30
26
27
29
35
29
27
32
29
38
30
30
31
32
32
29
30
29
32
23
31
31
28
31
30
33
30
30
27
32
32
22
33
28
21
28
31
27
29
25
30
29
27
35
30
27
25
29
32
31
27
30
28
29
25
36
32
31
28
24
32
29
25
29
29
39
30
6
