28
34
30
30
30
23
25
30
25
28
28
27
32
27
25
29
29
30
26
30
31
34
28
26
34
34
29
34
31
27
34
26
27
28
29
27
29
26
28
27
30
32
27
31
30
30
32
34
30
31
32
30
26
29
30
26
26
32
32
32
30
30
30
33
33
34
27
26
31
34
35
30
29
34
28
33
26
35
40
26
32
32
33
29
27
27
27
28
29
32
31
33
31
33
32
34
23
32
28
35
27
30
30
30
32
32
26
26
31
30
30
25
33
30
27
34
