31
30
36
23
26
27
28
33
27
23
23
24
29
35
25
38
31
24
27
31
28
24
40
30
31
30
28
34
32
28
30
33
33
32
32
28
33
29
24
17
28
23
31
32
36
35
28
25
34
30
37
29
37
39
33
25
22
36
27
30
26
32
29
21
25
27
33
13
