32
24
26
33
29
31
33
34
25
31
28
27
27
28
26
30
25
31
29
24
28
21
35
30
21
34
28
25
29
35
29
25
34
24
26
33
35
27
25
32
38
30
30
31
36
25
31
27
24
28
23
30
32
32
27
33
33
28
29
38
29
27
29
36
24
26
40
25
37
20
26
29
35
27
30
31
25
32
24
29
22
32
30
31
24
23
29
37
31
25
22
29
28
36
35
38
40
23
29
