33
29
28
34
34
26
27
27
38
26
30
26
30
26
33
28
27
32
34
33
25
34
29
28
36
28
23
32
27
25
29
29
31
27
31
33
33
26
23
26
25
26
27
24
28
33
35
23
22
29
26
33
28
28
27
27
28
31
30
31
23
20
36
28
28
31
35
27
30
26
33
37
37
24
26
36
34
36
31
30
37
34
29
24
31
38
32
28
31
25
31
32
30
30
34
32
30
33
28
28
23
14
