31
29
28
28
27
29
29
30
29
26
30
29
33
25
25
33
29
34
29
31
34
25
27
27
28
32
32
26
28
27
25
27
26
30
26
31
33
21
29
33
23
33
32
36
29
35
27
30
33
22
30
28
30
27
34
35
33
25
30
37
27
35
23
28
29
25
30
32
28
29
32
29
21
29
25
33
30
27
29
33
31
30
22
31
28
5
