29
28
25
34
27
28
32
29
36
21
32
25
25
29
30
28
32
32
36
29
35
33
35
31
30
27
23
26
29
32
31
27
29
35
27
25
30
28
25
28
29
34
37
26
32
36
34
22
32
28
30
28
31
24
34
31
40
34
22
37
27
31
32
28
30
29
28
26
33
25
23
27
27
28
27
32
33
24
33
35
33
22
