32
32
42
30
28
31
25
26
39
36
30
34
27
32
22
32
33
26
36
37
25
37
35
40
28
32
30
30
30
31
29
35
29
26
31
30
24
26
31
27
24
28
36
29
26
25
32
21
35
30
36
32
28
22
29
31
26
26
30
28
33
38
31
24
27
26
19
26
28
31
22
35
24
30
34
32
11
