30
26
33
27
28
26
29
30
27
30
27
29
31
33
26
28
24
29
29
26
27
34
29
25
26
30
31
36
27
34
30
29
32
23
23
30
31
30
23
38
28
31
30
31
35
29
20
31
21
25
31
35
26
26
32
40
33
37
31
27
32
31
28
23
35
34
24
29
26
26
25
29
24
28
30
23
27
30
27
30
32
33
28
32
17
