26
29
31
37
31
28
26
24
25
27
31
26
33
34
32
35
36
28
33
35
30
32
32
32
29
23
39
26
32
29
25
29
28
32
34
19
34
31
32
33
23
37
23
21
30
25
28
25
30
31
29
31
24
32
33
37
29
28
31
24
31
28
33
31
30
24
30
28
33
30
29
30
27
36
22
27
29
21
32
31
31
30
23
30
28
31
32
35
31
24
33
30
27
28
27
32
32
31
11
