39
29
26
31
37
29
25
28
33
30
30
34
39
28
34
31
34
21
32
29
34
31
31
26
25
32
23
29
26
30
30
27
29
30
31
22
34
38
32
26
27
35
33
34
27
27
29
28
32
25
27
24
29
29
32
36
29
31
27
30
30
31
29
37
30
33
24
35
33
28
24
29
27
33
23
33
29
29
33
35
28
35
27
29
27
38
24
31
29
19
28
30
30
28
35
35
22
30
35
31
29
40
25
34
29
28
21
30
30
27
25
30
28
21
27
25
29
30
26
34
39
29
32
31
31
30
32
26
33
29
33
29
25
21
33
31
30
31
27
27
30
32
30
30
9
