25
20
33
26
29
33
27
30
20
32
27
29
32
28
29
28
30
26
24
28
28
31
29
27
26
33
26
23
28
28
36
29
27
23
29
33
35
23
37
31
22
25
33
25
31
25
30
30
30
26
29
31
30
34
33
27
32
35
34
24
20
38
34
31
28
28
32
35
30
35
26
30
27
27
29
7
