27
26
28
28
28
25
26
31
28
31
33
28
36
35
26
28
32
25
26
35
29
28
29
33
28
36
31
33
27
26
33
29
32
24
30
27
28
33
28
24
34
34
28
29
25
35
28
26
31
34
28
28
31
30
32
26
29
33
26
36
21
29
24
19
31
20
25
30
30
29
24
39
30
27
28
24
33
35
19
34
27
25
35
28
34
26
31
35
35
27
