25
35
32
30
28
26
26
30
30
30
35
21
25
30
32
37
34
36
31
22
23
28
26
35
36
29
34
22
23
28
32
22
26
30
27
32
28
28
33
25
22
30
32
28
30
33
24
36
27
33
21
30
18
30
29
27
26
28
29
28
33
24
24
33
29
29
20
33
26
33
26
28
28
32
33
33
30
32
32
30
22
29
24
30
29
20
37
29
35
33
39
31
23
26
31
31
28
31
27
28
6
