32
27
29
34
32
29
26
33
37
26
24
28
30
24
28
26
30
30
20
28
34
26
35
20
24
28
34
27
28
34
24
25
25
35
24
29
32
35
24
34
23
30
30
31
35
32
26
33
28
33
41
25
34
28
34
35
26
29
25
32
33
28
36
32
35
30
32
27
26
38
33
24
29
33
25
23
20
25
29
25
27
26
29
34
31
32
31
25
28
30
31
28
25
25
25
31
28
31
26
26
27
28
32
27
27
31
33
25
30
25
31
31
