26
31
32
29
32
22
34
33
28
30
29
28
27
33
36
32
31
29
40
36
30
29
22
25
27
29
30
18
30
26
24
37
28
30
29
23
22
25
32
34
32
26
33
25
26
29
33
26
22
29
33
28
25
32
38
23
31
25
23
21
30
28
25
29
27
33
2
