30
26
27
29
25
38
37
26
33
31
25
35
31
32
20
26
32
28
28
26
22
32
30
32
34
34
35
24
28
29
31
27
26
28
26
27
27
29
31
20
31
30
27
22
28
26
27
30
30
29
27
27
35
26
30
26
21
30
32
25
30
36
27
25
29
15
32
42
11
