33
34
29
29
30
27
20
26
25
26
29
30
35
31
24
24
31
26
37
27
28
33
39
30
19
28
33
32
28
28
25
33
30
36
19
29
29
31
32
38
31
23
30
29
33
31
28
26
30
34
39
30
42
26
29
28
23
33
34
33
27
30
36
24
28
25
27
26
24
28
39
38
34
25
27
33
25
31
30
27
28
32
24
34
29
32
15
30
3
