33
35
33
33
25
32
28
35
38
23
24
28
29
26
23
28
29
35
23
31
33
24
28
28
30
28
36
26
23
36
25
40
35
29
27
30
31
30
29
25
28
27
28
28
25
36
24
30
28
27
33
31
28
25
33
37
35
29
31
33
27
36
27
33
33
29
33
27
32
31
27
29
29
31
33
30
38
33
34
27
27
34
27
27
32
30
30
37
24
14
