34
29
41
28
25
26
35
34
29
20
22
32
33
29
32
30
32
27
24
24
35
26
32
24
31
30
34
32
26
25
27
30
25
28
25
35
33
34
37
25
35
28
22
31
31
29
28
30
31
24
35
30
34
22
27
32
36
29
25
22
34
30
34
25
33
25
39
29
2
