30----------------------3
30----------------------3
32----------------------3
33----------------------3
33----------------------3
32----------------------3
34----------------------3
34----------------------3
43----------------------3
43----------------------3
58----------------------3
58----------------------3
62----------------------3
62----------------------3
69----------------------3
69----------------------3
73----------------------3
73----------------------3
75----------------------3
75----------------------3
81----------------------3
81----------------------3
82----------------------3
82----------------------3
99----------------------3
99----------------------3
100----------------------3
100----------------------3
105----------------------3
105----------------------3
109----------------------3
109----------------------3
110----------------------3
110----------------------3
249----------------------3
249----------------------3
304----------------------3
304----------------------3
122----------------------4
122----------------------4
148----------------------4
148----------------------4
156----------------------4
156----------------------4
158----------------------4
158----------------------4
185----------------------4
185----------------------4
188----------------------4
188----------------------4
198----------------------4
198----------------------4
311----------------------4
311----------------------4
321----------------------4
321----------------------4
222----------------------5
222----------------------5
230----------------------5
230----------------------5
352----------------------5
352----------------------5
354----------------------5
354----------------------5
357----------------------5
357----------------------5
370----------------------5
370----------------------5
371----------------------5
371----------------------5
375----------------------5
375----------------------5
376----------------------5
376----------------------5
383----------------------5
383----------------------5
386----------------------5
386----------------------5
394----------------------5
394----------------------5
413----------------------5
413----------------------5
435----------------------5
435----------------------5
436----------------------5
436----------------------5
464----------------------5
464----------------------5
474----------------------5
474----------------------5
22----------------------6
22----------------------6
24----------------------6
24----------------------6
26----------------------6
26----------------------6
27----------------------6
27----------------------6
40----------------------6
40----------------------6
241----------------------6
241----------------------6
235----------------------6
235----------------------6
52----------------------7
52----------------------7
53----------------------7
53----------------------7
63----------------------7
63----------------------7
92----------------------7
92----------------------7
95----------------------7
95----------------------7
96----------------------7
96----------------------7
246----------------------7
246----------------------7
252----------------------7
252----------------------7
108----------------------8
108----------------------8
124----------------------8
124----------------------8
140----------------------8
140----------------------8
146----------------------8
146----------------------8
159----------------------8
159----------------------8
163----------------------8
163----------------------8
165----------------------8
165----------------------8
262----------------------8
262----------------------8
267----------------------8
267----------------------8
273----------------------8
274----------------------8
273----------------------8
274----------------------8
288----------------------8
288----------------------8
308----------------------8
308----------------------8
179----------------------9
179----------------------9
182----------------------9
182----------------------9
187----------------------9
187----------------------9
190----------------------9
190----------------------9
196----------------------9
196----------------------9
197----------------------9
197----------------------9
207----------------------9
207----------------------9
314----------------------9
314----------------------9
317----------------------9
317----------------------9
217----------------------10
217----------------------10
227----------------------10
227----------------------10
335----------------------10
335----------------------10
344----------------------10
344----------------------10
348----------------------10
348----------------------10
353----------------------10
353----------------------10
355----------------------10
355----------------------10
363----------------------10
363----------------------10
365----------------------10
365----------------------10
369----------------------10
369----------------------10
374----------------------10
374----------------------10
385----------------------10
385----------------------10
395----------------------10
395----------------------10
402----------------------10
402----------------------10
412----------------------10
412----------------------10
414----------------------10
414----------------------10
421----------------------10
421----------------------10
427----------------------10
427----------------------10
440----------------------10
440----------------------10
444----------------------10
444----------------------10
446----------------------10
446----------------------10
459----------------------10
459----------------------10
460----------------------10
460----------------------10
462----------------------10
462----------------------10
466----------------------10
466----------------------10
7----------------------11
7----------------------11
240----------------------11
240----------------------11
237----------------------11
237----------------------11
21----------------------12
21----------------------12
23----------------------12
23----------------------12
28----------------------12
28----------------------12
56----------------------12
56----------------------12
61----------------------12
61----------------------12
68----------------------12
68----------------------12
71----------------------12
71----------------------12
85----------------------13
83----------------------12
85----------------------13
83----------------------12
88----------------------13
88----------------------13
134----------------------13
134----------------------13
172----------------------13
172----------------------13
176----------------------13
176----------------------13
180----------------------13
180----------------------13
181----------------------13
181----------------------13
242----------------------13
242----------------------13
283----------------------13
283----------------------13
293----------------------13
293----------------------13
301----------------------13
301----------------------13
184----------------------14
184----------------------14
211----------------------14
211----------------------14
215----------------------14
215----------------------14
216----------------------14
216----------------------14
313----------------------14
313----------------------14
334----------------------14
334----------------------14
220----------------------15
220----------------------15
225----------------------15
225----------------------15
228----------------------15
228----------------------15
358----------------------15
358----------------------15
373----------------------15
373----------------------15
387----------------------15
387----------------------15
391----------------------15
391----------------------15
392----------------------15
392----------------------15
410----------------------15
410----------------------15
447----------------------15
447----------------------15
453----------------------15
453----------------------15
456----------------------15
456----------------------15
470----------------------15
470----------------------15
233----------------------16
233----------------------16
471----------------------16
471----------------------16
5----------------------17
5----------------------17
9----------------------17
9----------------------17
10----------------------17
10----------------------17
31----------------------17
31----------------------17
41----------------------17
41----------------------17
46----------------------17
46----------------------17
66----------------------17
66----------------------17
77----------------------17
77----------------------17
78----------------------17
78----------------------17
86----------------------17
86----------------------17
94----------------------17
94----------------------17
102----------------------17
102----------------------17
250----------------------17
250----------------------17
251----------------------17
251----------------------17
254----------------------17
254----------------------17
113----------------------18
113----------------------18
116----------------------18
116----------------------18
119----------------------18
119----------------------18
126----------------------18
126----------------------18
131----------------------18
131----------------------18
173----------------------18
173----------------------18
183----------------------18
183----------------------18
186----------------------18
186----------------------18
265----------------------18
265----------------------18
281----------------------18
281----------------------18
285----------------------18
285----------------------18
287----------------------18
287----------------------18
302----------------------18
302----------------------18
309----------------------18
309----------------------18
326----------------------19
326----------------------19
340----------------------19
340----------------------19
346----------------------19
346----------------------19
347----------------------19
347----------------------19
364----------------------19
364----------------------19
389----------------------19
389----------------------19
398----------------------19
398----------------------19
399----------------------19
399----------------------19
400----------------------19
400----------------------19
411----------------------19
411----------------------19
437----------------------19
437----------------------19
438----------------------19
438----------------------19
442----------------------19
442----------------------19
445----------------------19
445----------------------19
449----------------------19
449----------------------19
451----------------------19
451----------------------19
452----------------------19
452----------------------19
465----------------------19
465----------------------19
467----------------------19
467----------------------19
469----------------------19
469----------------------19
473----------------------19
473----------------------19
3----------------------20
3----------------------20
11----------------------20
11----------------------20
13----------------------20
13----------------------20
16----------------------20
16----------------------20
47----------------------20
47----------------------20
50----------------------20
50----------------------20
51----------------------20
51----------------------20
54----------------------20
54----------------------20
57----------------------20
57----------------------20
80----------------------20
80----------------------20
84----------------------20
84----------------------20
93----------------------20
93----------------------20
253----------------------20
253----------------------20
255----------------------20
255----------------------20
260----------------------20
260----------------------20
103----------------------21
103----------------------21
117----------------------21
117----------------------21
125----------------------21
125----------------------21
127----------------------21
127----------------------21
137----------------------21
137----------------------21
138----------------------21
138----------------------21
141----------------------21
141----------------------21
153----------------------21
153----------------------21
264----------------------21
264----------------------21
269----------------------21
269----------------------21
168----------------------22
168----------------------22
169----------------------22
169----------------------22
232----------------------22
232----------------------22
234----------------------22
234----------------------22
270----------------------22
270----------------------22
286----------------------22
286----------------------22
291----------------------22
291----------------------22
298----------------------22
298----------------------22
300----------------------22
300----------------------22
324----------------------22
324----------------------22
337----------------------22
337----------------------22
368----------------------22
368----------------------22
379----------------------22
379----------------------22
390----------------------22
390----------------------22
423----------------------23
423----------------------23
441----------------------23
441----------------------23
468----------------------23
468----------------------23
14----------------------24
14----------------------24
67----------------------24
67----------------------24
74----------------------24
74----------------------24
106----------------------24
106----------------------24
123----------------------24
123----------------------24
132----------------------24
132----------------------24
145----------------------24
145----------------------24
149----------------------24
149----------------------24
155----------------------24
155----------------------24
271----------------------24
271----------------------24
208----------------------25
208----------------------25
214----------------------25
214----------------------25
296----------------------25
296----------------------25
338----------------------25
338----------------------25
382----------------------25
382----------------------25
397----------------------25
397----------------------25
407----------------------25
407----------------------25
418----------------------25
418----------------------25
434----------------------25
434----------------------25
450----------------------25
450----------------------25
454----------------------25
454----------------------25
458----------------------25
458----------------------25
472----------------------25
472----------------------25
477----------------------25
477----------------------25
2----------------------26
2----------------------26
20----------------------26
20----------------------26
36----------------------26
36----------------------26
42----------------------26
42----------------------26
44----------------------26
44----------------------26
256----------------------26
256----------------------26
259----------------------26
259----------------------26
263----------------------26
263----------------------26
79----------------------27
79----------------------27
91----------------------27
91----------------------27
178----------------------27
178----------------------27
195----------------------27
195----------------------27
224----------------------27
224----------------------27
231----------------------27
231----------------------27
268----------------------27
268----------------------27
290----------------------27
290----------------------27
238----------------------28
238----------------------28
294----------------------28
294----------------------28
307----------------------28
307----------------------28
318----------------------28
318----------------------28
329----------------------28
329----------------------28
330----------------------28
330----------------------28
351----------------------28
351----------------------28
362----------------------28
362----------------------28
367----------------------28
367----------------------28
372----------------------28
372----------------------28
396----------------------28
396----------------------28
401----------------------28
401----------------------28
406----------------------28
406----------------------28
419----------------------28
419----------------------28
429----------------------28
429----------------------28
430----------------------28
430----------------------28
433----------------------28
433----------------------28
455----------------------28
455----------------------28
15----------------------29
15----------------------29
18----------------------29
18----------------------29
64----------------------29
64----------------------29
257----------------------29
257----------------------29
112----------------------30
112----------------------30
136----------------------30
136----------------------30
139----------------------30
139----------------------30
142----------------------30
142----------------------30
144----------------------30
144----------------------30
174----------------------30
174----------------------30
191----------------------30
191----------------------30
278----------------------30
278----------------------30
279----------------------30
279----------------------30
299----------------------30
299----------------------30
315----------------------31
315----------------------31
320----------------------31
320----------------------31
349----------------------31
349----------------------31
360----------------------31
360----------------------31
366----------------------31
366----------------------31
408----------------------31
408----------------------31
416----------------------31
416----------------------31
422----------------------31
422----------------------31
426----------------------31
426----------------------31
428----------------------31
428----------------------31
431----------------------31
431----------------------31
479----------------------31
479----------------------31
0----------------------32
0----------------------32
29----------------------32
29----------------------32
38----------------------32
38----------------------32
151----------------------32
151----------------------32
193----------------------32
193----------------------32
247----------------------32
203----------------------32
209----------------------32
282----------------------32
297----------------------32
323----------------------32
328----------------------32
333----------------------32
343----------------------32
356----------------------32
282----------------------32
203----------------------32
328----------------------32
209----------------------32
333----------------------32
343----------------------32
247----------------------32
297----------------------32
213----------------------33
213----------------------33
356----------------------32
323----------------------32
226----------------------33
226----------------------33
378----------------------33
378----------------------33
404----------------------33
404----------------------33
405----------------------33
405----------------------33
425----------------------33
425----------------------33
229----------------------34
229----------------------34
463----------------------34
463----------------------34
35----------------------35
35----------------------35
104----------------------35
104----------------------35
170----------------------35
170----------------------35
261----------------------35
261----------------------35
212----------------------35
212----------------------35
280----------------------35
280----------------------35
284----------------------35
284----------------------35
303----------------------35
303----------------------35
306----------------------35
306----------------------35
381----------------------35
381----------------------35
409----------------------35
409----------------------35
432----------------------35
432----------------------35
439----------------------35
439----------------------35
478----------------------35
478----------------------35
292----------------------36
292----------------------36
239----------------------36
239----------------------36
17----------------------37
17----------------------37
45----------------------37
45----------------------37
121----------------------37
121----------------------37
143----------------------37
143----------------------37
295----------------------37
295----------------------37
305----------------------37
305----------------------37
310----------------------37
310----------------------37
341----------------------37
341----------------------37
350----------------------37
350----------------------37
147----------------------38
147----------------------38
152----------------------38
152----------------------38
166----------------------38
166----------------------38
175----------------------38
175----------------------38
194----------------------38
194----------------------38
200----------------------38
200----------------------38
204----------------------38
204----------------------38
258----------------------39
258----------------------39
276----------------------39
276----------------------39
206----------------------39
206----------------------39
48----------------------40
48----------------------40
101----------------------40
101----------------------40
111----------------------40
111----------------------40
201----------------------40
201----------------------40
202----------------------40
202----------------------40
417----------------------40
417----------------------40
457----------------------40
457----------------------40
461----------------------40
461----------------------40
39----------------------41
39----------------------41
76----------------------41
76----------------------41
114----------------------41
114----------------------41
160----------------------41
160----------------------41
319----------------------41
319----------------------41
327----------------------41
327----------------------41
476----------------------42
476----------------------42
1----------------------43
1----------------------43
8----------------------43
19----------------------43
8----------------------43
19----------------------43
161----------------------43
161----------------------43
199----------------------43
199----------------------43
210----------------------43
210----------------------43
266----------------------43
266----------------------43
275----------------------43
275----------------------43
277----------------------43
277----------------------43
289----------------------43
289----------------------43
118----------------------44
118----------------------44
120----------------------44
120----------------------44
332----------------------44
332----------------------44
336----------------------44
336----------------------44
345----------------------44
345----------------------44
388----------------------44
388----------------------44
236----------------------44
236----------------------44
133----------------------45
133----------------------45
192----------------------45
192----------------------45
90----------------------46
90----------------------46
244----------------------46
244----------------------46
272----------------------46
272----------------------46
316----------------------46
316----------------------46
322----------------------46
322----------------------46
325----------------------46
325----------------------46
331----------------------46
331----------------------46
380----------------------46
380----------------------46
154----------------------47
154----------------------47
384----------------------47
384----------------------47
403----------------------47
403----------------------47
415----------------------47
415----------------------47
60----------------------48
60----------------------48
65----------------------48
65----------------------48
339----------------------48
339----------------------48
359----------------------48
359----------------------48
377----------------------48
377----------------------48
393----------------------48
393----------------------48
6----------------------49
6----------------------49
128----------------------49
128----------------------49
189----------------------49
189----------------------49
223----------------------49
223----------------------49
245----------------------50
245----------------------50
248----------------------50
248----------------------50
135----------------------51
135----------------------51
361----------------------51
361----------------------51
420----------------------51
420----------------------51
424----------------------51
424----------------------51
59----------------------52
59----------------------52
115----------------------52
115----------------------52
171----------------------52
171----------------------52
205----------------------52
205----------------------52
12----------------------54
12----------------------54
89----------------------54
89----------------------54
475----------------------54
475----------------------54
177----------------------54
177----------------------54
4----------------------56
4----------------------56
72----------------------56
72----------------------56
49----------------------57
49----------------------57
70----------------------57
70----------------------57
107----------------------57
107----------------------57
312----------------------57
312----------------------57
55----------------------58
55----------------------58
87----------------------58
87----------------------58
219----------------------58
219----------------------58
443----------------------58
443----------------------58
167----------------------59
