0_ep_norm.txtStart time  2 #Finish Time: 9 GPU: 2 _ep: 993

0_ep_norm.txtStart time  2 #Finish Time: 9 GPU: 2 _ep: 993

1_ep_norm.txtStart time  2 #Finish Time: 9 GPU: 2 _ep: 978

1_ep_norm.txtStart time  2 #Finish Time: 9 GPU: 2 _ep: 978

2_ep_norm.txtStart time  2 #Finish Time: 9 GPU: 2 _ep: 963

2_ep_norm.txtStart time  2 #Finish Time: 9 GPU: 2 _ep: 963

4_ep_norm.txtStart time  2 #Finish Time: 9 GPU: 2 _ep: 964

4_ep_norm.txtStart time  2 #Finish Time: 9 GPU: 2 _ep: 964

5_ep_norm.txtStart time  2 #Finish Time: 9 GPU: 2 _ep: 975

5_ep_norm.txtStart time  2 #Finish Time: 9 GPU: 2 _ep: 975

9_ep_norm.txtStart time  2 #Finish Time: 9 GPU: 2 _ep: 997

9_ep_norm.txtStart time  2 #Finish Time: 9 GPU: 2 _ep: 997

11_ep_norm.txtStart time  2 #Finish Time: 9 GPU: 2 _ep: 980

11_ep_norm.txtStart time  2 #Finish Time: 9 GPU: 2 _ep: 980

14_ep_norm.txtStart time  2 #Finish Time: 9 GPU: 2 _ep: 998

14_ep_norm.txtStart time  2 #Finish Time: 9 GPU: 2 _ep: 998

15_ep_norm.txtStart time  2 #Finish Time: 9 GPU: 2 _ep: 954

15_ep_norm.txtStart time  2 #Finish Time: 9 GPU: 2 _ep: 954

18_ep_norm.txtStart time  2 #Finish Time: 9 GPU: 2 _ep: 971

18_ep_norm.txtStart time  2 #Finish Time: 9 GPU: 2 _ep: 971

19_ep_norm.txtStart time  2 #Finish Time: 9 GPU: 2 _ep: 942

19_ep_norm.txtStart time  2 #Finish Time: 9 GPU: 2 _ep: 942

22_ep_norm.txtStart time  2 #Finish Time: 9 GPU: 2 _ep: 982

22_ep_norm.txtStart time  2 #Finish Time: 9 GPU: 2 _ep: 982

24_ep_norm.txtStart time  2 #Finish Time: 9 GPU: 2 _ep: 982

24_ep_norm.txtStart time  2 #Finish Time: 9 GPU: 2 _ep: 982

28_ep_norm.txtStart time  2 #Finish Time: 9 GPU: 2 _ep: 1029

28_ep_norm.txtStart time  2 #Finish Time: 9 GPU: 2 _ep: 1029

32_ep_norm.txtStart time  2 #Finish Time: 9 GPU: 2 _ep: 983

32_ep_norm.txtStart time  2 #Finish Time: 9 GPU: 2 _ep: 983

33_ep_norm.txtStart time  2 #Finish Time: 9 GPU: 2 _ep: 924

33_ep_norm.txtStart time  2 #Finish Time: 9 GPU: 2 _ep: 924

36_ep_norm.txtStart time  2 #Finish Time: 9 GPU: 2 _ep: 951

36_ep_norm.txtStart time  2 #Finish Time: 9 GPU: 2 _ep: 951

37_ep_norm.txtStart time  2 #Finish Time: 9 GPU: 2 _ep: 939

37_ep_norm.txtStart time  2 #Finish Time: 9 GPU: 2 _ep: 939

38_ep_norm.txtStart time  2 #Finish Time: 9 GPU: 2 _ep: 1009

38_ep_norm.txtStart time  2 #Finish Time: 9 GPU: 2 _ep: 1009

39_ep_norm.txtStart time  2 #Finish Time: 9 GPU: 2 _ep: 945

39_ep_norm.txtStart time  2 #Finish Time: 9 GPU: 2 _ep: 945

41_ep_norm.txtStart time  2 #Finish Time: 9 GPU: 3 _ep: 983

41_ep_norm.txtStart time  2 #Finish Time: 9 GPU: 3 _ep: 983

42_ep_norm.txtStart time  2 #Finish Time: 9 GPU: 3 _ep: 1012

42_ep_norm.txtStart time  2 #Finish Time: 9 GPU: 3 _ep: 1012

43_ep_norm.txtStart time  2 #Finish Time: 9 GPU: 3 _ep: 1030

43_ep_norm.txtStart time  2 #Finish Time: 9 GPU: 3 _ep: 1030

45_ep_norm.txtStart time  2 #Finish Time: 9 GPU: 3 _ep: 1000

45_ep_norm.txtStart time  2 #Finish Time: 9 GPU: 3 _ep: 1000

46_ep_norm.txtStart time  2 #Finish Time: 9 GPU: 3 _ep: 993

46_ep_norm.txtStart time  2 #Finish Time: 9 GPU: 3 _ep: 993

47_ep_norm.txtStart time  2 #Finish Time: 9 GPU: 3 _ep: 994

47_ep_norm.txtStart time  2 #Finish Time: 9 GPU: 3 _ep: 994

241_ep_norm.txtStart time  2 #Finish Time: 9 GPU: 1 _ep: 975

241_ep_norm.txtStart time  2 #Finish Time: 9 GPU: 1 _ep: 975

246_ep_norm.txtStart time  2 #Finish Time: 9 GPU: 1 _ep: 953

246_ep_norm.txtStart time  2 #Finish Time: 9 GPU: 1 _ep: 953

48_ep_norm.txtStart time  3 #Finish Time: 10 GPU: 3 _ep: 988

48_ep_norm.txtStart time  3 #Finish Time: 10 GPU: 3 _ep: 988

50_ep_norm.txtStart time  3 #Finish Time: 10 GPU: 3 _ep: 989

50_ep_norm.txtStart time  3 #Finish Time: 10 GPU: 3 _ep: 989

52_ep_norm.txtStart time  3 #Finish Time: 10 GPU: 3 _ep: 962

52_ep_norm.txtStart time  3 #Finish Time: 10 GPU: 3 _ep: 962

53_ep_norm.txtStart time  3 #Finish Time: 10 GPU: 3 _ep: 988

53_ep_norm.txtStart time  3 #Finish Time: 10 GPU: 3 _ep: 988

54_ep_norm.txtStart time  3 #Finish Time: 10 GPU: 3 _ep: 1016

54_ep_norm.txtStart time  3 #Finish Time: 10 GPU: 3 _ep: 1016

59_ep_norm.txtStart time  3 #Finish Time: 10 GPU: 3 _ep: 955

59_ep_norm.txtStart time  3 #Finish Time: 10 GPU: 3 _ep: 955

61_ep_norm.txtStart time  3 #Finish Time: 10 GPU: 4 _ep: 976

61_ep_norm.txtStart time  3 #Finish Time: 10 GPU: 4 _ep: 976

62_ep_norm.txtStart time  3 #Finish Time: 10 GPU: 4 _ep: 973

62_ep_norm.txtStart time  3 #Finish Time: 10 GPU: 4 _ep: 973

64_ep_norm.txtStart time  3 #Finish Time: 10 GPU: 4 _ep: 1025

64_ep_norm.txtStart time  3 #Finish Time: 10 GPU: 4 _ep: 1025

67_ep_norm.txtStart time  3 #Finish Time: 10 GPU: 4 _ep: 996

67_ep_norm.txtStart time  3 #Finish Time: 10 GPU: 4 _ep: 996

68_ep_norm.txtStart time  3 #Finish Time: 10 GPU: 4 _ep: 988

68_ep_norm.txtStart time  3 #Finish Time: 10 GPU: 4 _ep: 988

70_ep_norm.txtStart time  3 #Finish Time: 10 GPU: 4 _ep: 954

70_ep_norm.txtStart time  3 #Finish Time: 10 GPU: 4 _ep: 954

73_ep_norm.txtStart time  3 #Finish Time: 10 GPU: 4 _ep: 960

72_ep_norm.txtStart time  3 #Finish Time: 10 GPU: 4 _ep: 1001

73_ep_norm.txtStart time  3 #Finish Time: 10 GPU: 4 _ep: 960

72_ep_norm.txtStart time  3 #Finish Time: 10 GPU: 4 _ep: 1001

76_ep_norm.txtStart time  3 #Finish Time: 10 GPU: 4 _ep: 1004

76_ep_norm.txtStart time  3 #Finish Time: 10 GPU: 4 _ep: 1004

77_ep_norm.txtStart time  3 #Finish Time: 10 GPU: 4 _ep: 990

77_ep_norm.txtStart time  3 #Finish Time: 10 GPU: 4 _ep: 990

79_ep_norm.txtStart time  4 #Finish Time: 11 GPU: 4 _ep: 982

79_ep_norm.txtStart time  4 #Finish Time: 11 GPU: 4 _ep: 982

80_ep_norm.txtStart time  4 #Finish Time: 11 GPU: 4 _ep: 987

80_ep_norm.txtStart time  4 #Finish Time: 11 GPU: 4 _ep: 987

81_ep_norm.txtStart time  4 #Finish Time: 11 GPU: 4 _ep: 969

81_ep_norm.txtStart time  4 #Finish Time: 11 GPU: 4 _ep: 969

82_ep_norm.txtStart time  4 #Finish Time: 11 GPU: 4 _ep: 971

82_ep_norm.txtStart time  4 #Finish Time: 11 GPU: 4 _ep: 971

85_ep_norm.txtStart time  4 #Finish Time: 11 GPU: 4 _ep: 966

85_ep_norm.txtStart time  4 #Finish Time: 11 GPU: 4 _ep: 966

86_ep_norm.txtStart time  4 #Finish Time: 11 GPU: 4 _ep: 953

86_ep_norm.txtStart time  4 #Finish Time: 11 GPU: 4 _ep: 953

88_ep_norm.txtStart time  4 #Finish Time: 11 GPU: 4 _ep: 996

88_ep_norm.txtStart time  4 #Finish Time: 11 GPU: 4 _ep: 996

89_ep_norm.txtStart time  4 #Finish Time: 11 GPU: 4 _ep: 961

89_ep_norm.txtStart time  4 #Finish Time: 11 GPU: 4 _ep: 961

91_ep_norm.txtStart time  4 #Finish Time: 11 GPU: 4 _ep: 978

91_ep_norm.txtStart time  4 #Finish Time: 11 GPU: 4 _ep: 978

94_ep_norm.txtStart time  4 #Finish Time: 11 GPU: 4 _ep: 954

94_ep_norm.txtStart time  4 #Finish Time: 11 GPU: 4 _ep: 954

95_ep_norm.txtStart time  4 #Finish Time: 11 GPU: 4 _ep: 958

95_ep_norm.txtStart time  4 #Finish Time: 11 GPU: 4 _ep: 958

96_ep_norm.txtStart time  4 #Finish Time: 11 GPU: 4 _ep: 1033

96_ep_norm.txtStart time  4 #Finish Time: 11 GPU: 4 _ep: 1033

97_ep_norm.txtStart time  4 #Finish Time: 11 GPU: 4 _ep: 979

97_ep_norm.txtStart time  4 #Finish Time: 11 GPU: 4 _ep: 979

98_ep_norm.txtStart time  4 #Finish Time: 11 GPU: 4 _ep: 987

98_ep_norm.txtStart time  4 #Finish Time: 11 GPU: 4 _ep: 987

99_ep_norm.txtStart time  5 #Finish Time: 12 GPU: 4 _ep: 975

99_ep_norm.txtStart time  5 #Finish Time: 12 GPU: 4 _ep: 975

104_ep_norm.txtStart time  5 #Finish Time: 12 GPU: 4 _ep: 981

104_ep_norm.txtStart time  5 #Finish Time: 12 GPU: 4 _ep: 981

105_ep_norm.txtStart time  5 #Finish Time: 12 GPU: 4 _ep: 977

105_ep_norm.txtStart time  5 #Finish Time: 12 GPU: 4 _ep: 977

108_ep_norm.txtStart time  5 #Finish Time: 12 GPU: 4 _ep: 1016

108_ep_norm.txtStart time  5 #Finish Time: 12 GPU: 4 _ep: 1016

109_ep_norm.txtStart time  5 #Finish Time: 12 GPU: 4 _ep: 1010

109_ep_norm.txtStart time  5 #Finish Time: 12 GPU: 4 _ep: 1010

111_ep_norm.txtStart time  5 #Finish Time: 12 GPU: 4 _ep: 965

111_ep_norm.txtStart time  5 #Finish Time: 12 GPU: 4 _ep: 965

118_ep_norm.txtStart time  5 #Finish Time: 12 GPU: 4 _ep: 1018

118_ep_norm.txtStart time  5 #Finish Time: 12 GPU: 4 _ep: 1018

119_ep_norm.txtStart time  5 #Finish Time: 12 GPU: 4 _ep: 997

119_ep_norm.txtStart time  5 #Finish Time: 12 GPU: 4 _ep: 997

122_ep_norm.txtStart time  5 #Finish Time: 12 GPU: 8 _ep: 982

122_ep_norm.txtStart time  5 #Finish Time: 12 GPU: 8 _ep: 982

123_ep_norm.txtStart time  5 #Finish Time: 12 GPU: 8 _ep: 1015

123_ep_norm.txtStart time  5 #Finish Time: 12 GPU: 8 _ep: 1015

247_ep_norm.txtStart time  5 #Finish Time: 12 GPU: 1 _ep: 951

247_ep_norm.txtStart time  5 #Finish Time: 12 GPU: 1 _ep: 951

253_ep_norm.txtStart time  5 #Finish Time: 12 GPU: 1 _ep: 996

253_ep_norm.txtStart time  5 #Finish Time: 12 GPU: 1 _ep: 996

255_ep_norm.txtStart time  5 #Finish Time: 12 GPU: 1 _ep: 939

255_ep_norm.txtStart time  5 #Finish Time: 12 GPU: 1 _ep: 939

257_ep_norm.txtStart time  5 #Finish Time: 12 GPU: 1 _ep: 958

257_ep_norm.txtStart time  5 #Finish Time: 12 GPU: 1 _ep: 958

124_ep_norm.txtStart time  6 #Finish Time: 13 GPU: 8 _ep: 964

124_ep_norm.txtStart time  6 #Finish Time: 13 GPU: 8 _ep: 964

125_ep_norm.txtStart time  6 #Finish Time: 13 GPU: 8 _ep: 991

125_ep_norm.txtStart time  6 #Finish Time: 13 GPU: 8 _ep: 991

127_ep_norm.txtStart time  6 #Finish Time: 13 GPU: 8 _ep: 925

127_ep_norm.txtStart time  6 #Finish Time: 13 GPU: 8 _ep: 925

130_ep_norm.txtStart time  6 #Finish Time: 13 GPU: 8 _ep: 1012

130_ep_norm.txtStart time  6 #Finish Time: 13 GPU: 8 _ep: 1012

133_ep_norm.txtStart time  6 #Finish Time: 13 GPU: 8 _ep: 935

133_ep_norm.txtStart time  6 #Finish Time: 13 GPU: 8 _ep: 935

137_ep_norm.txtStart time  6 #Finish Time: 13 GPU: 8 _ep: 980

137_ep_norm.txtStart time  6 #Finish Time: 13 GPU: 8 _ep: 980

138_ep_norm.txtStart time  6 #Finish Time: 13 GPU: 8 _ep: 985

138_ep_norm.txtStart time  6 #Finish Time: 13 GPU: 8 _ep: 985

258_ep_norm.txtStart time  6 #Finish Time: 13 GPU: 1 _ep: 956

258_ep_norm.txtStart time  6 #Finish Time: 13 GPU: 1 _ep: 956

259_ep_norm.txtStart time  6 #Finish Time: 13 GPU: 1 _ep: 978

259_ep_norm.txtStart time  6 #Finish Time: 13 GPU: 1 _ep: 978

143_ep_norm.txtStart time  7 #Finish Time: 14 GPU: 8 _ep: 956

143_ep_norm.txtStart time  7 #Finish Time: 14 GPU: 8 _ep: 956

144_ep_norm.txtStart time  7 #Finish Time: 14 GPU: 8 _ep: 1004

144_ep_norm.txtStart time  7 #Finish Time: 14 GPU: 8 _ep: 1004

146_ep_norm.txtStart time  7 #Finish Time: 14 GPU: 8 _ep: 975

146_ep_norm.txtStart time  7 #Finish Time: 14 GPU: 8 _ep: 975

147_ep_norm.txtStart time  7 #Finish Time: 14 GPU: 8 _ep: 949

147_ep_norm.txtStart time  7 #Finish Time: 14 GPU: 8 _ep: 949

148_ep_norm.txtStart time  7 #Finish Time: 14 GPU: 8 _ep: 1001

148_ep_norm.txtStart time  7 #Finish Time: 14 GPU: 8 _ep: 1001

149_ep_norm.txtStart time  7 #Finish Time: 14 GPU: 8 _ep: 978

149_ep_norm.txtStart time  7 #Finish Time: 14 GPU: 8 _ep: 978

150_ep_norm.txtStart time  7 #Finish Time: 14 GPU: 8 _ep: 984

150_ep_norm.txtStart time  7 #Finish Time: 14 GPU: 8 _ep: 984

260_ep_norm.txtStart time  7 #Finish Time: 14 GPU: 1 _ep: 1027

260_ep_norm.txtStart time  7 #Finish Time: 14 GPU: 1 _ep: 1027

262_ep_norm.txtStart time  7 #Finish Time: 14 GPU: 1 _ep: 966

262_ep_norm.txtStart time  7 #Finish Time: 14 GPU: 1 _ep: 966

151_ep_norm.txtStart time  8 #Finish Time: 15 GPU: 8 _ep: 1001

151_ep_norm.txtStart time  8 #Finish Time: 15 GPU: 8 _ep: 1001

155_ep_norm.txtStart time  8 #Finish Time: 15 GPU: 8 _ep: 966

155_ep_norm.txtStart time  8 #Finish Time: 15 GPU: 8 _ep: 966

157_ep_norm.txtStart time  8 #Finish Time: 15 GPU: 8 _ep: 977

157_ep_norm.txtStart time  8 #Finish Time: 15 GPU: 8 _ep: 977

158_ep_norm.txtStart time  8 #Finish Time: 15 GPU: 8 _ep: 972

158_ep_norm.txtStart time  8 #Finish Time: 15 GPU: 8 _ep: 972

161_ep_norm.txtStart time  8 #Finish Time: 15 GPU: 8 _ep: 991

161_ep_norm.txtStart time  8 #Finish Time: 15 GPU: 8 _ep: 991

165_ep_norm.txtStart time  8 #Finish Time: 15 GPU: 8 _ep: 976

165_ep_norm.txtStart time  8 #Finish Time: 15 GPU: 8 _ep: 976

169_ep_norm.txtStart time  8 #Finish Time: 15 GPU: 8 _ep: 1001

169_ep_norm.txtStart time  8 #Finish Time: 15 GPU: 8 _ep: 1001

263_ep_norm.txtStart time  8 #Finish Time: 15 GPU: 1 _ep: 943

263_ep_norm.txtStart time  8 #Finish Time: 15 GPU: 1 _ep: 943

265_ep_norm.txtStart time  8 #Finish Time: 15 GPU: 1 _ep: 979

265_ep_norm.txtStart time  8 #Finish Time: 15 GPU: 1 _ep: 979

170_ep_norm.txtStart time  9 #Finish Time: 16 GPU: 8 _ep: 999

170_ep_norm.txtStart time  9 #Finish Time: 16 GPU: 8 _ep: 999

171_ep_norm.txtStart time  9 #Finish Time: 16 GPU: 8 _ep: 943

171_ep_norm.txtStart time  9 #Finish Time: 16 GPU: 8 _ep: 943

173_ep_norm.txtStart time  9 #Finish Time: 16 GPU: 8 _ep: 990

173_ep_norm.txtStart time  9 #Finish Time: 16 GPU: 8 _ep: 990

175_ep_norm.txtStart time  9 #Finish Time: 16 GPU: 8 _ep: 952

175_ep_norm.txtStart time  9 #Finish Time: 16 GPU: 8 _ep: 952

177_ep_norm.txtStart time  9 #Finish Time: 16 GPU: 8 _ep: 986

177_ep_norm.txtStart time  9 #Finish Time: 16 GPU: 8 _ep: 986

178_ep_norm.txtStart time  9 #Finish Time: 16 GPU: 8 _ep: 1001

178_ep_norm.txtStart time  9 #Finish Time: 16 GPU: 8 _ep: 1001

179_ep_norm.txtStart time  9 #Finish Time: 16 GPU: 8 _ep: 996

179_ep_norm.txtStart time  9 #Finish Time: 16 GPU: 8 _ep: 996

268_ep_norm.txtStart time  9 #Finish Time: 16 GPU: 1 _ep: 1006

268_ep_norm.txtStart time  9 #Finish Time: 16 GPU: 1 _ep: 1006

270_ep_norm.txtStart time  9 #Finish Time: 16 GPU: 1 _ep: 996

270_ep_norm.txtStart time  9 #Finish Time: 16 GPU: 1 _ep: 996

181_ep_norm.txtStart time  10 #Finish Time: 17 GPU: 8 _ep: 984

181_ep_norm.txtStart time  10 #Finish Time: 17 GPU: 8 _ep: 984

182_ep_norm.txtStart time  10 #Finish Time: 17 GPU: 8 _ep: 978

182_ep_norm.txtStart time  10 #Finish Time: 17 GPU: 8 _ep: 978

185_ep_norm.txtStart time  10 #Finish Time: 17 GPU: 8 _ep: 1000

185_ep_norm.txtStart time  10 #Finish Time: 17 GPU: 8 _ep: 1000

186_ep_norm.txtStart time  10 #Finish Time: 17 GPU: 8 _ep: 972

186_ep_norm.txtStart time  10 #Finish Time: 17 GPU: 8 _ep: 972

187_ep_norm.txtStart time  10 #Finish Time: 17 GPU: 8 _ep: 956

187_ep_norm.txtStart time  10 #Finish Time: 17 GPU: 8 _ep: 956

188_ep_norm.txtStart time  10 #Finish Time: 17 GPU: 8 _ep: 979

188_ep_norm.txtStart time  10 #Finish Time: 17 GPU: 8 _ep: 979

190_ep_norm.txtStart time  10 #Finish Time: 17 GPU: 8 _ep: 1012

190_ep_norm.txtStart time  10 #Finish Time: 17 GPU: 8 _ep: 1012

272_ep_norm.txtStart time  10 #Finish Time: 17 GPU: 1 _ep: 1020

272_ep_norm.txtStart time  10 #Finish Time: 17 GPU: 1 _ep: 1020

275_ep_norm.txtStart time  10 #Finish Time: 17 GPU: 1 _ep: 974

275_ep_norm.txtStart time  10 #Finish Time: 17 GPU: 1 _ep: 974

194_ep_norm.txtStart time  11 #Finish Time: 18 GPU: 8 _ep: 970

194_ep_norm.txtStart time  11 #Finish Time: 18 GPU: 8 _ep: 970

195_ep_norm.txtStart time  11 #Finish Time: 18 GPU: 8 _ep: 1007

195_ep_norm.txtStart time  11 #Finish Time: 18 GPU: 8 _ep: 1007

196_ep_norm.txtStart time  11 #Finish Time: 18 GPU: 8 _ep: 981

196_ep_norm.txtStart time  11 #Finish Time: 18 GPU: 8 _ep: 981

197_ep_norm.txtStart time  11 #Finish Time: 18 GPU: 8 _ep: 945

197_ep_norm.txtStart time  11 #Finish Time: 18 GPU: 8 _ep: 945

198_ep_norm.txtStart time  11 #Finish Time: 18 GPU: 8 _ep: 1030

198_ep_norm.txtStart time  11 #Finish Time: 18 GPU: 8 _ep: 1030

199_ep_norm.txtStart time  11 #Finish Time: 18 GPU: 8 _ep: 974

199_ep_norm.txtStart time  11 #Finish Time: 18 GPU: 8 _ep: 974

203_ep_norm.txtStart time  11 #Finish Time: 18 GPU: 8 _ep: 955

203_ep_norm.txtStart time  11 #Finish Time: 18 GPU: 8 _ep: 955

277_ep_norm.txtStart time  11 #Finish Time: 18 GPU: 1 _ep: 994

277_ep_norm.txtStart time  11 #Finish Time: 18 GPU: 1 _ep: 994

280_ep_norm.txtStart time  11 #Finish Time: 18 GPU: 1 _ep: 998

280_ep_norm.txtStart time  11 #Finish Time: 18 GPU: 1 _ep: 998

205_ep_norm.txtStart time  12 #Finish Time: 19 GPU: 8 _ep: 990

205_ep_norm.txtStart time  12 #Finish Time: 19 GPU: 8 _ep: 990

209_ep_norm.txtStart time  12 #Finish Time: 19 GPU: 8 _ep: 959

209_ep_norm.txtStart time  12 #Finish Time: 19 GPU: 8 _ep: 959

211_ep_norm.txtStart time  12 #Finish Time: 19 GPU: 16 _ep: 981

211_ep_norm.txtStart time  12 #Finish Time: 19 GPU: 16 _ep: 981

212_ep_norm.txtStart time  12 #Finish Time: 19 GPU: 16 _ep: 954

212_ep_norm.txtStart time  12 #Finish Time: 19 GPU: 16 _ep: 954

282_ep_norm.txtStart time  12 #Finish Time: 19 GPU: 1 _ep: 1018

282_ep_norm.txtStart time  12 #Finish Time: 19 GPU: 1 _ep: 1018

283_ep_norm.txtStart time  12 #Finish Time: 19 GPU: 1 _ep: 978

283_ep_norm.txtStart time  12 #Finish Time: 19 GPU: 1 _ep: 978

286_ep_norm.txtStart time  12 #Finish Time: 19 GPU: 1 _ep: 980

286_ep_norm.txtStart time  12 #Finish Time: 19 GPU: 1 _ep: 980

287_ep_norm.txtStart time  12 #Finish Time: 19 GPU: 1 _ep: 967

287_ep_norm.txtStart time  12 #Finish Time: 19 GPU: 1 _ep: 967

288_ep_norm.txtStart time  12 #Finish Time: 19 GPU: 1 _ep: 951

288_ep_norm.txtStart time  12 #Finish Time: 19 GPU: 1 _ep: 951

289_ep_norm.txtStart time  12 #Finish Time: 19 GPU: 1 _ep: 1000

289_ep_norm.txtStart time  12 #Finish Time: 19 GPU: 1 _ep: 1000

291_ep_norm.txtStart time  12 #Finish Time: 19 GPU: 1 _ep: 1000

291_ep_norm.txtStart time  12 #Finish Time: 19 GPU: 1 _ep: 1000

292_ep_norm.txtStart time  12 #Finish Time: 19 GPU: 1 _ep: 965

292_ep_norm.txtStart time  12 #Finish Time: 19 GPU: 1 _ep: 965

294_ep_norm.txtStart time  12 #Finish Time: 19 GPU: 1 _ep: 1010

294_ep_norm.txtStart time  12 #Finish Time: 19 GPU: 1 _ep: 1010

295_ep_norm.txtStart time  12 #Finish Time: 19 GPU: 1 _ep: 1019

295_ep_norm.txtStart time  12 #Finish Time: 19 GPU: 1 _ep: 1019

213_ep_norm.txtStart time  13 #Finish Time: 20 GPU: 16 _ep: 1001

213_ep_norm.txtStart time  13 #Finish Time: 20 GPU: 16 _ep: 1001

214_ep_norm.txtStart time  13 #Finish Time: 20 GPU: 16 _ep: 991

214_ep_norm.txtStart time  13 #Finish Time: 20 GPU: 16 _ep: 991

215_ep_norm.txtStart time  13 #Finish Time: 20 GPU: 16 _ep: 992

215_ep_norm.txtStart time  13 #Finish Time: 20 GPU: 16 _ep: 992

298_ep_norm.txtStart time  13 #Finish Time: 20 GPU: 1 _ep: 998

298_ep_norm.txtStart time  13 #Finish Time: 20 GPU: 1 _ep: 998

300_ep_norm.txtStart time  13 #Finish Time: 20 GPU: 1 _ep: 938

300_ep_norm.txtStart time  13 #Finish Time: 20 GPU: 1 _ep: 938

302_ep_norm.txtStart time  13 #Finish Time: 20 GPU: 1 _ep: 1012

302_ep_norm.txtStart time  13 #Finish Time: 20 GPU: 1 _ep: 1012

304_ep_norm.txtStart time  13 #Finish Time: 20 GPU: 1 _ep: 997

304_ep_norm.txtStart time  13 #Finish Time: 20 GPU: 1 _ep: 997

305_ep_norm.txtStart time  13 #Finish Time: 20 GPU: 1 _ep: 1007

305_ep_norm.txtStart time  13 #Finish Time: 20 GPU: 1 _ep: 1007

306_ep_norm.txtStart time  13 #Finish Time: 20 GPU: 1 _ep: 967

306_ep_norm.txtStart time  13 #Finish Time: 20 GPU: 1 _ep: 967

308_ep_norm.txtStart time  13 #Finish Time: 20 GPU: 1 _ep: 973

308_ep_norm.txtStart time  13 #Finish Time: 20 GPU: 1 _ep: 973

311_ep_norm.txtStart time  13 #Finish Time: 20 GPU: 1 _ep: 922

311_ep_norm.txtStart time  13 #Finish Time: 20 GPU: 1 _ep: 922

313_ep_norm.txtStart time  13 #Finish Time: 20 GPU: 1 _ep: 953

313_ep_norm.txtStart time  13 #Finish Time: 20 GPU: 1 _ep: 953

314_ep_norm.txtStart time  13 #Finish Time: 20 GPU: 1 _ep: 971

314_ep_norm.txtStart time  13 #Finish Time: 20 GPU: 1 _ep: 971

216_ep_norm.txtStart time  14 #Finish Time: 21 GPU: 16 _ep: 990

216_ep_norm.txtStart time  14 #Finish Time: 21 GPU: 16 _ep: 990

217_ep_norm.txtStart time  14 #Finish Time: 21 GPU: 16 _ep: 968

217_ep_norm.txtStart time  14 #Finish Time: 21 GPU: 16 _ep: 968

219_ep_norm.txtStart time  14 #Finish Time: 21 GPU: 16 _ep: 984

219_ep_norm.txtStart time  14 #Finish Time: 21 GPU: 16 _ep: 984

316_ep_norm.txtStart time  14 #Finish Time: 21 GPU: 1 _ep: 969

316_ep_norm.txtStart time  14 #Finish Time: 21 GPU: 1 _ep: 969

320_ep_norm.txtStart time  14 #Finish Time: 21 GPU: 1 _ep: 1016

320_ep_norm.txtStart time  14 #Finish Time: 21 GPU: 1 _ep: 1016

322_ep_norm.txtStart time  14 #Finish Time: 21 GPU: 1 _ep: 968

322_ep_norm.txtStart time  14 #Finish Time: 21 GPU: 1 _ep: 968

323_ep_norm.txtStart time  14 #Finish Time: 21 GPU: 1 _ep: 948

323_ep_norm.txtStart time  14 #Finish Time: 21 GPU: 1 _ep: 948

325_ep_norm.txtStart time  14 #Finish Time: 21 GPU: 1 _ep: 982

325_ep_norm.txtStart time  14 #Finish Time: 21 GPU: 1 _ep: 982

326_ep_norm.txtStart time  14 #Finish Time: 21 GPU: 1 _ep: 1008

326_ep_norm.txtStart time  14 #Finish Time: 21 GPU: 1 _ep: 1008

328_ep_norm.txtStart time  14 #Finish Time: 21 GPU: 1 _ep: 972

328_ep_norm.txtStart time  14 #Finish Time: 21 GPU: 1 _ep: 972

329_ep_norm.txtStart time  14 #Finish Time: 21 GPU: 1 _ep: 947

329_ep_norm.txtStart time  14 #Finish Time: 21 GPU: 1 _ep: 947

330_ep_norm.txtStart time  14 #Finish Time: 21 GPU: 1 _ep: 956

330_ep_norm.txtStart time  14 #Finish Time: 21 GPU: 1 _ep: 956

331_ep_norm.txtStart time  14 #Finish Time: 21 GPU: 1 _ep: 1047

331_ep_norm.txtStart time  14 #Finish Time: 21 GPU: 1 _ep: 1047

332_ep_norm.txtStart time  14 #Finish Time: 21 GPU: 1 _ep: 977

332_ep_norm.txtStart time  14 #Finish Time: 21 GPU: 1 _ep: 977

221_ep_norm.txtStart time  15 #Finish Time: 22 GPU: 16 _ep: 976

221_ep_norm.txtStart time  15 #Finish Time: 22 GPU: 16 _ep: 976

222_ep_norm.txtStart time  15 #Finish Time: 22 GPU: 16 _ep: 1015

222_ep_norm.txtStart time  15 #Finish Time: 22 GPU: 16 _ep: 1015

223_ep_norm.txtStart time  15 #Finish Time: 22 GPU: 16 _ep: 1004

223_ep_norm.txtStart time  15 #Finish Time: 22 GPU: 16 _ep: 1004

337_ep_norm.txtStart time  15 #Finish Time: 22 GPU: 1 _ep: 997

337_ep_norm.txtStart time  15 #Finish Time: 22 GPU: 1 _ep: 997

338_ep_norm.txtStart time  15 #Finish Time: 22 GPU: 1 _ep: 1005

338_ep_norm.txtStart time  15 #Finish Time: 22 GPU: 1 _ep: 1005

340_ep_norm.txtStart time  15 #Finish Time: 22 GPU: 1 _ep: 947

340_ep_norm.txtStart time  15 #Finish Time: 22 GPU: 1 _ep: 947

341_ep_norm.txtStart time  15 #Finish Time: 22 GPU: 1 _ep: 951

343_ep_norm.txtStart time  15 #Finish Time: 22 GPU: 1 _ep: 1032

341_ep_norm.txtStart time  15 #Finish Time: 22 GPU: 1 _ep: 951

343_ep_norm.txtStart time  15 #Finish Time: 22 GPU: 1 _ep: 1032

344_ep_norm.txtStart time  15 #Finish Time: 22 GPU: 1 _ep: 1006

344_ep_norm.txtStart time  15 #Finish Time: 22 GPU: 1 _ep: 1006

346_ep_norm.txtStart time  15 #Finish Time: 22 GPU: 1 _ep: 998

346_ep_norm.txtStart time  15 #Finish Time: 22 GPU: 1 _ep: 998

347_ep_norm.txtStart time  15 #Finish Time: 22 GPU: 1 _ep: 973

347_ep_norm.txtStart time  15 #Finish Time: 22 GPU: 1 _ep: 973

350_ep_norm.txtStart time  15 #Finish Time: 22 GPU: 1 _ep: 985

350_ep_norm.txtStart time  15 #Finish Time: 22 GPU: 1 _ep: 985

354_ep_norm.txtStart time  15 #Finish Time: 22 GPU: 1 _ep: 998

354_ep_norm.txtStart time  15 #Finish Time: 22 GPU: 1 _ep: 998

355_ep_norm.txtStart time  15 #Finish Time: 22 GPU: 1 _ep: 1006

355_ep_norm.txtStart time  15 #Finish Time: 22 GPU: 1 _ep: 1006

224_ep_norm.txtStart time  16 #Finish Time: 23 GPU: 16 _ep: 949

224_ep_norm.txtStart time  16 #Finish Time: 23 GPU: 16 _ep: 949

225_ep_norm.txtStart time  16 #Finish Time: 23 GPU: 16 _ep: 969

225_ep_norm.txtStart time  16 #Finish Time: 23 GPU: 16 _ep: 969

226_ep_norm.txtStart time  16 #Finish Time: 23 GPU: 16 _ep: 964

226_ep_norm.txtStart time  16 #Finish Time: 23 GPU: 16 _ep: 964

356_ep_norm.txtStart time  16 #Finish Time: 23 GPU: 1 _ep: 1003

356_ep_norm.txtStart time  16 #Finish Time: 23 GPU: 1 _ep: 1003

360_ep_norm.txtStart time  16 #Finish Time: 23 GPU: 1 _ep: 952

360_ep_norm.txtStart time  16 #Finish Time: 23 GPU: 1 _ep: 952

361_ep_norm.txtStart time  16 #Finish Time: 23 GPU: 1 _ep: 1003

361_ep_norm.txtStart time  16 #Finish Time: 23 GPU: 1 _ep: 1003

362_ep_norm.txtStart time  16 #Finish Time: 23 GPU: 1 _ep: 979

362_ep_norm.txtStart time  16 #Finish Time: 23 GPU: 1 _ep: 979

366_ep_norm.txtStart time  16 #Finish Time: 23 GPU: 1 _ep: 979

366_ep_norm.txtStart time  16 #Finish Time: 23 GPU: 1 _ep: 979

367_ep_norm.txtStart time  16 #Finish Time: 23 GPU: 1 _ep: 983

367_ep_norm.txtStart time  16 #Finish Time: 23 GPU: 1 _ep: 983

369_ep_norm.txtStart time  16 #Finish Time: 23 GPU: 1 _ep: 977

369_ep_norm.txtStart time  16 #Finish Time: 23 GPU: 1 _ep: 977

372_ep_norm.txtStart time  16 #Finish Time: 23 GPU: 1 _ep: 972

372_ep_norm.txtStart time  16 #Finish Time: 23 GPU: 1 _ep: 972

373_ep_norm.txtStart time  16 #Finish Time: 23 GPU: 1 _ep: 970

373_ep_norm.txtStart time  16 #Finish Time: 23 GPU: 1 _ep: 970

376_ep_norm.txtStart time  16 #Finish Time: 23 GPU: 1 _ep: 937

376_ep_norm.txtStart time  16 #Finish Time: 23 GPU: 1 _ep: 937

230_ep_norm.txtStart time  17 #Finish Time: 24 GPU: 16 _ep: 949

230_ep_norm.txtStart time  17 #Finish Time: 24 GPU: 16 _ep: 949

234_ep_norm.txtStart time  17 #Finish Time: 24 GPU: 16 _ep: 1005

234_ep_norm.txtStart time  17 #Finish Time: 24 GPU: 16 _ep: 1005

377_ep_norm.txtStart time  17 #Finish Time: 24 GPU: 1 _ep: 1013

377_ep_norm.txtStart time  17 #Finish Time: 24 GPU: 1 _ep: 1013

378_ep_norm.txtStart time  17 #Finish Time: 24 GPU: 1 _ep: 1013

378_ep_norm.txtStart time  17 #Finish Time: 24 GPU: 1 _ep: 1013

379_ep_norm.txtStart time  17 #Finish Time: 24 GPU: 1 _ep: 983

379_ep_norm.txtStart time  17 #Finish Time: 24 GPU: 1 _ep: 983

383_ep_norm.txtStart time  17 #Finish Time: 24 GPU: 1 _ep: 975

383_ep_norm.txtStart time  17 #Finish Time: 24 GPU: 1 _ep: 975

385_ep_norm.txtStart time  17 #Finish Time: 24 GPU: 1 _ep: 991

386_ep_norm.txtStart time  17 #Finish Time: 24 GPU: 1 _ep: 983

385_ep_norm.txtStart time  17 #Finish Time: 24 GPU: 1 _ep: 991

386_ep_norm.txtStart time  17 #Finish Time: 24 GPU: 1 _ep: 983

387_ep_norm.txtStart time  17 #Finish Time: 24 GPU: 1 _ep: 989

387_ep_norm.txtStart time  17 #Finish Time: 24 GPU: 1 _ep: 989

389_ep_norm.txtStart time  17 #Finish Time: 24 GPU: 1 _ep: 950

389_ep_norm.txtStart time  17 #Finish Time: 24 GPU: 1 _ep: 950

391_ep_norm.txtStart time  17 #Finish Time: 24 GPU: 1 _ep: 988

391_ep_norm.txtStart time  17 #Finish Time: 24 GPU: 1 _ep: 988

395_ep_norm.txtStart time  17 #Finish Time: 24 GPU: 1 _ep: 986

395_ep_norm.txtStart time  17 #Finish Time: 24 GPU: 1 _ep: 986

396_ep_norm.txtStart time  17 #Finish Time: 24 GPU: 1 _ep: 1003

396_ep_norm.txtStart time  17 #Finish Time: 24 GPU: 1 _ep: 1003

400_ep_norm.txtStart time  17 #Finish Time: 24 GPU: 1 _ep: 1013

400_ep_norm.txtStart time  17 #Finish Time: 24 GPU: 1 _ep: 1013

401_ep_norm.txtStart time  17 #Finish Time: 24 GPU: 1 _ep: 986

401_ep_norm.txtStart time  17 #Finish Time: 24 GPU: 1 _ep: 986

402_ep_norm.txtStart time  17 #Finish Time: 24 GPU: 1 _ep: 987

402_ep_norm.txtStart time  17 #Finish Time: 24 GPU: 1 _ep: 987

403_ep_norm.txtStart time  17 #Finish Time: 24 GPU: 1 _ep: 1016

403_ep_norm.txtStart time  17 #Finish Time: 24 GPU: 1 _ep: 1016

406_ep_norm.txtStart time  17 #Finish Time: 24 GPU: 1 _ep: 928

406_ep_norm.txtStart time  17 #Finish Time: 24 GPU: 1 _ep: 928

407_ep_norm.txtStart time  17 #Finish Time: 24 GPU: 1 _ep: 957

407_ep_norm.txtStart time  17 #Finish Time: 24 GPU: 1 _ep: 957

408_ep_norm.txtStart time  17 #Finish Time: 24 GPU: 1 _ep: 985

408_ep_norm.txtStart time  17 #Finish Time: 24 GPU: 1 _ep: 985

409_ep_norm.txtStart time  17 #Finish Time: 24 GPU: 1 _ep: 921

409_ep_norm.txtStart time  17 #Finish Time: 24 GPU: 1 _ep: 921

410_ep_norm.txtStart time  17 #Finish Time: 24 GPU: 1 _ep: 979

410_ep_norm.txtStart time  17 #Finish Time: 24 GPU: 1 _ep: 979

412_ep_norm.txtStart time  17 #Finish Time: 24 GPU: 1 _ep: 998

412_ep_norm.txtStart time  17 #Finish Time: 24 GPU: 1 _ep: 998

413_ep_norm.txtStart time  17 #Finish Time: 24 GPU: 1 _ep: 967

413_ep_norm.txtStart time  17 #Finish Time: 24 GPU: 1 _ep: 967

415_ep_norm.txtStart time  17 #Finish Time: 24 GPU: 1 _ep: 941

415_ep_norm.txtStart time  17 #Finish Time: 24 GPU: 1 _ep: 941

417_ep_norm.txtStart time  17 #Finish Time: 24 GPU: 1 _ep: 991

417_ep_norm.txtStart time  17 #Finish Time: 24 GPU: 1 _ep: 991

419_ep_norm.txtStart time  17 #Finish Time: 24 GPU: 1 _ep: 997

419_ep_norm.txtStart time  17 #Finish Time: 24 GPU: 1 _ep: 997

421_ep_norm.txtStart time  17 #Finish Time: 24 GPU: 1 _ep: 994

421_ep_norm.txtStart time  17 #Finish Time: 24 GPU: 1 _ep: 994

423_ep_norm.txtStart time  17 #Finish Time: 24 GPU: 1 _ep: 1008

423_ep_norm.txtStart time  17 #Finish Time: 24 GPU: 1 _ep: 1008

236_ep_norm.txtStart time  18 #Finish Time: 25 GPU: 32 _ep: 914

236_ep_norm.txtStart time  18 #Finish Time: 25 GPU: 32 _ep: 914

425_ep_norm.txtStart time  18 #Finish Time: 25 GPU: 1 _ep: 1004

425_ep_norm.txtStart time  18 #Finish Time: 25 GPU: 1 _ep: 1004

426_ep_norm.txtStart time  18 #Finish Time: 25 GPU: 1 _ep: 988

426_ep_norm.txtStart time  18 #Finish Time: 25 GPU: 1 _ep: 988

427_ep_norm.txtStart time  18 #Finish Time: 25 GPU: 1 _ep: 1017

427_ep_norm.txtStart time  18 #Finish Time: 25 GPU: 1 _ep: 1017

428_ep_norm.txtStart time  18 #Finish Time: 25 GPU: 1 _ep: 997

428_ep_norm.txtStart time  18 #Finish Time: 25 GPU: 1 _ep: 997

429_ep_norm.txtStart time  18 #Finish Time: 25 GPU: 1 _ep: 973

429_ep_norm.txtStart time  18 #Finish Time: 25 GPU: 1 _ep: 973

430_ep_norm.txtStart time  18 #Finish Time: 25 GPU: 1 _ep: 995

430_ep_norm.txtStart time  18 #Finish Time: 25 GPU: 1 _ep: 995

431_ep_norm.txtStart time  18 #Finish Time: 25 GPU: 1 _ep: 966

431_ep_norm.txtStart time  18 #Finish Time: 25 GPU: 1 _ep: 966

433_ep_norm.txtStart time  18 #Finish Time: 25 GPU: 1 _ep: 952

433_ep_norm.txtStart time  18 #Finish Time: 25 GPU: 1 _ep: 952

437_ep_norm.txtStart time  18 #Finish Time: 25 GPU: 1 _ep: 958

437_ep_norm.txtStart time  18 #Finish Time: 25 GPU: 1 _ep: 958

438_ep_norm.txtStart time  18 #Finish Time: 25 GPU: 1 _ep: 974

438_ep_norm.txtStart time  18 #Finish Time: 25 GPU: 1 _ep: 974

439_ep_norm.txtStart time  18 #Finish Time: 25 GPU: 1 _ep: 994

439_ep_norm.txtStart time  18 #Finish Time: 25 GPU: 1 _ep: 994

440_ep_norm.txtStart time  18 #Finish Time: 25 GPU: 1 _ep: 982

440_ep_norm.txtStart time  18 #Finish Time: 25 GPU: 1 _ep: 982

441_ep_norm.txtStart time  18 #Finish Time: 25 GPU: 1 _ep: 989

441_ep_norm.txtStart time  18 #Finish Time: 25 GPU: 1 _ep: 989

449_ep_norm.txtStart time  18 #Finish Time: 25 GPU: 1 _ep: 1002

449_ep_norm.txtStart time  18 #Finish Time: 25 GPU: 1 _ep: 1002

451_ep_norm.txtStart time  18 #Finish Time: 25 GPU: 1 _ep: 995

451_ep_norm.txtStart time  18 #Finish Time: 25 GPU: 1 _ep: 995

452_ep_norm.txtStart time  18 #Finish Time: 25 GPU: 1 _ep: 941

452_ep_norm.txtStart time  18 #Finish Time: 25 GPU: 1 _ep: 941

453_ep_norm.txtStart time  18 #Finish Time: 25 GPU: 1 _ep: 1009

453_ep_norm.txtStart time  18 #Finish Time: 25 GPU: 1 _ep: 1009

454_ep_norm.txtStart time  18 #Finish Time: 25 GPU: 1 _ep: 1014

454_ep_norm.txtStart time  18 #Finish Time: 25 GPU: 1 _ep: 1014

457_ep_norm.txtStart time  18 #Finish Time: 25 GPU: 1 _ep: 946

457_ep_norm.txtStart time  18 #Finish Time: 25 GPU: 1 _ep: 946

460_ep_norm.txtStart time  18 #Finish Time: 25 GPU: 1 _ep: 980

460_ep_norm.txtStart time  18 #Finish Time: 25 GPU: 1 _ep: 980

463_ep_norm.txtStart time  18 #Finish Time: 25 GPU: 1 _ep: 970

463_ep_norm.txtStart time  18 #Finish Time: 25 GPU: 1 _ep: 970

465_ep_norm.txtStart time  18 #Finish Time: 25 GPU: 1 _ep: 972

465_ep_norm.txtStart time  18 #Finish Time: 25 GPU: 1 _ep: 972

467_ep_norm.txtStart time  18 #Finish Time: 25 GPU: 1 _ep: 1000

467_ep_norm.txtStart time  18 #Finish Time: 25 GPU: 1 _ep: 1000

469_ep_norm.txtStart time  18 #Finish Time: 25 GPU: 1 _ep: 956

469_ep_norm.txtStart time  18 #Finish Time: 25 GPU: 1 _ep: 956

470_ep_norm.txtStart time  18 #Finish Time: 25 GPU: 1 _ep: 981

470_ep_norm.txtStart time  18 #Finish Time: 25 GPU: 1 _ep: 981

472_ep_norm.txtStart time  18 #Finish Time: 25 GPU: 1 _ep: 1007

472_ep_norm.txtStart time  18 #Finish Time: 25 GPU: 1 _ep: 1007

238_ep_norm.txtStart time  19 #Finish Time: 26 GPU: 32 _ep: 977

238_ep_norm.txtStart time  19 #Finish Time: 26 GPU: 32 _ep: 977

473_ep_norm.txtStart time  19 #Finish Time: 26 GPU: 1 _ep: 994

473_ep_norm.txtStart time  19 #Finish Time: 26 GPU: 1 _ep: 994

474_ep_norm.txtStart time  19 #Finish Time: 26 GPU: 1 _ep: 980

474_ep_norm.txtStart time  19 #Finish Time: 26 GPU: 1 _ep: 980

477_ep_norm.txtStart time  19 #Finish Time: 26 GPU: 1 _ep: 1017

477_ep_norm.txtStart time  19 #Finish Time: 26 GPU: 1 _ep: 1017

479_ep_norm.txtStart time  19 #Finish Time: 26 GPU: 1 _ep: 951

479_ep_norm.txtStart time  19 #Finish Time: 26 GPU: 1 _ep: 951

3_ep_norm.txtStart time  19 #Finish Time: 27 GPU: 2 _ep: 1024

3_ep_norm.txtStart time  19 #Finish Time: 27 GPU: 2 _ep: 1024

6_ep_norm.txtStart time  19 #Finish Time: 27 GPU: 2 _ep: 986

6_ep_norm.txtStart time  19 #Finish Time: 27 GPU: 2 _ep: 986

7_ep_norm.txtStart time  19 #Finish Time: 27 GPU: 2 _ep: 1034

7_ep_norm.txtStart time  19 #Finish Time: 27 GPU: 2 _ep: 1034

8_ep_norm.txtStart time  19 #Finish Time: 27 GPU: 2 _ep: 980

8_ep_norm.txtStart time  19 #Finish Time: 27 GPU: 2 _ep: 980

10_ep_norm.txtStart time  19 #Finish Time: 27 GPU: 2 _ep: 1069

10_ep_norm.txtStart time  19 #Finish Time: 27 GPU: 2 _ep: 1069

12_ep_norm.txtStart time  19 #Finish Time: 27 GPU: 2 _ep: 1001

12_ep_norm.txtStart time  19 #Finish Time: 27 GPU: 2 _ep: 1001

13_ep_norm.txtStart time  19 #Finish Time: 27 GPU: 2 _ep: 1039

13_ep_norm.txtStart time  19 #Finish Time: 27 GPU: 2 _ep: 1039

16_ep_norm.txtStart time  19 #Finish Time: 27 GPU: 2 _ep: 1035

16_ep_norm.txtStart time  19 #Finish Time: 27 GPU: 2 _ep: 1035

17_ep_norm.txtStart time  19 #Finish Time: 27 GPU: 2 _ep: 1029

17_ep_norm.txtStart time  19 #Finish Time: 27 GPU: 2 _ep: 1029

20_ep_norm.txtStart time  19 #Finish Time: 27 GPU: 2 _ep: 1002

20_ep_norm.txtStart time  19 #Finish Time: 27 GPU: 2 _ep: 1002

21_ep_norm.txtStart time  19 #Finish Time: 27 GPU: 2 _ep: 1004

21_ep_norm.txtStart time  19 #Finish Time: 27 GPU: 2 _ep: 1004

239_ep_norm.txtStart time  20 #Finish Time: 27 GPU: 32 _ep: 980

239_ep_norm.txtStart time  20 #Finish Time: 27 GPU: 32 _ep: 980

23_ep_norm.txtStart time  20 #Finish Time: 28 GPU: 2 _ep: 1042

23_ep_norm.txtStart time  20 #Finish Time: 28 GPU: 2 _ep: 1042

25_ep_norm.txtStart time  20 #Finish Time: 28 GPU: 2 _ep: 994

25_ep_norm.txtStart time  20 #Finish Time: 28 GPU: 2 _ep: 994

26_ep_norm.txtStart time  20 #Finish Time: 28 GPU: 2 _ep: 995

26_ep_norm.txtStart time  20 #Finish Time: 28 GPU: 2 _ep: 995

27_ep_norm.txtStart time  20 #Finish Time: 28 GPU: 2 _ep: 1033

27_ep_norm.txtStart time  20 #Finish Time: 28 GPU: 2 _ep: 1033

29_ep_norm.txtStart time  20 #Finish Time: 28 GPU: 2 _ep: 1072

29_ep_norm.txtStart time  20 #Finish Time: 28 GPU: 2 _ep: 1072

30_ep_norm.txtStart time  20 #Finish Time: 28 GPU: 2 _ep: 989

30_ep_norm.txtStart time  20 #Finish Time: 28 GPU: 2 _ep: 989

31_ep_norm.txtStart time  20 #Finish Time: 28 GPU: 2 _ep: 1003

31_ep_norm.txtStart time  20 #Finish Time: 28 GPU: 2 _ep: 1003

34_ep_norm.txtStart time  20 #Finish Time: 28 GPU: 2 _ep: 1035

34_ep_norm.txtStart time  20 #Finish Time: 28 GPU: 2 _ep: 1035

35_ep_norm.txtStart time  20 #Finish Time: 28 GPU: 2 _ep: 1029

35_ep_norm.txtStart time  20 #Finish Time: 28 GPU: 2 _ep: 1029

40_ep_norm.txtStart time  20 #Finish Time: 28 GPU: 3 _ep: 1045

40_ep_norm.txtStart time  20 #Finish Time: 28 GPU: 3 _ep: 1045

44_ep_norm.txtStart time  20 #Finish Time: 28 GPU: 3 _ep: 992

44_ep_norm.txtStart time  20 #Finish Time: 28 GPU: 3 _ep: 992

240_ep_norm.txtStart time  20 #Finish Time: 28 GPU: 1 _ep: 1047

240_ep_norm.txtStart time  20 #Finish Time: 28 GPU: 1 _ep: 1047

242_ep_norm.txtStart time  20 #Finish Time: 28 GPU: 1 _ep: 1016

242_ep_norm.txtStart time  20 #Finish Time: 28 GPU: 1 _ep: 1016

49_ep_norm.txtStart time  21 #Finish Time: 29 GPU: 3 _ep: 1000

49_ep_norm.txtStart time  21 #Finish Time: 29 GPU: 3 _ep: 1000

51_ep_norm.txtStart time  21 #Finish Time: 29 GPU: 3 _ep: 1004

51_ep_norm.txtStart time  21 #Finish Time: 29 GPU: 3 _ep: 1004

55_ep_norm.txtStart time  21 #Finish Time: 29 GPU: 3 _ep: 1007

55_ep_norm.txtStart time  21 #Finish Time: 29 GPU: 3 _ep: 1007

56_ep_norm.txtStart time  21 #Finish Time: 29 GPU: 3 _ep: 1002

56_ep_norm.txtStart time  21 #Finish Time: 29 GPU: 3 _ep: 1002

57_ep_norm.txtStart time  21 #Finish Time: 29 GPU: 3 _ep: 1051

57_ep_norm.txtStart time  21 #Finish Time: 29 GPU: 3 _ep: 1051

58_ep_norm.txtStart time  21 #Finish Time: 29 GPU: 3 _ep: 1017

58_ep_norm.txtStart time  21 #Finish Time: 29 GPU: 3 _ep: 1017

60_ep_norm.txtStart time  21 #Finish Time: 29 GPU: 4 _ep: 1023

60_ep_norm.txtStart time  21 #Finish Time: 29 GPU: 4 _ep: 1023

63_ep_norm.txtStart time  21 #Finish Time: 29 GPU: 4 _ep: 1020

63_ep_norm.txtStart time  21 #Finish Time: 29 GPU: 4 _ep: 1020

65_ep_norm.txtStart time  21 #Finish Time: 29 GPU: 4 _ep: 1022

65_ep_norm.txtStart time  21 #Finish Time: 29 GPU: 4 _ep: 1022

66_ep_norm.txtStart time  21 #Finish Time: 29 GPU: 4 _ep: 999

66_ep_norm.txtStart time  21 #Finish Time: 29 GPU: 4 _ep: 999

69_ep_norm.txtStart time  21 #Finish Time: 29 GPU: 4 _ep: 1050

69_ep_norm.txtStart time  21 #Finish Time: 29 GPU: 4 _ep: 1050

71_ep_norm.txtStart time  21 #Finish Time: 29 GPU: 4 _ep: 1039

71_ep_norm.txtStart time  21 #Finish Time: 29 GPU: 4 _ep: 1039

74_ep_norm.txtStart time  21 #Finish Time: 29 GPU: 4 _ep: 1054

74_ep_norm.txtStart time  21 #Finish Time: 29 GPU: 4 _ep: 1054

75_ep_norm.txtStart time  21 #Finish Time: 29 GPU: 4 _ep: 1012

75_ep_norm.txtStart time  21 #Finish Time: 29 GPU: 4 _ep: 1012

78_ep_norm.txtStart time  21 #Finish Time: 29 GPU: 4 _ep: 1024

78_ep_norm.txtStart time  21 #Finish Time: 29 GPU: 4 _ep: 1024

83_ep_norm.txtStart time  21 #Finish Time: 29 GPU: 4 _ep: 995

83_ep_norm.txtStart time  21 #Finish Time: 29 GPU: 4 _ep: 995

243_ep_norm.txtStart time  21 #Finish Time: 29 GPU: 1 _ep: 999

243_ep_norm.txtStart time  21 #Finish Time: 29 GPU: 1 _ep: 999

84_ep_norm.txtStart time  22 #Finish Time: 30 GPU: 4 _ep: 998

84_ep_norm.txtStart time  22 #Finish Time: 30 GPU: 4 _ep: 998

87_ep_norm.txtStart time  22 #Finish Time: 30 GPU: 4 _ep: 1083

87_ep_norm.txtStart time  22 #Finish Time: 30 GPU: 4 _ep: 1083

90_ep_norm.txtStart time  22 #Finish Time: 30 GPU: 4 _ep: 1015

90_ep_norm.txtStart time  22 #Finish Time: 30 GPU: 4 _ep: 1015

92_ep_norm.txtStart time  22 #Finish Time: 30 GPU: 4 _ep: 1034

92_ep_norm.txtStart time  22 #Finish Time: 30 GPU: 4 _ep: 1034

93_ep_norm.txtStart time  22 #Finish Time: 30 GPU: 4 _ep: 992

93_ep_norm.txtStart time  22 #Finish Time: 30 GPU: 4 _ep: 992

100_ep_norm.txtStart time  22 #Finish Time: 30 GPU: 4 _ep: 1009

100_ep_norm.txtStart time  22 #Finish Time: 30 GPU: 4 _ep: 1009

101_ep_norm.txtStart time  22 #Finish Time: 30 GPU: 4 _ep: 996

101_ep_norm.txtStart time  22 #Finish Time: 30 GPU: 4 _ep: 996

102_ep_norm.txtStart time  22 #Finish Time: 30 GPU: 4 _ep: 1013

102_ep_norm.txtStart time  22 #Finish Time: 30 GPU: 4 _ep: 1013

103_ep_norm.txtStart time  22 #Finish Time: 30 GPU: 4 _ep: 1021

103_ep_norm.txtStart time  22 #Finish Time: 30 GPU: 4 _ep: 1021

106_ep_norm.txtStart time  22 #Finish Time: 30 GPU: 4 _ep: 1012

106_ep_norm.txtStart time  22 #Finish Time: 30 GPU: 4 _ep: 1012

107_ep_norm.txtStart time  22 #Finish Time: 30 GPU: 4 _ep: 982

107_ep_norm.txtStart time  22 #Finish Time: 30 GPU: 4 _ep: 982

110_ep_norm.txtStart time  22 #Finish Time: 30 GPU: 4 _ep: 1012

110_ep_norm.txtStart time  22 #Finish Time: 30 GPU: 4 _ep: 1012

112_ep_norm.txtStart time  22 #Finish Time: 30 GPU: 4 _ep: 1032

112_ep_norm.txtStart time  22 #Finish Time: 30 GPU: 4 _ep: 1032

113_ep_norm.txtStart time  22 #Finish Time: 30 GPU: 4 _ep: 1022

113_ep_norm.txtStart time  22 #Finish Time: 30 GPU: 4 _ep: 1022

244_ep_norm.txtStart time  22 #Finish Time: 30 GPU: 1 _ep: 1023

244_ep_norm.txtStart time  22 #Finish Time: 30 GPU: 1 _ep: 1023

245_ep_norm.txtStart time  22 #Finish Time: 30 GPU: 1 _ep: 1026

245_ep_norm.txtStart time  22 #Finish Time: 30 GPU: 1 _ep: 1026

248_ep_norm.txtStart time  22 #Finish Time: 30 GPU: 1 _ep: 1032

248_ep_norm.txtStart time  22 #Finish Time: 30 GPU: 1 _ep: 1032

114_ep_norm.txtStart time  23 #Finish Time: 31 GPU: 4 _ep: 1051

114_ep_norm.txtStart time  23 #Finish Time: 31 GPU: 4 _ep: 1051

115_ep_norm.txtStart time  23 #Finish Time: 31 GPU: 4 _ep: 1049

115_ep_norm.txtStart time  23 #Finish Time: 31 GPU: 4 _ep: 1049

116_ep_norm.txtStart time  23 #Finish Time: 31 GPU: 4 _ep: 1035

116_ep_norm.txtStart time  23 #Finish Time: 31 GPU: 4 _ep: 1035

117_ep_norm.txtStart time  23 #Finish Time: 31 GPU: 4 _ep: 1032

117_ep_norm.txtStart time  23 #Finish Time: 31 GPU: 4 _ep: 1032

120_ep_norm.txtStart time  23 #Finish Time: 31 GPU: 8 _ep: 1020

120_ep_norm.txtStart time  23 #Finish Time: 31 GPU: 8 _ep: 1020

121_ep_norm.txtStart time  23 #Finish Time: 31 GPU: 8 _ep: 1017

121_ep_norm.txtStart time  23 #Finish Time: 31 GPU: 8 _ep: 1017

126_ep_norm.txtStart time  23 #Finish Time: 31 GPU: 8 _ep: 1022

126_ep_norm.txtStart time  23 #Finish Time: 31 GPU: 8 _ep: 1022

128_ep_norm.txtStart time  23 #Finish Time: 31 GPU: 8 _ep: 989

128_ep_norm.txtStart time  23 #Finish Time: 31 GPU: 8 _ep: 989

129_ep_norm.txtStart time  23 #Finish Time: 31 GPU: 8 _ep: 1043

129_ep_norm.txtStart time  23 #Finish Time: 31 GPU: 8 _ep: 1043

249_ep_norm.txtStart time  23 #Finish Time: 31 GPU: 1 _ep: 1017

249_ep_norm.txtStart time  23 #Finish Time: 31 GPU: 1 _ep: 1017

250_ep_norm.txtStart time  23 #Finish Time: 31 GPU: 1 _ep: 1005

250_ep_norm.txtStart time  23 #Finish Time: 31 GPU: 1 _ep: 1005

251_ep_norm.txtStart time  23 #Finish Time: 31 GPU: 1 _ep: 1032

251_ep_norm.txtStart time  23 #Finish Time: 31 GPU: 1 _ep: 1032

131_ep_norm.txtStart time  24 #Finish Time: 32 GPU: 8 _ep: 992

131_ep_norm.txtStart time  24 #Finish Time: 32 GPU: 8 _ep: 992

132_ep_norm.txtStart time  24 #Finish Time: 32 GPU: 8 _ep: 1015

132_ep_norm.txtStart time  24 #Finish Time: 32 GPU: 8 _ep: 1015

134_ep_norm.txtStart time  24 #Finish Time: 32 GPU: 8 _ep: 1010

134_ep_norm.txtStart time  24 #Finish Time: 32 GPU: 8 _ep: 1010

135_ep_norm.txtStart time  24 #Finish Time: 32 GPU: 8 _ep: 982

135_ep_norm.txtStart time  24 #Finish Time: 32 GPU: 8 _ep: 982

136_ep_norm.txtStart time  24 #Finish Time: 32 GPU: 8 _ep: 1007

136_ep_norm.txtStart time  24 #Finish Time: 32 GPU: 8 _ep: 1007

139_ep_norm.txtStart time  24 #Finish Time: 32 GPU: 8 _ep: 1042

139_ep_norm.txtStart time  24 #Finish Time: 32 GPU: 8 _ep: 1042

140_ep_norm.txtStart time  24 #Finish Time: 32 GPU: 8 _ep: 1011

140_ep_norm.txtStart time  24 #Finish Time: 32 GPU: 8 _ep: 1011

252_ep_norm.txtStart time  24 #Finish Time: 32 GPU: 1 _ep: 1037

252_ep_norm.txtStart time  24 #Finish Time: 32 GPU: 1 _ep: 1037

254_ep_norm.txtStart time  24 #Finish Time: 32 GPU: 1 _ep: 1010

254_ep_norm.txtStart time  24 #Finish Time: 32 GPU: 1 _ep: 1010

256_ep_norm.txtStart time  24 #Finish Time: 32 GPU: 1 _ep: 1038

256_ep_norm.txtStart time  24 #Finish Time: 32 GPU: 1 _ep: 1038

141_ep_norm.txtStart time  25 #Finish Time: 33 GPU: 8 _ep: 1009

141_ep_norm.txtStart time  25 #Finish Time: 33 GPU: 8 _ep: 1009

142_ep_norm.txtStart time  25 #Finish Time: 33 GPU: 8 _ep: 1029

142_ep_norm.txtStart time  25 #Finish Time: 33 GPU: 8 _ep: 1029

145_ep_norm.txtStart time  25 #Finish Time: 33 GPU: 8 _ep: 1052

145_ep_norm.txtStart time  25 #Finish Time: 33 GPU: 8 _ep: 1052

152_ep_norm.txtStart time  25 #Finish Time: 33 GPU: 8 _ep: 1034

152_ep_norm.txtStart time  25 #Finish Time: 33 GPU: 8 _ep: 1034

153_ep_norm.txtStart time  25 #Finish Time: 33 GPU: 8 _ep: 1038

153_ep_norm.txtStart time  25 #Finish Time: 33 GPU: 8 _ep: 1038

154_ep_norm.txtStart time  25 #Finish Time: 33 GPU: 8 _ep: 1031

154_ep_norm.txtStart time  25 #Finish Time: 33 GPU: 8 _ep: 1031

156_ep_norm.txtStart time  25 #Finish Time: 33 GPU: 8 _ep: 1026

156_ep_norm.txtStart time  25 #Finish Time: 33 GPU: 8 _ep: 1026

261_ep_norm.txtStart time  25 #Finish Time: 33 GPU: 1 _ep: 987

261_ep_norm.txtStart time  25 #Finish Time: 33 GPU: 1 _ep: 987

264_ep_norm.txtStart time  25 #Finish Time: 33 GPU: 1 _ep: 1020

264_ep_norm.txtStart time  25 #Finish Time: 33 GPU: 1 _ep: 1020

266_ep_norm.txtStart time  25 #Finish Time: 33 GPU: 1 _ep: 1032

266_ep_norm.txtStart time  25 #Finish Time: 33 GPU: 1 _ep: 1032

159_ep_norm.txtStart time  26 #Finish Time: 34 GPU: 8 _ep: 1011

159_ep_norm.txtStart time  26 #Finish Time: 34 GPU: 8 _ep: 1011

160_ep_norm.txtStart time  26 #Finish Time: 34 GPU: 8 _ep: 1029

160_ep_norm.txtStart time  26 #Finish Time: 34 GPU: 8 _ep: 1029

162_ep_norm.txtStart time  26 #Finish Time: 34 GPU: 8 _ep: 1041

162_ep_norm.txtStart time  26 #Finish Time: 34 GPU: 8 _ep: 1041

163_ep_norm.txtStart time  26 #Finish Time: 34 GPU: 8 _ep: 1031

163_ep_norm.txtStart time  26 #Finish Time: 34 GPU: 8 _ep: 1031

164_ep_norm.txtStart time  26 #Finish Time: 34 GPU: 8 _ep: 986

164_ep_norm.txtStart time  26 #Finish Time: 34 GPU: 8 _ep: 986

166_ep_norm.txtStart time  26 #Finish Time: 34 GPU: 8 _ep: 1014

166_ep_norm.txtStart time  26 #Finish Time: 34 GPU: 8 _ep: 1014

167_ep_norm.txtStart time  26 #Finish Time: 34 GPU: 8 _ep: 972

167_ep_norm.txtStart time  26 #Finish Time: 34 GPU: 8 _ep: 972

267_ep_norm.txtStart time  26 #Finish Time: 34 GPU: 1 _ep: 1040

267_ep_norm.txtStart time  26 #Finish Time: 34 GPU: 1 _ep: 1040

269_ep_norm.txtStart time  26 #Finish Time: 34 GPU: 1 _ep: 1035

269_ep_norm.txtStart time  26 #Finish Time: 34 GPU: 1 _ep: 1035

271_ep_norm.txtStart time  26 #Finish Time: 34 GPU: 1 _ep: 1016

271_ep_norm.txtStart time  26 #Finish Time: 34 GPU: 1 _ep: 1016

168_ep_norm.txtStart time  27 #Finish Time: 35 GPU: 8 _ep: 1032

168_ep_norm.txtStart time  27 #Finish Time: 35 GPU: 8 _ep: 1032

172_ep_norm.txtStart time  27 #Finish Time: 35 GPU: 8 _ep: 1007

172_ep_norm.txtStart time  27 #Finish Time: 35 GPU: 8 _ep: 1007

174_ep_norm.txtStart time  27 #Finish Time: 35 GPU: 8 _ep: 1025

174_ep_norm.txtStart time  27 #Finish Time: 35 GPU: 8 _ep: 1025

176_ep_norm.txtStart time  27 #Finish Time: 35 GPU: 8 _ep: 1036

176_ep_norm.txtStart time  27 #Finish Time: 35 GPU: 8 _ep: 1036

180_ep_norm.txtStart time  27 #Finish Time: 35 GPU: 8 _ep: 993

180_ep_norm.txtStart time  27 #Finish Time: 35 GPU: 8 _ep: 993

183_ep_norm.txtStart time  27 #Finish Time: 35 GPU: 8 _ep: 1043

183_ep_norm.txtStart time  27 #Finish Time: 35 GPU: 8 _ep: 1043

184_ep_norm.txtStart time  27 #Finish Time: 35 GPU: 8 _ep: 992

184_ep_norm.txtStart time  27 #Finish Time: 35 GPU: 8 _ep: 992

273_ep_norm.txtStart time  27 #Finish Time: 35 GPU: 1 _ep: 1041

273_ep_norm.txtStart time  27 #Finish Time: 35 GPU: 1 _ep: 1041

274_ep_norm.txtStart time  27 #Finish Time: 35 GPU: 1 _ep: 1011

274_ep_norm.txtStart time  27 #Finish Time: 35 GPU: 1 _ep: 1011

276_ep_norm.txtStart time  27 #Finish Time: 35 GPU: 1 _ep: 1002

276_ep_norm.txtStart time  27 #Finish Time: 35 GPU: 1 _ep: 1002

189_ep_norm.txtStart time  28 #Finish Time: 36 GPU: 8 _ep: 1009

189_ep_norm.txtStart time  28 #Finish Time: 36 GPU: 8 _ep: 1009

191_ep_norm.txtStart time  28 #Finish Time: 36 GPU: 8 _ep: 1022

191_ep_norm.txtStart time  28 #Finish Time: 36 GPU: 8 _ep: 1022

192_ep_norm.txtStart time  28 #Finish Time: 36 GPU: 8 _ep: 1000

192_ep_norm.txtStart time  28 #Finish Time: 36 GPU: 8 _ep: 1000

193_ep_norm.txtStart time  28 #Finish Time: 36 GPU: 8 _ep: 1034

193_ep_norm.txtStart time  28 #Finish Time: 36 GPU: 8 _ep: 1034

200_ep_norm.txtStart time  28 #Finish Time: 36 GPU: 8 _ep: 1000

200_ep_norm.txtStart time  28 #Finish Time: 36 GPU: 8 _ep: 1000

201_ep_norm.txtStart time  28 #Finish Time: 36 GPU: 8 _ep: 1021

201_ep_norm.txtStart time  28 #Finish Time: 36 GPU: 8 _ep: 1021

202_ep_norm.txtStart time  28 #Finish Time: 36 GPU: 8 _ep: 999

202_ep_norm.txtStart time  28 #Finish Time: 36 GPU: 8 _ep: 999

278_ep_norm.txtStart time  28 #Finish Time: 36 GPU: 1 _ep: 1030

278_ep_norm.txtStart time  28 #Finish Time: 36 GPU: 1 _ep: 1030

279_ep_norm.txtStart time  28 #Finish Time: 36 GPU: 1 _ep: 1003

279_ep_norm.txtStart time  28 #Finish Time: 36 GPU: 1 _ep: 1003

281_ep_norm.txtStart time  28 #Finish Time: 36 GPU: 1 _ep: 1038

281_ep_norm.txtStart time  28 #Finish Time: 36 GPU: 1 _ep: 1038

204_ep_norm.txtStart time  29 #Finish Time: 37 GPU: 8 _ep: 1006

204_ep_norm.txtStart time  29 #Finish Time: 37 GPU: 8 _ep: 1006

206_ep_norm.txtStart time  29 #Finish Time: 37 GPU: 8 _ep: 1040

206_ep_norm.txtStart time  29 #Finish Time: 37 GPU: 8 _ep: 1040

207_ep_norm.txtStart time  29 #Finish Time: 37 GPU: 8 _ep: 1024

207_ep_norm.txtStart time  29 #Finish Time: 37 GPU: 8 _ep: 1024

208_ep_norm.txtStart time  29 #Finish Time: 37 GPU: 8 _ep: 1036

208_ep_norm.txtStart time  29 #Finish Time: 37 GPU: 8 _ep: 1036

210_ep_norm.txtStart time  29 #Finish Time: 37 GPU: 16 _ep: 1016

210_ep_norm.txtStart time  29 #Finish Time: 37 GPU: 16 _ep: 1016

284_ep_norm.txtStart time  29 #Finish Time: 37 GPU: 1 _ep: 1053

284_ep_norm.txtStart time  29 #Finish Time: 37 GPU: 1 _ep: 1053

285_ep_norm.txtStart time  29 #Finish Time: 37 GPU: 1 _ep: 1007

285_ep_norm.txtStart time  29 #Finish Time: 37 GPU: 1 _ep: 1007

290_ep_norm.txtStart time  29 #Finish Time: 37 GPU: 1 _ep: 1014

290_ep_norm.txtStart time  29 #Finish Time: 37 GPU: 1 _ep: 1014

293_ep_norm.txtStart time  29 #Finish Time: 37 GPU: 1 _ep: 1017

293_ep_norm.txtStart time  29 #Finish Time: 37 GPU: 1 _ep: 1017

296_ep_norm.txtStart time  29 #Finish Time: 37 GPU: 1 _ep: 1009

296_ep_norm.txtStart time  29 #Finish Time: 37 GPU: 1 _ep: 1009

297_ep_norm.txtStart time  29 #Finish Time: 37 GPU: 1 _ep: 1026

297_ep_norm.txtStart time  29 #Finish Time: 37 GPU: 1 _ep: 1026

299_ep_norm.txtStart time  29 #Finish Time: 37 GPU: 1 _ep: 1023

299_ep_norm.txtStart time  29 #Finish Time: 37 GPU: 1 _ep: 1023

301_ep_norm.txtStart time  29 #Finish Time: 37 GPU: 1 _ep: 1007

301_ep_norm.txtStart time  29 #Finish Time: 37 GPU: 1 _ep: 1007

303_ep_norm.txtStart time  29 #Finish Time: 37 GPU: 1 _ep: 996

303_ep_norm.txtStart time  29 #Finish Time: 37 GPU: 1 _ep: 996

307_ep_norm.txtStart time  29 #Finish Time: 37 GPU: 1 _ep: 1016

307_ep_norm.txtStart time  29 #Finish Time: 37 GPU: 1 _ep: 1016

309_ep_norm.txtStart time  29 #Finish Time: 37 GPU: 1 _ep: 1017

309_ep_norm.txtStart time  29 #Finish Time: 37 GPU: 1 _ep: 1017

218_ep_norm.txtStart time  30 #Finish Time: 38 GPU: 16 _ep: 1022

218_ep_norm.txtStart time  30 #Finish Time: 38 GPU: 16 _ep: 1022

220_ep_norm.txtStart time  30 #Finish Time: 38 GPU: 16 _ep: 1006

220_ep_norm.txtStart time  30 #Finish Time: 38 GPU: 16 _ep: 1006

227_ep_norm.txtStart time  30 #Finish Time: 38 GPU: 16 _ep: 1012

227_ep_norm.txtStart time  30 #Finish Time: 38 GPU: 16 _ep: 1012

310_ep_norm.txtStart time  30 #Finish Time: 38 GPU: 1 _ep: 1050

310_ep_norm.txtStart time  30 #Finish Time: 38 GPU: 1 _ep: 1050

312_ep_norm.txtStart time  30 #Finish Time: 38 GPU: 1 _ep: 1022

312_ep_norm.txtStart time  30 #Finish Time: 38 GPU: 1 _ep: 1022

315_ep_norm.txtStart time  30 #Finish Time: 38 GPU: 1 _ep: 1022

315_ep_norm.txtStart time  30 #Finish Time: 38 GPU: 1 _ep: 1022

317_ep_norm.txtStart time  30 #Finish Time: 38 GPU: 1 _ep: 985

317_ep_norm.txtStart time  30 #Finish Time: 38 GPU: 1 _ep: 985

318_ep_norm.txtStart time  30 #Finish Time: 38 GPU: 1 _ep: 962

318_ep_norm.txtStart time  30 #Finish Time: 38 GPU: 1 _ep: 962

319_ep_norm.txtStart time  30 #Finish Time: 38 GPU: 1 _ep: 1050

319_ep_norm.txtStart time  30 #Finish Time: 38 GPU: 1 _ep: 1050

321_ep_norm.txtStart time  30 #Finish Time: 38 GPU: 1 _ep: 1004

321_ep_norm.txtStart time  30 #Finish Time: 38 GPU: 1 _ep: 1004

324_ep_norm.txtStart time  30 #Finish Time: 38 GPU: 1 _ep: 1027

324_ep_norm.txtStart time  30 #Finish Time: 38 GPU: 1 _ep: 1027

327_ep_norm.txtStart time  30 #Finish Time: 38 GPU: 1 _ep: 996

327_ep_norm.txtStart time  30 #Finish Time: 38 GPU: 1 _ep: 996

333_ep_norm.txtStart time  30 #Finish Time: 38 GPU: 1 _ep: 1058

333_ep_norm.txtStart time  30 #Finish Time: 38 GPU: 1 _ep: 1058

334_ep_norm.txtStart time  30 #Finish Time: 38 GPU: 1 _ep: 1034

334_ep_norm.txtStart time  30 #Finish Time: 38 GPU: 1 _ep: 1034

228_ep_norm.txtStart time  31 #Finish Time: 39 GPU: 16 _ep: 1056

228_ep_norm.txtStart time  31 #Finish Time: 39 GPU: 16 _ep: 1056

229_ep_norm.txtStart time  31 #Finish Time: 39 GPU: 16 _ep: 1013

229_ep_norm.txtStart time  31 #Finish Time: 39 GPU: 16 _ep: 1013

231_ep_norm.txtStart time  31 #Finish Time: 39 GPU: 16 _ep: 1041

231_ep_norm.txtStart time  31 #Finish Time: 39 GPU: 16 _ep: 1041

335_ep_norm.txtStart time  31 #Finish Time: 39 GPU: 1 _ep: 994

335_ep_norm.txtStart time  31 #Finish Time: 39 GPU: 1 _ep: 994

336_ep_norm.txtStart time  31 #Finish Time: 39 GPU: 1 _ep: 1015

336_ep_norm.txtStart time  31 #Finish Time: 39 GPU: 1 _ep: 1015

339_ep_norm.txtStart time  31 #Finish Time: 39 GPU: 1 _ep: 990

339_ep_norm.txtStart time  31 #Finish Time: 39 GPU: 1 _ep: 990

342_ep_norm.txtStart time  31 #Finish Time: 39 GPU: 1 _ep: 1012

342_ep_norm.txtStart time  31 #Finish Time: 39 GPU: 1 _ep: 1012

345_ep_norm.txtStart time  31 #Finish Time: 39 GPU: 1 _ep: 998

345_ep_norm.txtStart time  31 #Finish Time: 39 GPU: 1 _ep: 998

348_ep_norm.txtStart time  31 #Finish Time: 39 GPU: 1 _ep: 1018

348_ep_norm.txtStart time  31 #Finish Time: 39 GPU: 1 _ep: 1018

349_ep_norm.txtStart time  31 #Finish Time: 39 GPU: 1 _ep: 1013

349_ep_norm.txtStart time  31 #Finish Time: 39 GPU: 1 _ep: 1013

351_ep_norm.txtStart time  31 #Finish Time: 39 GPU: 1 _ep: 1033

351_ep_norm.txtStart time  31 #Finish Time: 39 GPU: 1 _ep: 1033

352_ep_norm.txtStart time  31 #Finish Time: 39 GPU: 1 _ep: 1017

352_ep_norm.txtStart time  31 #Finish Time: 39 GPU: 1 _ep: 1017

353_ep_norm.txtStart time  31 #Finish Time: 39 GPU: 1 _ep: 1022

353_ep_norm.txtStart time  31 #Finish Time: 39 GPU: 1 _ep: 1022

357_ep_norm.txtStart time  31 #Finish Time: 39 GPU: 1 _ep: 976

357_ep_norm.txtStart time  31 #Finish Time: 39 GPU: 1 _ep: 976

232_ep_norm.txtStart time  32 #Finish Time: 40 GPU: 16 _ep: 1003

232_ep_norm.txtStart time  32 #Finish Time: 40 GPU: 16 _ep: 1003

233_ep_norm.txtStart time  32 #Finish Time: 40 GPU: 16 _ep: 1019

233_ep_norm.txtStart time  32 #Finish Time: 40 GPU: 16 _ep: 1019

358_ep_norm.txtStart time  32 #Finish Time: 40 GPU: 1 _ep: 1026

358_ep_norm.txtStart time  32 #Finish Time: 40 GPU: 1 _ep: 1026

359_ep_norm.txtStart time  32 #Finish Time: 40 GPU: 1 _ep: 1053

359_ep_norm.txtStart time  32 #Finish Time: 40 GPU: 1 _ep: 1053

363_ep_norm.txtStart time  32 #Finish Time: 40 GPU: 1 _ep: 995

363_ep_norm.txtStart time  32 #Finish Time: 40 GPU: 1 _ep: 995

364_ep_norm.txtStart time  32 #Finish Time: 40 GPU: 1 _ep: 1039

364_ep_norm.txtStart time  32 #Finish Time: 40 GPU: 1 _ep: 1039

365_ep_norm.txtStart time  32 #Finish Time: 40 GPU: 1 _ep: 1036

365_ep_norm.txtStart time  32 #Finish Time: 40 GPU: 1 _ep: 1036

368_ep_norm.txtStart time  32 #Finish Time: 40 GPU: 1 _ep: 1015

368_ep_norm.txtStart time  32 #Finish Time: 40 GPU: 1 _ep: 1015

370_ep_norm.txtStart time  32 #Finish Time: 40 GPU: 1 _ep: 1022

370_ep_norm.txtStart time  32 #Finish Time: 40 GPU: 1 _ep: 1022

371_ep_norm.txtStart time  32 #Finish Time: 40 GPU: 1 _ep: 1023

371_ep_norm.txtStart time  32 #Finish Time: 40 GPU: 1 _ep: 1023

374_ep_norm.txtStart time  32 #Finish Time: 40 GPU: 1 _ep: 1029

374_ep_norm.txtStart time  32 #Finish Time: 40 GPU: 1 _ep: 1029

375_ep_norm.txtStart time  32 #Finish Time: 40 GPU: 1 _ep: 948

375_ep_norm.txtStart time  32 #Finish Time: 40 GPU: 1 _ep: 948

380_ep_norm.txtStart time  32 #Finish Time: 40 GPU: 1 _ep: 1001

380_ep_norm.txtStart time  32 #Finish Time: 40 GPU: 1 _ep: 1001

381_ep_norm.txtStart time  32 #Finish Time: 40 GPU: 1 _ep: 1005

381_ep_norm.txtStart time  32 #Finish Time: 40 GPU: 1 _ep: 1005

382_ep_norm.txtStart time  32 #Finish Time: 40 GPU: 1 _ep: 1031

382_ep_norm.txtStart time  32 #Finish Time: 40 GPU: 1 _ep: 1031

384_ep_norm.txtStart time  32 #Finish Time: 40 GPU: 1 _ep: 1055

384_ep_norm.txtStart time  32 #Finish Time: 40 GPU: 1 _ep: 1055

388_ep_norm.txtStart time  32 #Finish Time: 40 GPU: 1 _ep: 1005

388_ep_norm.txtStart time  32 #Finish Time: 40 GPU: 1 _ep: 1005

390_ep_norm.txtStart time  32 #Finish Time: 40 GPU: 1 _ep: 1041

390_ep_norm.txtStart time  32 #Finish Time: 40 GPU: 1 _ep: 1041

392_ep_norm.txtStart time  32 #Finish Time: 40 GPU: 1 _ep: 1040

392_ep_norm.txtStart time  32 #Finish Time: 40 GPU: 1 _ep: 1040

393_ep_norm.txtStart time  32 #Finish Time: 40 GPU: 1 _ep: 977

393_ep_norm.txtStart time  32 #Finish Time: 40 GPU: 1 _ep: 977

394_ep_norm.txtStart time  32 #Finish Time: 40 GPU: 1 _ep: 1017

394_ep_norm.txtStart time  32 #Finish Time: 40 GPU: 1 _ep: 1017

397_ep_norm.txtStart time  32 #Finish Time: 40 GPU: 1 _ep: 1095

397_ep_norm.txtStart time  32 #Finish Time: 40 GPU: 1 _ep: 1095

398_ep_norm.txtStart time  32 #Finish Time: 40 GPU: 1 _ep: 1045

398_ep_norm.txtStart time  32 #Finish Time: 40 GPU: 1 _ep: 1045

399_ep_norm.txtStart time  32 #Finish Time: 40 GPU: 1 _ep: 1006

399_ep_norm.txtStart time  32 #Finish Time: 40 GPU: 1 _ep: 1006

404_ep_norm.txtStart time  32 #Finish Time: 40 GPU: 1 _ep: 1055

404_ep_norm.txtStart time  32 #Finish Time: 40 GPU: 1 _ep: 1055

405_ep_norm.txtStart time  32 #Finish Time: 40 GPU: 1 _ep: 1028

405_ep_norm.txtStart time  32 #Finish Time: 40 GPU: 1 _ep: 1028

411_ep_norm.txtStart time  32 #Finish Time: 40 GPU: 1 _ep: 1014

411_ep_norm.txtStart time  32 #Finish Time: 40 GPU: 1 _ep: 1014

414_ep_norm.txtStart time  32 #Finish Time: 40 GPU: 1 _ep: 1024

414_ep_norm.txtStart time  32 #Finish Time: 40 GPU: 1 _ep: 1024

416_ep_norm.txtStart time  32 #Finish Time: 40 GPU: 1 _ep: 1019

416_ep_norm.txtStart time  32 #Finish Time: 40 GPU: 1 _ep: 1019

235_ep_norm.txtStart time  33 #Finish Time: 41 GPU: 32 _ep: 1028

235_ep_norm.txtStart time  33 #Finish Time: 41 GPU: 32 _ep: 1028

418_ep_norm.txtStart time  33 #Finish Time: 41 GPU: 1 _ep: 1020

418_ep_norm.txtStart time  33 #Finish Time: 41 GPU: 1 _ep: 1020

420_ep_norm.txtStart time  33 #Finish Time: 41 GPU: 1 _ep: 1005

420_ep_norm.txtStart time  33 #Finish Time: 41 GPU: 1 _ep: 1005

422_ep_norm.txtStart time  33 #Finish Time: 41 GPU: 1 _ep: 1016

422_ep_norm.txtStart time  33 #Finish Time: 41 GPU: 1 _ep: 1016

424_ep_norm.txtStart time  33 #Finish Time: 41 GPU: 1 _ep: 1064

424_ep_norm.txtStart time  33 #Finish Time: 41 GPU: 1 _ep: 1064

432_ep_norm.txtStart time  33 #Finish Time: 41 GPU: 1 _ep: 1050

432_ep_norm.txtStart time  33 #Finish Time: 41 GPU: 1 _ep: 1050

434_ep_norm.txtStart time  33 #Finish Time: 41 GPU: 1 _ep: 1014

434_ep_norm.txtStart time  33 #Finish Time: 41 GPU: 1 _ep: 1014

435_ep_norm.txtStart time  33 #Finish Time: 41 GPU: 1 _ep: 1002

435_ep_norm.txtStart time  33 #Finish Time: 41 GPU: 1 _ep: 1002

436_ep_norm.txtStart time  33 #Finish Time: 41 GPU: 1 _ep: 1058

436_ep_norm.txtStart time  33 #Finish Time: 41 GPU: 1 _ep: 1058

442_ep_norm.txtStart time  33 #Finish Time: 41 GPU: 1 _ep: 1040

442_ep_norm.txtStart time  33 #Finish Time: 41 GPU: 1 _ep: 1040

443_ep_norm.txtStart time  33 #Finish Time: 41 GPU: 1 _ep: 1055

443_ep_norm.txtStart time  33 #Finish Time: 41 GPU: 1 _ep: 1055

444_ep_norm.txtStart time  33 #Finish Time: 41 GPU: 1 _ep: 1022

444_ep_norm.txtStart time  33 #Finish Time: 41 GPU: 1 _ep: 1022

445_ep_norm.txtStart time  33 #Finish Time: 41 GPU: 1 _ep: 1004

445_ep_norm.txtStart time  33 #Finish Time: 41 GPU: 1 _ep: 1004

446_ep_norm.txtStart ti