241----------------------62
340----------------------62
341----------------------62
343----------------------62
344----------------------62
400----------------------63
401----------------------63
325----------------------63
326----------------------63
328----------------------63
329----------------------63
330----------------------63
331----------------------63
332----------------------63
337----------------------63
308----------------------63
265----------------------63
469----------------------63
412----------------------63
258----------------------63
257----------------------63
246----------------------63
403----------------------63
402----------------------63
385----------------------63
311----------------------63
389----------------------63
338----------------------63
298----------------------63
262----------------------63
439----------------------63
295----------------------63
437----------------------63
438----------------------63
346----------------------63
347----------------------63
350----------------------63
354----------------------63
355----------------------63
322----------------------63
323----------------------64
362----------------------64
366----------------------64
268----------------------64
473----------------------64
472----------------------64
282----------------------64
283----------------------64
449----------------------64
376----------------------64
316----------------------64
314----------------------64
391----------------------64
395----------------------64
396----------------------64
280----------------------64
406----------------------64
407----------------------64
408----------------------64
409----------------------64
410----------------------64
413----------------------64
415----------------------64
417----------------------64
419----------------------64
421----------------------64
423----------------------64
425----------------------64
253----------------------65
429----------------------65
430----------------------65
431----------------------65
433----------------------65
440----------------------65
441----------------------65
451----------------------65
452----------------------65
453----------------------65
454----------------------65
457----------------------65
460----------------------65
367----------------------65
302----------------------65
304----------------------65
305----------------------65
306----------------------65
313----------------------65
477----------------------65
479----------------------65
247----------------------65
427----------------------65
428----------------------65
426----------------------65
320----------------------65
369----------------------65
372----------------------65
373----------------------65
377----------------------65
378----------------------65
379----------------------65
383----------------------66
386----------------------66
387----------------------66
286----------------------66
287----------------------66
288----------------------66
289----------------------66
356----------------------66
291----------------------66
292----------------------66
294----------------------66
300----------------------66
255----------------------66
259----------------------66
260----------------------66
263----------------------66
270----------------------66
272----------------------66
275----------------------66
277----------------------66
467----------------------66
470----------------------66
474----------------------66
465----------------------66
463----------------------66
361----------------------66
360----------------------66
382----------------------68
462----------------------69
357----------------------69
358----------------------69
293----------------------69
299----------------------69
301----------------------69
256----------------------69
269----------------------69
271----------------------69
273----------------------69
274----------------------69
276----------------------69
278----------------------69
279----------------------69
466----------------------69
468----------------------69
471----------------------69
475----------------------69
464----------------------69
461----------------------69
390----------------------69
285----------------------69
245----------------------69
251----------------------69
432----------------------69
434----------------------69
442----------------------69
443----------------------69
444----------------------69
445----------------------69
455----------------------69
456----------------------69
458----------------------69
459----------------------69
321----------------------69
303----------------------69
307----------------------69
309----------------------69
310----------------------69
476----------------------69
478----------------------69
248----------------------69
249----------------------70
250----------------------70
254----------------------70
319----------------------70
368----------------------70
290----------------------70
380----------------------70
381----------------------70
324----------------------70
359----------------------70
363----------------------70
364----------------------70
365----------------------70
266----------------------70
267----------------------70
371----------------------70
370----------------------70
284----------------------70
450----------------------70
448----------------------70
374----------------------70
375----------------------70
392----------------------70
393----------------------70
394----------------------70
397----------------------70
398----------------------70
399----------------------70
281----------------------70
404----------------------70
405----------------------70
411----------------------70
414----------------------70
416----------------------70
418----------------------70
420----------------------70
422----------------------70
424----------------------70
315----------------------70
327----------------------70
333----------------------70
334----------------------70
335----------------------70
336----------------------70
264----------------------70
436----------------------70
435----------------------70
384----------------------70
312----------------------70
447----------------------70
446----------------------70
388----------------------70
339----------------------70
297----------------------70
261----------------------70
296----------------------70
252----------------------70
345----------------------70
348----------------------70
349----------------------70
351----------------------71
352----------------------71
353----------------------71
317----------------------71
318----------------------71
240----------------------71
242----------------------71
243----------------------71
244----------------------71
342----------------------71
1----------------------90
28----------------------91
9----------------------91
18----------------------91
19----------------------91
22----------------------91
5----------------------92
14----------------------92
15----------------------92
11----------------------92
24----------------------92
32----------------------92
33----------------------92
37----------------------92
38----------------------92
39----------------------92
2----------------------92
4----------------------92
0----------------------93
36----------------------95
10----------------------97
29----------------------97
6----------------------97
7----------------------98
8----------------------98
12----------------------98
13----------------------98
25----------------------98
26----------------------98
34----------------------98
35----------------------98
3----------------------98
27----------------------98
16----------------------98
17----------------------98
20----------------------98
21----------------------98
23----------------------98
30----------------------98
31----------------------98
52----------------------99
42----------------------100
47----------------------119
54----------------------124
50----------------------124
43----------------------124
41----------------------124
46----------------------124
45----------------------124
48----------------------125
59----------------------125
53----------------------125
58----------------------127
55----------------------127
56----------------------127
44----------------------127
49----------------------127
57----------------------127
40----------------------127
51----------------------127
61----------------------127
118----------------------128
94----------------------130
95----------------------130
80----------------------130
81----------------------130
70----------------------130
72----------------------130
89----------------------130
85----------------------130
99----------------------131
98----------------------131
96----------------------131
68----------------------131
62----------------------131
108----------------------131
109----------------------131
79----------------------131
86----------------------133
119----------------------133
105----------------------134
104----------------------134
82----------------------134
88----------------------134
111----------------------134
97----------------------135
77----------------------135
73----------------------135
64----------------------135
67----------------------135
91----------------------136
76----------------------136
78----------------------138
74----------------------139
75----------------------141
65----------------------143
66----------------------145
83----------------------145
117----------------------145
69----------------------147
63----------------------147
60----------------------147
110----------------------147
92----------------------147
93----------------------147
71----------------------147
90----------------------148
84----------------------148
106----------------------148
107----------------------148
112----------------------149
103----------------------149
101----------------------149
114----------------------149
115----------------------149
116----------------------149
113----------------------149
102----------------------149
87----------------------149
100----------------------149
124----------------------191
179----------------------191
173----------------------191
137----------------------192
148----------------------192
125----------------------193
122----------------------193
123----------------------193
144----------------------193
209----------------------193
161----------------------194
178----------------------194
195----------------------194
182----------------------194
199----------------------195
138----------------------196
158----------------------196
190----------------------197
171----------------------197
165----------------------197
194----------------------198
147----------------------198
130----------------------199
196----------------------199
197----------------------199
127----------------------199
181----------------------200
203----------------------200
149----------------------200
150----------------------200
151----------------------200
157----------------------201
155----------------------201
143----------------------202
188----------------------202
175----------------------202
185----------------------202
205----------------------202
186----------------------203
187----------------------203
170----------------------203
146----------------------203
133----------------------203
169----------------------203
198----------------------204
177----------------------205
135----------------------207
142----------------------209
145----------------------212
152----------------------212
153----------------------212
204----------------------212
140----------------------212
156----------------------213
180----------------------213
183----------------------213
184----------------------213
206----------------------213
166----------------------213
159----------------------214
160----------------------214
202----------------------214
191----------------------214
129----------------------214
192----------------------214
172----------------------214
126----------------------215
132----------------------215
200----------------------215
201----------------------215
162----------------------215
139----------------------215
168----------------------215
134----------------------216
128----------------------216
131----------------------216
164----------------------216
189----------------------216
193----------------------216
174----------------------216
176----------------------217
120----------------------217
121----------------------217
208----------------------217
163----------------------217
136----------------------217
167----------------------217
207----------------------218
141----------------------218
154----------------------218
216----------------------252
226----------------------252
215----------------------253
219----------------------255
223----------------------256
214----------------------257
234----------------------257
230----------------------258
213----------------------261
211----------------------263
212----------------------265
225----------------------267
217----------------------267
222----------------------268
221----------------------268
224----------------------268
232----------------------269
227----------------------270
229----------------------270
220----------------------271
228----------------------271
210----------------------272
233----------------------272
218----------------------272
231----------------------273
236----------------------284
238----------------------286
239----------------------287
237----------------------288
235----------------------289
241----------------------62
340----------------------62
341----------------------62
343----------------------62
344----------------------62
400----------------------63
401----------------------63
325----------------------63
326----------------------63
328----------------------63
329----------------------63
330----------------------63
331----------------------63
332----------------------63
337----------------------63
308----------------------63
265----------------------63
469----------------------63
412----------------------63
258----------------------63
257----------------------63
246----------------------63
403----------------------63
402----------------------63
385----------------------63
311----------------------63
389----------------------63
338----------------------63
298----------------------63
262----------------------63
439----------------------63
295----------------------63
437----------------------63
438----------------------63
346----------------------63
347----------------------63
350----------------------63
354----------------------63
355----------------------63
322----------------------63
323----------------------64
362----------------------64
366----------------------64
268----------------------64
473----------------------64
472----------------------64
282----------------------64
283----------------------64
449----------------------64
376----------------------64
316----------------------64
314----------------------64
391----------------------64
395----------------------64
396----------------------64
280----------------------64
406----------------------64
407----------------------64
408----------------------64
409----------------------64
410----------------------64
413----------------------64
415----------------------64
417----------------------64
419----------------------64
421----------------------64
423----------------------64
425----------------------64
253----------------------65
429----------------------65
430----------------------65
431----------------------65
433----------------------65
440----------------------65
441----------------------65
451----------------------65
452----------------------65
453----------------------65
454----------------------65
457----------------------65
460----------------------65
367----------------------65
302----------------------65
304----------------------65
305----------------------65
306----------------------65
313----------------------65
477----------------------65
479----------------------65
247----------------------65
427----------------------65
428----------------------65
426----------------------65
320----------------------65
369----------------------65
372----------------------65
373----------------------65
377----------------------65
378----------------------65
379----------------------65
383----------------------66
386----------------------66
387----------------------66
286----------------------66
287----------------------66
288----------------------66
289----------------------66
356----------------------66
291----------------------66
292----------------------66
294----------------------66
300----------------------66
255----------------------66
259----------------------66
260----------------------66
263----------------------66
270----------------------66
272----------------------66
275----------------------66
277----------------------66
467----------------------66
470----------------------66
474----------------------66
465----------------------66
463----------------------66
361----------------------66
360----------------------66
382----------------------68
462----------------------69
357----------------------69
358----------------------69
293----------------------69
299----------------------69
301----------------------69
256----------------------69
269----------------------69
271----------------------69
273----------------------69
274----------------------69
276----------------------69
278----------------------69
279----------------------69
466----------------------69
468----------------------69
471----------------------69
475----------------------69
464----------------------69
461----------------------69
390----------------------69
285----------------------69
245----------------------69
251----------------------69
432----------------------69
434----------------------69
442----------------------69
443----------------------69
444----------------------69
445----------------------69
455----------------------69
456----------------------69
458----------------------69
459----------------------69
321----------------------69
303----------------------69
307----------------------69
309----------------------69
310----------------------69
476----------------------69
478----------------------69
248----------------------69
249----------------------70
250----------------------70
254----------------------70
319----------------------70
368----------------------70
290----------------------70
380----------------------70
381----------------------70
324----------------------70
359----------------------70
363----------------------70
364----------------------70
365----------------------70
266----------------------70
267----------------------70
371----------------------70
370----------------------70
284----------------------70
450----------------------70
448----------------------70
374----------------------70
375----------------------70
392----------------------70
393----------------------70
394----------------------70
397----------------------70
398----------------------70
399----------------------70
281----------------------70
404----------------------70
405----------------------70
411----------------------70
414----------------------70
416----------------------70
418----------------------70
420----------------------70
422----------------------70
424----------------------70
315----------------------70
327----------------------70
333----------------------70
334----------------------70
335----------------------70
336----------------------70
264----------------------70
436----------------------70
435----------------------70
384----------------------70
312----------------------70
447----------------------70
446----------------------70
388----------------------70
339----------------------70
297----------------------70
261----------------------70
296----------------------70
252----------------------70
345----------------------70
348----------------------70
349----------------------70
351----------------------71
352----------------------71
353----------------------71
317----------------------71
318----------------------71
240----------------------71
242----------------------71
243----------------------71
244----------------------71
342----------------------71
1----------------------90
28----------------------91
9----------------------91
18----------------------91
19----------------------91
22----------------------91
5----------------------92
14----------------------92
15----------------------92
11----------------------92
24----------------------92
32----------------------92
33----------------------92
37----------------------92
38----------------------92
39----------------------92
2----------------------92
4----------------------92
0----------------------93
36----------------------95
10----------------------97
29----------------------97
6----------------------97
7----------------------98
8----------------------98
12----------------------98
13----------------------98
25----------------------98
26----------------------98
34----------------------98
35----------------------98
3----------------------98
27----------------------98
16----------------------98
17----------------------98
20----------------------98
21----------------------98
23----------------------98
30----------------------98
31----------------------98
52----------------------99
42----------------------100
47----------------------119
54----------------------124
50----------------------124
43----------------------124
41----------------------124
46----------------------124
45----------------------124
48----------------------125
59----------------------125
53----------------------125
58----------------------127
55----------------------127
56----------------------127
44----------------------127
49----------------------127
57----------------------127
40----------------------127
51----------------------127
61----------------------127
118----------------------128
94----------------------130
95----------------------130
80----------------------130
81----------------------130
70----------------------130
72----------------------130
89----------------------130
85----------------------130
99----------------------131
98----------------------131
96----------------------131
68----------------------131
62----------------------131
108----------------------131
109----------------------131
79----------------------131
86----------------------133
119----------------------133
105----------------------134
104----------------------134
82----------------------134
88----------------------134
111----------------------134
97----------------------135
77----------------------135
73----------------------135
64----------------------135
67----------------------135
91----------------------136
76----------------------136
78----------------------138
74----------------------139
75----------------------141
65----------------------143
66----------------------145
83----------------------145
117----------------------145
69----------------------147
63----------------------147
60----------------------147
110----------------------147
92----------------------147
93----------------------147
71----------------------147
90----------------------148
84----------------------148
106----------------------148
107----------------------148
112----------------------149
103----------------------149
101----------------------149
114----------------------149
115----------------------149
116----------------------149
113----------------------149
102----------------------149
87----------------------149
100----------------------149
124----------------------191
179----------------------191
173----------------------191
137----------------------192
148----------------------192
125----------------------193
122----------------------193
123----------------------193
144----------------------193
209----------------------193
161----------------------194
178----------------------194
195----------------------194
182----------------------194
199----------------------195
138----------------------196
158----------------------196
190----------------------197
171----------------------197
165----------------------197
194----------------------198
147----------------------198
130----------------------199
196----------------------199
197----------------------199
127----------------------199
181----------------------200
203----------------------200
149----------------------200
150----------------------200
151----------------------200
157----------------------201
155----------------------201
143----------------------202
188----------------------202
175----------------------202
185----------------------202
205----------------------202
186----------------------203
187----------------------203
170----------------------203
146----------------------203
133----------------------203
169----------------------203
198----------------------204
177----------------------205
135----------------------207
142----------------------209
145----------------------212
152----------------------212
153----------------------212
204----------------------212
140----------------------212
156----------------------213
180----------------------213
183----------------------213
184----------------------213
206----------------------213
166----------------------213
159----------------------214
160----------------------214
202----------------------214
191----------------------214
129----------------------214
192----------------------214
172----------------------214
126----------------------215
132----------------------215
200----------------------215
201----------------------215
162----------------------215
139----------------------215
168----------------------215
134----------------------216
128----------------------216
131----------------------216
164----------------------216
189----------------------216
193----------------------216
174----------------------216
176----------------------217
120----------------------217
121----------------------217
208----------------------217
163----------------------217
136----------------------217
167----------------------217
207----------------------218
141----------------------218
154----------------------218
216----------------------252
226----------------------252
215----------------------253
219----------------------255
223----------------------256
214----------------------257
234----------------------257
230----------------------258
213----------------------261
211----------------------263
212----------------------265
225----------------------267
217----------------------267
222----------------------268
221----------------------268
224----------------------268
232----------------------269
227----------------------270
229----------------------270
220----------------------271
228----------------------271
210----------------------272
233----------------------272
218----------------------272
231----------------------273
236----------------------284
238----------------------286
239----------------------287
237----------------------288
235----------------------289
241----------------------62
340----------------------62
341----------------------62
343----------------------62
344----------------------62
400----------------------63
401----------------------63
325----------------------63
326----------------------63
328----------------------63
329----------------------63
330----------------------63
331----------------------63
332----------------------63
337----------------------63
308----------------------63
265----------------------63
469----------------------63
412----------------------63
258----------------------63
257----------------------63
246----------------------63
403----------------------63
402----------------------63
385----------------------63
311----------------------63
389----------------------63
338----------------------63
298----------------------63
262----------------------63
439----------------------63
295----------------------63
437----------------------63
438----------------------63
346----------------------63
347----------------------63
350----------------------63
354----------------------63
355----------------------63
322----------------------63
323----------------------64
362----------------------64
366----------------------64
268----------------------64
473----------------------64
472----------------------64
282----------------------64
283----------------------64
449----------------------64
376----------------------64
316----------------------64
314----------------------64
391----------------------64
395----------------------64
396----------------------64
280----------------------64
406----------------------64
407----------------------64
408----------------------64
409----------------------64
410----------------------64
413----------------------64
415----------------------64
417----------------------64
419----------------------64
421----------------------64
423----------------------64
425----------------------64
253----------------------65
429----------------------65
430----------------------65
431----------------------65
433----------------------65
440----------------------65
441----------------------65
451----------------------65
452----------------------65
453----------------------65
454----------------------65
457----------------------65
460----------------------65
367----------------------65
302----------------------65
304----------------------65
305----------------------65
306----------------------65
313----------------------65
477----------------------65
479----------------------65
247----------------------65
427----------------------65
428----------------------65
426----------------------65
320----------------------65
369----------------------65
372----------------------65
373----------------------65
377----------------------65
378----------------------65
379----------------------65
383----------------------66
386----------------------66
387----------------------66
286----------------------66
287----------------------66
288----------------------66
289----------------------66
356----------------------66
291----------------------66
292----------------------66
294----------------------66
300----------------------66
255----------------------66
259----------------------66
260----------------------66
263----------------------66
270----------------------66
272----------------------66
275----------------------66
277----------------------66
467----------------------66
470----------------------66
474----------------------66
465----------------------66
463----------------------66
361----------------------66
360----------------------66
382----------------------68
462----------------------69
357----------------------69
358----------------------69
293----------------------69
299----------------------69
301----------------------69
256----------------------69
269----------------------69
271----------------------69
273----------------------69
274----------------------69
276----------------------69
278----------------------69
279----------------------69
466----------------------69
468----------------------69
471----------------------69
475----------------------69
464----------------------69
461----------------------69
390----------------------69
285----------------------69
245----------------------69
251----------------------69
432----------------------69
434----------------------69
442----------------------69
443----------------------69
444----------------------69
445----------------------69
455----------------------69
456----------------------69
458----------------------69
459----------------------69
321----------------------69
303----------------------69
307----------------------69
309----------------------69
310----------------------69
476----------------------69
478----------------------69
248----------------------69
249----------------------70
250----------------------70
254----------------------70
319----------------------70
368----------------------70
290----------------------70
380----------------------70
381----------------------70
324----------------------70
359----------------------70
363----------------------70
364----------------------70
365----------------------70
266----------------------70
267----------------------70
371----------------------70
370----------------------70
284----------------------70
450----------------------70
448----------------------70
374----------------------70
375----------------------70
392----------------------70
393----------------------70
394----------------------70
397----------------------70
398----------------------70
399----------------------70
281----------------------70
404----------------------70
405----------------------70
411----------------------70
414----------------------70
416----------------------70
418----------------------70
420----------------------70
422----------------------70
424----------------------70
315----------------------70
327----------------------70
333----------------------70
334----------------------70
335----------------------70
336----------------------70
264----------------------70
436----------------------70
435----------------------70
384----------------------70
312----------------------70
447----------------------70
446----------------------70
388----------------------70
339----------------------70
297----------------------70
261----------------------70
296----------------------70
252----------------------70
345----------------------70
348----------------------70
349----------------------70
351----------------------71
352----------------------71
353----------------------71
317----------------------71
318----------------------71
240----------------------71
242----------------------71
243----------------------71
244----------------------71
342----------------------71
1----------------------90
28----------------------91
9----------------------91
18----------------------91
19----------------------91
22----------------------91
5----------------------92
14----------------------92
15----------------------92
11----------------------92
24----------------------92
32----------------------92
33----------------------92
37----------------------92
38----------------------92
39----------------------92
2----------------------92
4----------------------92
0----------------------93
36----------------------95
10----------------------97
29----------------------97
6----------------------97
7----------------------98
8----------------------98
12----------------------98
13----------------------98
25----------------------98
26----------------------98
34----------------------98
35----------------------98
3----------------------98
27----------------------98
16----------------------98
17----------------------98
20----------------------98
21----------------------98
23----------------------98
30----------------------98
31----------------------98
52----------------------99
42----------------------100
47----------------------119
54----------------------124
50----------------------124
43----------------------124
41----------------------124
46----------------------124
45----------------------124
48----------------------125
59----------------------125
53----------------------125
58----------------------127
55----------------------127
56----------------------127
44----------------------127
49----------------------127
57----------------------127
40----------------------127
51----------------------127
61----------------------127
118----------------------128
94----------------------130
95----------------------130
80----------------------130
81----------------------130
70----------------------130
72----------------------130
89----------------------130
85----------------------130
99----------------------131
98----------------------131
96----------------------131
68----------------------131
62----------------------131
108----------------------131
109----------------------131
79----------------------131
86----------------------133
119----------------------133
105----------------------134
104----------------------134
82----------------------134
88----------------------134
111----------------------134
97----------------------135
77----------------------135
73----------------------135
64----------------------135
67----------------------135
91----------------------136
76----------------------136
78----------------------138
74----------------------139
75----------------------141
65----------------------143
66----------------------145
83----------------------145
117----------------------145
69----------------------147
63----------------------147
60----------------------147
110----------------------147
92----------------------147
93----------------------147
71----------------------147
90----------------------148
84----------------------148
106----------------------148
107----------------------148
112----------------------149
103----------------------149
101----------------------149
114----------------------149
115----------------------149
116----------------------149
113----------------------149
102----------------------149
87----------------------149
100----------------------149
124----------------------191
179----------------------191
173----------------------191
137----------------------192
148----------------------192
125----------------------193
122----------------------193
123----------------------193
144----------------------193
209----------------------193
161----------------------194
178----------------------194
195----------------------194
182----------------------194
199----------------------195
138----------------------196
158----------------------196
190----------------------197
171----------------------197
165----------------------197
194----------------------198
147----------------------198
130----------------------199
196----------------------199
197----------------------199
127----------------------199
181----------------------200
203----------------------200
149----------------------200
150----------------------200
151----------------------200
157----------------------201
155----------------------201
143----------------------202
188----------------------202
175----------------------202
185----------------------202
205----------------------202
186----------------------203
187----------------------203
170----------------------203
146----------------------203
133----------------------203
169----------------------203
198----------------------204
177----------------------205
135----------------------207
142----------------------209
145----------------------212
152----------------------212
153----------------------212
204----------------------212
140----------------------212
156----------------------213
180----------------------213
183----------------------213
184----------------------213
206----------------------213
166----------------------213
159----------------------214
160----------------------214
202----------------------214
191----------------------214
129----------------------214
192----------------------214
172----------------------214
126----------------------215
132----------------------215
200----------------------215
201----------------------215
162----------------------215
139----------------------215
168----------------------215
134----------------------216
128----------------------216
131----------------------216
164----------------------216
189----------------------216
193----------------------216
174----------------------216
176----------------------217
120----------------------217
121----------------------217
208----------------------217
163----------------------217
136----------------------217
167----------------------217
207----------------------218
141----------------------218
154----------------------218
216----------------------252
226----------------------252
215----------------------253
219----------------------255
223----------------------256
214----------------------257
234----------------------257
230----------------------258
213----------------------261
211----------------------263
212----------------------265
225----------------------267
217----------------------267
222----------------------268
221----------------------268
224----------------------268
232----------------------269
227----------------------270
229----------------------270
220----------------------271
228----------------------271
210----------------------272
233----------------------272
218----------------------272
231----------------------273
236----------------------284
238----------------------286
239----------------------287
237----------------------288
235----------------------289
